<?xml version="1.0" encoding="utf-8"?>
<!-- Generator: Adobe Illustrator 16.0.3, SVG Export Plug-In . SVG Version: 6.00 Build 0)  -->
<!DOCTYPE svg PUBLIC "-//W3C//DTD SVG 1.1//EN" "http://www.w3.org/Graphics/SVG/1.1/DTD/svg11.dtd">
<svg version="1.1" id="ОТКРЫТИЯ" xmlns="http://www.w3.org/2000/svg" xmlns:xlink="http://www.w3.org/1999/xlink" x="0px"
	 y="0px" width="3646.566px" height="2372.037px" viewBox="0 0 3646.566 2372.037" enable-background="new 0 0 3646.566 2372.037"
	 xml:space="preserve">
<g id="Фернан_Магелан_и_Хуан_Эль-Кано">
	<path fill="none" stroke="#954B36" stroke-width="5.1024" stroke-miterlimit="3.8637" stroke-dasharray="14.1732,2.8346" d="
		M1385.986,758.727c0,0-59.456-28.793-114.044,80.475c-43.052,86.175-10.623,20.617-33.992,70.628"/>
	<polygon fill="#954B36" stroke="#954B36" stroke-width="5.1024" stroke-miterlimit="3.8637" points="1237.95,909.83 
		1236.895,907.2 1234.669,914.006 1241.075,910.267 	"/>
	<path fill="none" stroke="#954B36" stroke-width="5.1024" stroke-miterlimit="3.8637" stroke-dasharray="14.1732,2.8346" d="
		M1076.955,1242.802c0,0-4.726,8.662-18.113,56.7c-6.3,22.837,5.75,80.225,3.15,96.075"/>
	<polygon fill="#954B36" stroke="#954B36" stroke-width="5.1024" stroke-miterlimit="3.8637" points="1062.413,1393.011 
		1060.185,1391.26 1061.658,1398.268 1065.337,1391.829 	"/>
	<path fill="none" stroke="#954B36" stroke-width="5.1024" stroke-miterlimit="3.8637" stroke-dasharray="14.1732,2.8346" d="
		M1423.615,1417.583c-10.717-13.854-21.443-27.234-31.448-39.415c-36.225-44.1-100.348-87.602-114.976-103.95
		c-26.774-29.925-29.925-53.55-39.375-80.325"/>
	<polygon fill="#954B36" stroke="#954B36" stroke-width="5.1024" stroke-miterlimit="3.8637" points="1237.681,1196.345 
		1240.477,1196.809 1235.815,1191.374 1235.686,1198.79 	"/>
	<path fill="none" stroke="#954B36" stroke-width="5.1024" stroke-miterlimit="3.8637" stroke-dasharray="14.1732,2.8346" d="
		M1005.283,1610.773c-3.938,9.45-3.938,9.45-12.109,18.881c-3.534,4.078-2.583-7.358-15.092,25.571
		c-7.875,20.731-3.15,18.112-21.263,48.826c-5.382,9.126-25.2,19.688-29.138,20.476"/>
	<polygon fill="#954B36" stroke="#954B36" stroke-width="5.1024" stroke-miterlimit="3.8637" points="924.175,1723.526 
		925.029,1720.826 918.991,1724.672 926.313,1725.847 	"/>
	<path fill="none" stroke="#954B36" stroke-width="5.1024" stroke-miterlimit="3.8637" stroke-dasharray="14.1732,2.8346" d="
		M930.594,1747.595c-6.716,19.241-4.029,26.939-22.832,49.066c-25.07,29.502-24.177,39.445-16.118,68.309
		c7.902,28.302,25.519,50.99,25.519,95.246"/>
	<polygon fill="#954B36" stroke="#954B36" stroke-width="5.1024" stroke-miterlimit="3.8637" points="917.878,1957.616 
		915.397,1956.249 917.984,1962.925 920.574,1955.975 	"/>
	<path fill="none" stroke="#954B36" stroke-width="5.1024" stroke-miterlimit="3.8637" stroke-dasharray="14.1732,2.8346" d="
		M284.612,1634.788c-45.639-5.609-146.243-15.324-188.974-16.348c-35.008-0.837-95.938-1.574-95.938-1.574"/>
	<polygon fill="#954B36" stroke="#954B36" stroke-width="5.1024" stroke-miterlimit="3.8637" points="4.433,1616.894 
		5.828,1614.426 -0.876,1616.942 6.044,1619.606 	"/>
	<path fill="none" stroke="#954B36" stroke-width="5.1024" stroke-miterlimit="3.8637" stroke-dasharray="14.1732,2.8346" d="
		M683.349,1786.678c-25.768-13.687-69.13-45.774-86.771-57.987c-20.475-14.175-56.7-26.775-105.525-42.525
		c-50.254-16.211-157.5-42.524-189-47.25"/>
	<polygon fill="#954B36" stroke="#954B36" stroke-width="5.1024" stroke-miterlimit="3.8637" points="304.624,1639.301 
		306.345,1637.05 299.358,1638.618 305.847,1642.209 	"/>
	<path fill="none" stroke="#954B36" stroke-width="5.1024" stroke-miterlimit="3.8637" stroke-dasharray="14.1732,2.8346" d="
		M2248,1665.073c-26.784,12.433-53.836,24.63-66.452,30.697c-8.547,4.11-32.269,10.121-41.274,11.048"/>
	<polygon fill="#954B36" stroke="#954B36" stroke-width="5.1024" stroke-miterlimit="3.8637" points="2140.273,1706.818 
		2141.417,1704.225 2134.995,1707.395 2142.146,1709.357 	"/>
	<path fill="none" stroke="#954B36" stroke-width="5.1024" stroke-miterlimit="3.8637" stroke-dasharray="14.1732,2.8346" d="
		M2431.5,1573.87c-12.923,4.577-61.744,41.195-96.208,60.649c-5.658,3.194-64.574,22.97-87.292,30.554"/>
	<path fill="none" stroke="#954B36" stroke-width="5.1024" stroke-miterlimit="3.8637" stroke-dasharray="14.1732,2.8346" d="
		M2611.789,1146.956c0-5.567,23.346-16.851,36.334-12.989c11.738,3.49,30.612,10.997,39.112,23.058"/>
	<polygon fill="#954B36" stroke="#954B36" stroke-width="5.1024" stroke-miterlimit="3.8637" points="2685.737,1154.898 
		2682.92,1155.21 2688.881,1159.177 2686.995,1152.005 	"/>
	<path fill="none" stroke="#954B36" stroke-width="5.1024" stroke-miterlimit="3.8637" stroke-dasharray="14.1732,2.8346" d="
		M2640.693,1122.652c-13.321,3.497-24.776,6.974-26.221,13.428c-1.683,7.523-2.524,15.046,5.051,16.717l-1.196,2.505"/>
	<path fill="none" stroke="#954B36" stroke-width="5.1024" stroke-miterlimit="3.8637" stroke-dasharray="14.1732,2.8346" d="
		M2895.696,1062.546c-15.751,3.938-43.843,13.388-65.362,13.388c-21.521,0-48.402-0.091-63.788,2.362
		c-15.385,2.454-40.815,11.39-48.841,7.709c-8.025-3.68-4.346-3.015-8.025,6.799c-3.681,9.814-11.706,24.535-26.428,24.535
		c-14.721,0-6.179-1.156-23.807,3.482"/>
	<polygon fill="#954B36" stroke="#954B36" stroke-width="5.1024" stroke-miterlimit="3.8637" points="2657.959,1119.16 
		2658.651,1116.412 2652.852,1120.613 2660.232,1121.349 	"/>
	<path fill="none" stroke="#954B36" stroke-width="5.1024" stroke-miterlimit="3.8637" stroke-dasharray="14.1732,2.8346" d="
		M3624.792,1588.461c-49.792-32.268-204.598-227.526-264.964-257.707"/>
	<polygon fill="#954B36" stroke="#954B36" stroke-width="5.1024" stroke-miterlimit="3.8637" points="3362.154,1331.917 
		3364.488,1330.308 3357.359,1329.636 3362.417,1335.061 	"/>
	<path fill="none" stroke="#954B36" stroke-width="5.1024" stroke-miterlimit="3.8637" stroke-dasharray="14.1732,2.8346" d="
		M1224.022,932.4c0,0-10.042,18.238-47.843,66.276c-11.024,16.537-18.112,24.413-28.35,44.1l-11.813,28.35
		c0,0-19.688,40.163-32.288,84.263c-10.558,45.103-16.537,50.401-19.688,66.151"/>
	<polygon fill="#954B36" stroke="#954B36" stroke-width="5.1024" stroke-miterlimit="3.8637" points="1084.551,1218.99 
		1082.387,1217.162 1083.614,1224.216 1087.516,1217.91 	"/>
	<path fill="none" stroke="#954B36" stroke-width="5.1024" stroke-miterlimit="3.8637" stroke-dasharray="14.1732,2.8346" d="
		M3114.496,1142.597c-14.174-11.025-34.871-12.462-42.176-19.779c-32.186-32.232-69.419-90.135-88.319-102.735
		c-37.81-25.207-69.034,6.601-80.06,23.926"/>
	<polygon fill="#954B36" stroke="#954B36" stroke-width="5.1024" stroke-miterlimit="3.8637" points="2905.337,1041.815 
		2903.978,1039.329 2902.577,1046.35 2908.492,1041.878 	"/>
	<g>
		<g>
			<path fill-rule="evenodd" clip-rule="evenodd" fill="#954B36" d="M2622.431,1094.641h2.891v-13.771h-2.135
				c-0.906,1.624-2.078,2.531-3.476,3.419l1.19,1.964c0.699-0.434,1.039-0.661,1.529-1.058V1094.641z"/>
			<path fill-rule="evenodd" clip-rule="evenodd" fill="#954B36" d="M2636,1081.418h-6.63l-0.529,7.216h2.115
				c0.34-0.473,0.926-0.548,1.398-0.548c0.699,0,1.436,0.718,1.436,2.323c0,1.719-0.906,2.305-1.662,2.305
				c-0.926,0-1.436-0.585-1.871-1.436l-2.077,0.944c0.566,1.682,2.153,2.739,3.948,2.739c3.627,0,4.703-2.853,4.703-5.044
				c0-2.361-1.625-4.004-3.627-4.004c-0.755,0-1.322,0.264-1.775,0.604l0.264-2.947H2636V1081.418z"/>
			<path fill-rule="evenodd" clip-rule="evenodd" fill="#954B36" d="M2641.673,1092.45c3.514-3.116,4.969-5.534,4.969-7.537
				c0-2.04-1.512-3.815-4.118-3.815c-1.776,0-3.324,0.699-4.194,3.117l2.173,0.907c0.17-0.661,0.699-1.738,1.851-1.738
				c1.209,0,1.306,1.209,1.306,1.436c0,0.945-0.247,3.249-5.329,7.669v2.153h8.313v-2.191H2641.673z"/>
			<path fill-rule="evenodd" clip-rule="evenodd" fill="#954B36" d="M2652.39,1094.641h2.891v-13.771h-2.135
				c-0.906,1.624-2.078,2.531-3.476,3.419l1.19,1.964c0.698-0.434,1.039-0.661,1.529-1.058V1094.641z"/>
		</g>
		<g>
			<path fill-rule="evenodd" clip-rule="evenodd" fill="#954B36" d="M2588.09,1063.123c-2.21-0.076-6.196,0.472-6.196,5.308
				c0,3.098,1.512,5.44,6.196,5.346v1.964h2.891v-1.964c4.685,0.075,6.196-2.248,6.196-5.346c0-4.836-3.967-5.384-6.196-5.308
				v-1.549h-2.891V1063.123z M2588.09,1071.642c-0.415,0.038-1.095,0-1.492-0.113c-0.698-0.227-1.53-0.926-1.53-3.079
				c0-0.378,0.038-0.737,0.113-1.115c0.34-1.568,1.247-2.134,2.909-2.04V1071.642z M2590.981,1065.295
				c2.55-0.076,3.022,1.473,3.022,3.155c0,2.248-0.718,3.344-3.022,3.192V1065.295z"/>
			<path fill-rule="evenodd" clip-rule="evenodd" fill="#954B36" d="M2598.998,1074.438c0,0.926,0.718,1.605,1.605,1.605
				c0.906,0,1.605-0.699,1.605-1.605c0-0.907-0.699-1.605-1.605-1.605C2599.715,1072.833,2598.998,1073.512,2598.998,1074.438z"/>
			<polygon fill-rule="evenodd" clip-rule="evenodd" fill="#954B36" points="2614.623,1073.153 2616.605,1073.153 
				2619.136,1066.901 2619.136,1075.741 2622.027,1075.741 2622.027,1062.518 2618.551,1062.518 2615.623,1069.545 
				2612.676,1062.518 2609.202,1062.518 2609.202,1075.741 2612.091,1075.741 2612.091,1066.901 			"/>
			<path fill-rule="evenodd" clip-rule="evenodd" fill="#954B36" d="M2625.607,1069.413c0.718-0.51,1.813-0.888,2.607-0.888
				c1.096,0,1.36,0.34,1.341,1.398c-3.099,0.075-5.327,0.888-5.327,3.4c0,1.341,0.831,2.625,3.061,2.625
				c1.247,0,2.115-0.358,2.965-1.02c0.567,0.963,1.492,1.02,1.965,1.02c0.34,0,0.606-0.057,0.889-0.17v-1.983
				c-0.813,0.057-0.982-0.548-0.982-1.379v-2.739c0-1.02-0.208-3.23-3.646-3.23c-0.604,0-2.229,0.057-3.929,1.266L2625.607,1069.413
				z M2629.555,1073.153c-0.473,0.34-1.152,0.718-1.663,0.718c-0.547,0-1.02-0.227-1.02-0.774c0-0.888,1.133-1.398,2.683-1.379
				V1073.153z"/>
			<polygon fill-rule="evenodd" clip-rule="evenodd" fill="#954B36" points="2637.534,1068.733 2641.103,1068.733 
				2641.103,1066.655 2634.964,1066.655 2634.964,1075.741 2637.534,1075.741 			"/>
			<path fill-rule="evenodd" clip-rule="evenodd" fill="#954B36" d="M2649.343,1072.813c-0.717,0.51-1.416,0.964-2.342,0.964
				c-1.039,0-2.097-0.737-2.078-2.021h5.725c0.075-3.986-2.154-5.308-4.176-5.308c-2.078,0-4.383,1.492-4.383,4.704
				c0,3.004,2.135,4.798,4.648,4.798c1.756,0,2.852-0.623,3.91-1.775L2649.343,1072.813z M2644.98,1070.037
				c0.038-1.549,1.059-1.738,1.587-1.738c1.322,0,1.437,1.285,1.437,1.738H2644.98z"/>
			<path fill-rule="evenodd" clip-rule="evenodd" fill="#954B36" d="M2657.871,1068.733v7.008h2.568v-9.086h-6.688
				c0.02,1.852,0,4.231-0.529,5.894c-0.32,0.963-0.925,1.247-1.453,1.285v2.115c1.586,0.02,2.36-0.227,3.078-1.189
				c0.662-0.907,1.285-2.494,1.379-6.026H2657.871z"/>
			<path fill-rule="evenodd" clip-rule="evenodd" fill="#954B36" d="M2668.339,1068.733v7.008h2.569v-9.086h-6.688
				c0.019,1.852,0,4.231-0.528,5.894c-0.322,0.963-0.926,1.247-1.455,1.285v2.115c1.587,0.02,2.361-0.227,3.079-1.189
				c0.661-0.907,1.284-2.494,1.379-6.026H2668.339z"/>
			<path fill-rule="evenodd" clip-rule="evenodd" fill="#954B36" d="M2674.37,1069.413c0.718-0.51,1.813-0.888,2.606-0.888
				c1.096,0,1.36,0.34,1.342,1.398c-3.098,0.075-5.327,0.888-5.327,3.4c0,1.341,0.831,2.625,3.06,2.625
				c1.248,0,2.116-0.358,2.967-1.02c0.566,0.963,1.492,1.02,1.965,1.02c0.34,0,0.604-0.057,0.887-0.17v-1.983
				c-0.813,0.057-0.982-0.548-0.982-1.379v-2.739c0-1.02-0.207-3.23-3.645-3.23c-0.605,0-2.23,0.057-3.93,1.266L2674.37,1069.413z
				 M2678.318,1073.153c-0.473,0.34-1.152,0.718-1.662,0.718c-0.549,0-1.021-0.227-1.021-0.774c0-0.888,1.134-1.398,2.683-1.379
				V1073.153z"/>
			<polygon fill-rule="evenodd" clip-rule="evenodd" fill="#954B36" points="2686.295,1072.133 2689.866,1072.133 
				2689.866,1075.741 2692.435,1075.741 2692.435,1066.655 2689.866,1066.655 2689.866,1070.055 2686.295,1070.055 
				2686.295,1066.655 2683.726,1066.655 2683.726,1075.741 2686.295,1075.741 			"/>
		</g>
	</g>
	<g>
		<polygon fill-rule="evenodd" clip-rule="evenodd" fill="#954B36" points="3434.766,1368.279 3435.747,1369.287 3445.434,1365.26 
			3436.362,1374.08 3437.832,1375.591 3448.856,1364.875 3446.836,1362.795 3437.398,1366.731 3441.569,1357.376 3439.533,1355.282 
			3428.507,1365.999 3429.977,1367.511 3439.049,1358.692 		"/>
		<path fill-rule="evenodd" clip-rule="evenodd" fill="#954B36" d="M3445.102,1377.083l4.868,5.01l-1.936,3.995l1.622,1.669
			l6.569-15.3l-1.316-1.355l-15.479,6.135l1.623,1.669L3445.102,1377.083z M3450.696,1380.222l-3.705-3.813l6.672-2.778
			L3450.696,1380.222z"/>
		<polygon fill-rule="evenodd" clip-rule="evenodd" fill="#954B36" points="3466.972,1386.127 3468.28,1384.857 3462.278,1378.682 
			3451.253,1389.399 3452.723,1390.912 3462.44,1381.464 		"/>
		<polygon fill-rule="evenodd" clip-rule="evenodd" fill="#954B36" points="3474.626,1394.002 3475.934,1392.731 3469.872,1386.494 
			3458.846,1397.211 3465.506,1404.063 3466.813,1402.792 3461.624,1397.453 3465.561,1393.625 3469.449,1397.625 
			3470.757,1396.355 3466.868,1392.354 3470.034,1389.277 		"/>
		<path fill-rule="evenodd" clip-rule="evenodd" fill="#954B36" d="M3482.741,1402.35l-9.718,9.445l1.47,1.512l11.025-10.716
			l-5.635-5.797l-1.748,1.699c-1.087,1.057-4.174,4.025-6.556,5.515c-2.319,1.428-3.642,0.507-4.01,0.161
			c-0.062-0.063-0.107-0.111-0.169-0.174l-1.196,1.164c0.137,0.234,0.289,0.423,0.487,0.627c1.686,1.733,4.146,1.303,6.781-0.556
			c2.62-1.843,3.881-3.16,6.572-5.654L3482.741,1402.35z"/>
		<path fill-rule="evenodd" clip-rule="evenodd" fill="#954B36" d="M3492.432,1412.32l-9.717,9.447l1.469,1.512l11.026-10.717
			l-5.635-5.796l-1.747,1.699c-1.088,1.056-4.175,4.025-6.557,5.515c-2.318,1.428-3.643,0.508-4.01,0.16
			c-0.061-0.063-0.106-0.11-0.168-0.173l-1.197,1.163c0.137,0.235,0.289,0.424,0.488,0.629c1.685,1.731,4.144,1.301,6.779-0.557
			c2.621-1.843,3.883-3.16,6.574-5.653L3492.432,1412.32z"/>
		<path fill-rule="evenodd" clip-rule="evenodd" fill="#954B36" d="M3491.452,1424.766l4.868,5.009l-1.937,3.995l1.623,1.671
			l6.569-15.301l-1.317-1.355l-15.479,6.134l1.622,1.67L3491.452,1424.766z M3497.044,1427.906l-3.705-3.812l6.672-2.779
			L3497.044,1427.906z"/>
		<polygon fill-rule="evenodd" clip-rule="evenodd" fill="#954B36" points="3504.127,1433.68 3508.828,1438.515 3503.772,1443.43 
			3505.242,1444.942 3516.266,1434.226 3514.797,1432.713 3510.135,1437.245 3505.436,1432.41 3510.097,1427.877 3508.627,1426.366 
			3497.603,1437.082 3499.072,1438.595 		"/>
		<path fill-rule="evenodd" clip-rule="evenodd" fill="#954B36" d="M3522.875,1446.161l-8.458,8.222l1.425,1.464l11.024-10.718
			l-1.086-1.118c-1.314,0.573-3.902,0.24-5.094-0.103l-0.428,1.671C3521.155,1445.934,3521.774,1445.973,3522.875,1446.161z"/>
		<path fill-rule="evenodd" clip-rule="evenodd" fill="#954B36" d="M3530.999,1449.38l-6.066,4.979l1.117,1.149
			c0.561-0.116,1.321-0.027,2.088,0.76c1.285,1.323,0.268,3.018-0.931,4.181c-1.401,1.363-3.117,1.96-4.328,0.716
			c-0.949-0.977-1.031-1.754-0.637-3.271l-1.546-0.488c-1.077,2.517,0.174,4.12,0.863,4.828c1.976,2.032,4.802,1.979,7.022-0.18
			c2.3-2.235,2.726-4.886,1.088-6.571c-0.903-0.93-1.694-0.987-1.942-0.99l3.251-2.61l3.308,3.401l1.26-1.225L3530.999,1449.38z"/>
		<path fill-rule="evenodd" clip-rule="evenodd" fill="#954B36" d="M3529.972,1467.864c4.774-0.321,8.802,0.42,11.338-2.045
			c1.731-1.684,2.231-4.038,0.088-6.243c-1.73-1.78-3.938-1.656-5.377-0.963l0.566,1.717c1.889-0.641,2.8-0.271,3.459,0.407
			c1.071,1.103,0.928,2.468-0.159,3.523c-1.953,1.899-5.226,1.526-11.645,1.792l-1.275,1.24l6.246,6.427l1.261-1.225
			L3529.972,1467.864z"/>
		<path fill-rule="evenodd" clip-rule="evenodd" fill="#954B36" d="M3546.921,1470.898l-8.458,8.222l1.424,1.465l11.024-10.717
			l-1.087-1.118c-1.313,0.571-3.902,0.239-5.094-0.104l-0.427,1.672C3545.2,1470.672,3545.821,1470.711,3546.921,1470.898z"/>
	</g>
	<g>
		<path fill-rule="evenodd" clip-rule="evenodd" fill="#954B36" d="M1408.596,1501.107l1.733,2.476l-8.139,5.699l1.019,1.455
			l10.83-7.585l-0.714-1.021c-1.285,0.669-2.833,0.07-3.744-1.229l-0.227-0.325L1408.596,1501.107z"/>
		<path fill-rule="evenodd" clip-rule="evenodd" fill="#954B36" d="M1408.605,1512.549c-1.136,0.979-2.499,3.018-0.538,5.818
			c1.884,2.692,4.404,2.703,6.57,1.186c2.306-1.614,2.723-3.982,1.326-5.979c-0.693-0.99-1.467-1.602-2.531-1.87l3.506-1.81
			l3.347,4.781l1.221-0.855l-4.094-5.85l-6.239,3.24l0.953,1.361c0.879-0.062,1.929,0.747,2.428,1.459
			c0.822,1.176,1.033,2.827-0.886,4.171c-2.537,1.777-3.933,0.079-4.441-0.647c-1.17-1.672-0.272-2.991,0.374-3.583
			L1408.605,1512.549z"/>
		<path fill-rule="evenodd" clip-rule="evenodd" fill="#954B36" d="M1418.597,1530.12l-4.008-5.726
			c0.931-0.352,2.002-0.203,3.96,0.616c3.374,1.396,4.695,1.9,6.722,0.48c2.073-1.451,2.295-3.705,0.746-5.918
			c-2.307-3.296-5.074-1.98-6.05-1.297l-0.325,0.227l0.997,1.424l0.402-0.281c1.285-0.899,2.757-0.64,3.721,0.737
			c0.91,1.3,0.8,2.691-0.546,3.634c-1.655,1.159-3.272,0.332-4.472-0.165c-2.804-1.173-4.899-2.058-7.502-0.211l5.133,7.335
			L1418.597,1530.12z"/>
		<path fill-rule="evenodd" clip-rule="evenodd" fill="#954B36" d="M1424.884,1539.101l-4.008-5.726
			c0.93-0.352,2.002-0.203,3.959,0.617c3.375,1.396,4.696,1.899,6.723,0.48c2.073-1.452,2.295-3.705,0.746-5.918
			c-2.308-3.296-5.075-1.98-6.05-1.298l-0.325,0.228l0.996,1.424l0.403-0.282c1.284-0.899,2.757-0.64,3.721,0.738
			c0.909,1.3,0.8,2.69-0.546,3.634c-1.656,1.159-3.272,0.331-4.474-0.165c-2.804-1.173-4.897-2.058-7.502-0.211l5.134,7.335
			L1424.884,1539.101z"/>
	</g>
	<g>
		<polygon fill-rule="evenodd" clip-rule="evenodd" fill="#954B36" points="1094.445,1260.002 1094.855,1258.659 1086.66,1252.112 
			1098.759,1255.809 1099.375,1253.792 1084.671,1249.299 1083.824,1252.072 1091.821,1258.443 1081.614,1259.296 1080.759,1262.09 
			1095.463,1266.583 1096.08,1264.567 1083.981,1260.87 		"/>
		<path fill-rule="evenodd" clip-rule="evenodd" fill="#954B36" d="M1097.179,1246.706l2.043-6.679l4.435-0.229l0.681-2.227
			l-16.573,1.619l-0.553,1.806l12.835,10.605l0.681-2.227L1097.179,1246.706z M1097.235,1240.292l-1.555,5.082l-5.65-4.505
			L1097.235,1240.292z"/>
		<polygon fill-rule="evenodd" clip-rule="evenodd" fill="#954B36" points="1094.565,1223.188 1092.822,1222.655 1090.303,1230.888 
			1105.007,1235.381 1105.625,1233.365 1092.664,1229.405 		"/>
		<polygon fill-rule="evenodd" clip-rule="evenodd" fill="#954B36" points="1097.777,1212.687 1096.033,1212.155 1093.49,1220.472 
			1108.193,1224.965 1110.988,1215.829 1109.245,1215.296 1107.067,1222.416 1101.815,1220.811 1103.447,1215.477 
			1101.704,1214.944 1100.072,1220.279 1095.849,1218.988 		"/>
		<path fill-rule="evenodd" clip-rule="evenodd" fill="#954B36" d="M1101.181,1201.557l12.961,3.961l0.616-2.017l-14.704-4.493
			l-2.363,7.729l2.331,0.713c1.449,0.443,5.54,1.716,7.991,3.085c2.368,1.344,2.2,2.946,2.073,3.436
			c-0.026,0.084-0.045,0.146-0.071,0.23l1.597,0.488c0.141-0.232,0.232-0.457,0.315-0.73c0.707-2.311-0.856-4.258-3.755-5.672
			c-2.877-1.407-4.639-1.877-8.122-3.033L1101.181,1201.557z"/>
		<path fill-rule="evenodd" clip-rule="evenodd" fill="#954B36" d="M1105.248,1188.261l12.961,3.96l0.618-2.016l-14.705-4.493
			l-2.364,7.729l2.332,0.713c1.449,0.442,5.539,1.715,7.991,3.085c2.369,1.344,2.199,2.945,2.073,3.435
			c-0.026,0.084-0.045,0.147-0.071,0.231l1.597,0.488c0.141-0.233,0.232-0.458,0.315-0.73c0.707-2.311-0.856-4.258-3.755-5.672
			c-2.877-1.407-4.64-1.877-8.122-3.033L1105.248,1188.261z"/>
		<path fill-rule="evenodd" clip-rule="evenodd" fill="#954B36" d="M1116.627,1183.124l2.043-6.678l4.435-0.229l0.681-2.227
			l-16.574,1.618l-0.552,1.806l12.834,10.605l0.681-2.226L1116.627,1183.124z M1116.682,1176.71l-1.554,5.083l-5.651-4.505
			L1116.682,1176.71z"/>
		<polygon fill-rule="evenodd" clip-rule="evenodd" fill="#954B36" points="1118.33,1167.723 1120.301,1161.275 1127.045,1163.335 
			1127.661,1161.32 1112.957,1156.826 1112.341,1158.842 1118.558,1160.743 1116.585,1167.19 1110.368,1165.29 1109.751,1167.306 
			1124.455,1171.8 1125.072,1169.784 		"/>
		<path fill-rule="evenodd" clip-rule="evenodd" fill="#954B36" d="M1120.23,1145.287l11.282,3.446l0.596-1.953l-14.704-4.493
			l-0.456,1.491c1.134,0.875,2.091,3.303,2.364,4.511l1.671-0.43C1120.862,1146.903,1120.597,1146.34,1120.23,1145.287z"/>
		<path fill-rule="evenodd" clip-rule="evenodd" fill="#954B36" d="M1119.138,1136.618l7.285,2.915l0.469-1.533
			c-0.372-0.435-0.66-1.144-0.34-2.193c0.54-1.765,2.516-1.688,4.111-1.201c1.871,0.571,3.221,1.788,2.713,3.447
			c-0.398,1.302-1.04,1.749-2.56,2.135l0.317,1.59c2.725-0.271,3.526-2.139,3.815-3.083c0.829-2.71-0.58-5.161-3.542-6.066
			c-3.067-0.938-5.595-0.033-6.282,2.214c-0.379,1.239-0.047,1.961,0.068,2.18l-3.854-1.591l1.387-4.537l-1.68-0.513
			L1119.138,1136.618z"/>
		<path fill-rule="evenodd" clip-rule="evenodd" fill="#954B36" d="M1126.961,1123.282l11.28,3.447l0.597-1.953l-14.704-4.493
			l-0.456,1.49c1.134,0.875,2.091,3.303,2.364,4.512l1.671-0.431C1127.592,1124.899,1127.328,1124.335,1126.961,1123.282z"/>
		<path fill-rule="evenodd" clip-rule="evenodd" fill="#954B36" d="M1135.637,1112.04c0.189,0.058,0.378,0.116,0.567,0.173
			c1.291,0.44,4.496,1.902,3.872,3.939c-0.322,1.05-0.886,1.245-1.966,1.695l0.457,1.586c2.205-0.451,2.856-1.906,3.152-2.872
			c0.9-2.941-2.194-5.517-6.585-6.857c-6.973-2.132-8.399,0.877-8.759,2.054c-0.81,2.646,0.82,4.752,3.951,5.708
			c3.003,0.918,5.277-0.132,5.952-2.338C1136.424,1114.647,1136.654,1113.523,1135.637,1112.04z M1134.637,1114.261
			c-0.271,0.882-1.175,1.961-4.032,1.088c-1.239-0.379-3.285-1.349-2.733-3.155c0.496-1.618,2.323-1.587,4.024-1.066
			C1134.396,1111.891,1135.008,1113.042,1134.637,1114.261z"/>
	</g>
	<g>
		<polygon fill-rule="evenodd" clip-rule="evenodd" fill="#954B36" points="377.174,1680.056 378.529,1680.445 384.945,1672.118 
			381.452,1684.306 383.483,1684.889 387.728,1670.077 384.936,1669.276 378.691,1677.4 377.657,1667.188 374.844,1666.38 
			370.599,1681.192 372.63,1681.774 376.122,1669.586 		"/>
		<path fill-rule="evenodd" clip-rule="evenodd" fill="#954B36" d="M390.511,1682.555l6.727,1.93l0.309,4.439l2.243,0.644
			l-1.912-16.578l-1.82-0.522l-10.401,13.045l2.243,0.644L390.511,1682.555z M396.938,1682.499l-5.12-1.47l4.415-5.74
			L396.938,1682.499z"/>
		<polygon fill-rule="evenodd" clip-rule="evenodd" fill="#954B36" points="413.997,1679.516 414.5,1677.759 406.207,1675.379 
			401.962,1690.192 403.994,1690.774 407.734,1677.719 		"/>
		<polygon fill-rule="evenodd" clip-rule="evenodd" fill="#954B36" points="424.553,1682.544 425.056,1680.789 416.678,1678.384 
			412.433,1693.196 421.637,1695.836 422.14,1694.081 414.966,1692.022 416.483,1686.733 421.857,1688.275 422.36,1686.518 
			416.986,1684.976 418.205,1680.723 		"/>
		<path fill-rule="evenodd" clip-rule="evenodd" fill="#954B36" d="M435.739,1685.754l-3.741,13.056l2.031,0.583l4.245-14.812
			l-7.786-2.234l-0.673,2.349c-0.418,1.46-1.621,5.58-2.952,8.061c-1.305,2.396-2.912,2.256-3.405,2.138
			c-0.084-0.024-0.148-0.042-0.232-0.067l-0.46,1.608c0.235,0.137,0.462,0.225,0.737,0.304c2.327,0.668,4.251-0.933,5.617-3.861
			c1.359-2.907,1.799-4.682,2.896-8.191L435.739,1685.754z"/>
		<path fill-rule="evenodd" clip-rule="evenodd" fill="#954B36" d="M449.104,1689.59l-3.741,13.055l2.032,0.583l4.244-14.812
			l-7.785-2.234l-0.674,2.349c-0.417,1.46-1.621,5.58-2.951,8.062c-1.304,2.396-2.912,2.256-3.405,2.137
			c-0.085-0.024-0.148-0.043-0.232-0.066l-0.461,1.607c0.236,0.137,0.462,0.225,0.738,0.304c2.327,0.668,4.251-0.933,5.617-3.861
			c1.36-2.907,1.8-4.682,2.897-8.191L449.104,1689.59z"/>
		<path fill-rule="evenodd" clip-rule="evenodd" fill="#954B36" d="M454.421,1700.894l6.729,1.931l0.308,4.438l2.243,0.644
			l-1.911-16.578l-1.82-0.521l-10.4,13.045l2.242,0.643L454.421,1700.894z M460.849,1700.837l-5.12-1.47l4.416-5.74
			L460.849,1700.837z"/>
		<polygon fill-rule="evenodd" clip-rule="evenodd" fill="#954B36" points="469.852,1702.321 476.346,1704.185 474.4,1710.977 
			476.432,1711.56 480.675,1696.749 478.645,1696.166 476.849,1702.428 470.354,1700.565 472.149,1694.301 470.119,1693.719 
			465.874,1708.531 467.905,1709.114 		"/>
		<path fill-rule="evenodd" clip-rule="evenodd" fill="#954B36" d="M492.326,1703.824l-3.257,11.362l1.967,0.564l4.245-14.811
			l-1.502-0.432c-0.856,1.151-3.272,2.152-4.479,2.447l0.461,1.667C490.716,1704.485,491.276,1704.209,492.326,1703.824z"/>
		<path fill-rule="evenodd" clip-rule="evenodd" fill="#954B36" d="M500.969,1702.571l-2.793,7.352l1.544,0.443
			c0.429-0.381,1.133-0.683,2.192-0.379c1.778,0.51,1.737,2.49,1.275,4.099c-0.54,1.883-1.735,3.257-3.406,2.778
			c-1.313-0.377-1.771-1.013-2.184-2.527l-1.588,0.346c0.318,2.725,2.204,3.494,3.156,3.768c2.729,0.783,5.162-0.672,6.016-3.654
			c0.885-3.09-0.064-5.606-2.329-6.256c-1.248-0.358-1.965-0.015-2.183,0.106l1.527-3.89l4.57,1.311l0.485-1.692L500.969,1702.571z"
			/>
		<path fill-rule="evenodd" clip-rule="evenodd" fill="#954B36" d="M509.262,1719.149c3.989-2.656,7.86-4.02,8.836-7.426
			c0.668-2.328-0.071-4.623-3.033-5.474c-2.391-0.686-4.249,0.521-5.153,1.842l1.347,1.211c1.323-1.498,2.299-1.63,3.208-1.369
			c1.482,0.425,2.037,1.684,1.619,3.144c-0.752,2.624-3.782,3.93-9.229,7.358l-0.491,1.714l8.631,2.478l0.486-1.693
			L509.262,1719.149z"/>
		<path fill-rule="evenodd" clip-rule="evenodd" fill="#954B36" d="M525.482,1713.338l-3.256,11.362l1.968,0.564l4.245-14.812
			l-1.503-0.431c-0.857,1.151-3.272,2.152-4.479,2.447l0.462,1.667C523.874,1713.999,524.433,1713.724,525.482,1713.338z"/>
	</g>
	<g>
		<path fill-rule="evenodd" clip-rule="evenodd" fill="#954B36" d="M1828.874,1743.348l5.673,0.363
			c3.506,0.223,4.158-2.291,4.244-3.63c0.106-1.677-1.094-3.041-2.665-3.331l0.011-0.15c0.883-0.208,2.063-0.909,2.186-2.832
			c0.186-2.903-2.727-3.24-4.46-3.351l-4.147-0.265L1828.874,1743.348z M1831.424,1731.833l2.677,0.172
			c1.979,0.125,2.379,0.965,2.31,2.058c-0.095,1.489-1.123,1.897-2.989,1.778l-2.243-0.143L1831.424,1731.833z M1831.078,1737.262
			l2.413,0.153c0.829,0.054,3.509,0.168,3.36,2.505c-0.091,1.433-0.961,2.305-3.298,2.156l-2.771-0.177L1831.078,1737.262z"/>
		<path fill-rule="evenodd" clip-rule="evenodd" fill="#954B36" d="M1840.066,1739.532c-0.052,1.813,0.771,4.729,4.416,4.834
			c3.661,0.105,4.652-2.796,4.703-4.57c0.085-2.965-2.229-4.601-4.438-4.664C1842.557,1735.069,1840.152,1736.568,1840.066,1739.532
			z M1841.859,1739.603c0.031-1.058,0.546-3.178,2.849-3.111c2.454,0.07,2.709,2.421,2.684,3.271
			c-0.036,1.247-0.511,3.311-2.871,3.243C1841.858,1742.929,1841.839,1740.302,1841.859,1739.603z"/>
		<path fill-rule="evenodd" clip-rule="evenodd" fill="#954B36" d="M1850.286,1742.563c1.1,1.372,2.338,2.047,4.188,2.068
			c2.342,0.025,3.528-1.302,3.544-2.699c0.008-0.662-0.226-1.722-1.771-2.099c0.55-0.163,1.52-0.72,1.535-2.154
			c0.014-1.247-1.031-2.26-3.242-2.284c-1.133-0.014-2.401,0.312-3.337,1.095l0.724,1.18c0.744-0.577,1.503-0.928,2.485-0.916
			c1.152,0.013,1.637,0.604,1.629,1.189c-0.006,0.548-0.335,1.318-2.262,1.296l-0.416-0.004l-0.014,1.284l0.358,0.005
			c1.171,0.013,2.529,0.16,2.515,1.445c-0.007,0.622-0.601,1.314-1.923,1.3c-1.341-0.015-2.053-0.552-3.061-1.621L1850.286,1742.563
			z"/>
		<path fill-rule="evenodd" clip-rule="evenodd" fill="#954B36" d="M1860.061,1744.587l3.646,0.041
			c1.322,0.015,3.214-0.246,3.239-2.513c0.015-1.284-0.921-2.052-2.035-2.158c0.967-0.216,1.487-1.135,1.495-1.947
			c0.024-2.135-2.278-2.199-2.901-2.205l-3.343-0.039L1860.061,1744.587z M1861.689,1739.317l0.024-2.172l1.322,0.015
			c0.586,0.007,1.587-0.02,1.575,0.963c-0.013,1.171-0.92,1.217-1.601,1.209L1861.689,1739.317z M1861.644,1743.246l0.029-2.569
			l1.587,0.019c1.303,0.015,1.902,0.361,1.894,1.23c-0.015,1.266-0.903,1.35-1.923,1.338L1861.644,1743.246z"/>
		<path fill-rule="evenodd" clip-rule="evenodd" fill="#954B36" d="M1870.513,1743.666c0.652,0.726,1.554,1.245,2.801,1.261
			c3.002,0.034,4.035-2.694,4.057-4.64c0.024-2.173-1.119-4.565-4.066-4.6c-1.68-0.019-2.447,1.05-2.717,1.462l0.014-1.284
			l-1.567-0.018l-0.141,12.447l1.568,0.018L1870.513,1743.666z M1870.552,1740.265c0.021-1.889,1.111-3.104,2.623-3.086
			c1.435,0.016,2.422,1.198,2.401,3.087c-0.018,1.549-0.697,3.166-2.416,3.146C1870.913,1743.387,1870.539,1741.4,1870.552,1740.265
			z"/>
		<path fill-rule="evenodd" clip-rule="evenodd" fill="#954B36" d="M1879.834,1738.103c1.111-0.744,1.902-1.07,2.563-1.074
			c0.889-0.005,2.004,0.271,1.921,2.066c-3.19,0.133-5.833,0.508-5.816,3.266c0.008,1.341,0.885,2.563,2.887,2.551
			c1.303-0.008,2.206-0.599,3.165-1.303c0.326,0.678,0.99,1.277,2.275,1.271l-0.01-1.436c-0.756-0.033-0.909-0.429-0.913-1.109
			l-0.021-3.249c-0.004-0.567-0.04-3.438-3.326-3.417c-0.906,0.005-2.171,0.259-3.468,1.305L1879.834,1738.103z M1884.326,1740.399
			l0.01,1.587c-0.673,1.062-1.804,1.54-2.578,1.546c-1.02,0.006-1.457-0.577-1.461-1.182
			C1880.292,1741.576,1880.983,1740.343,1884.326,1740.399z"/>
		<polygon fill-rule="evenodd" clip-rule="evenodd" fill="#954B36" points="1899.686,1743.311 1899.64,1735.85 1898.073,1735.86 
			1898.119,1743.321 1894.793,1743.34 1894.748,1735.879 1893.18,1735.889 1893.226,1743.35 1889.902,1743.371 1889.856,1735.91 
			1888.29,1735.919 1888.343,1744.74 1899.712,1744.67 1899.729,1747.258 1901.183,1747.25 1901.159,1743.302 		"/>
		<path fill-rule="evenodd" clip-rule="evenodd" fill="#954B36" d="M1909.134,1742.105c-0.938,0.949-1.56,1.351-2.674,1.356
			c-2.115,0.014-2.655-1.798-2.624-2.93l6.27-0.039c0.063-2.286-1.03-4.924-3.959-4.906c-2.437,0.016-4.123,2.027-4.107,4.709
			c0.016,2.514,1.766,4.543,4.429,4.526c1.436-0.009,2.772-0.659,3.653-1.779L1909.134,1742.105z M1903.903,1739.17
			c0.089-0.944,0.534-2.214,2.196-2.224c1.737-0.011,2.144,1.423,2.223,2.197L1903.903,1739.17z"/>
		<polygon fill-rule="evenodd" clip-rule="evenodd" fill="#954B36" points="1913.625,1740.403 1917.74,1740.306 1917.836,1744.384 
			1919.404,1744.347 1919.196,1735.529 1917.628,1735.565 1917.708,1738.946 1913.592,1739.042 1913.512,1735.662 
			1911.945,1735.699 1912.153,1744.518 1913.72,1744.481 		"/>
		<polygon fill-rule="evenodd" clip-rule="evenodd" fill="#954B36" points="1923.469,1741.065 1923.338,1735.513 1921.772,1735.55 
			1921.978,1744.369 1923.546,1744.332 1923.516,1743.029 1927.534,1738.777 1927.663,1744.235 1929.229,1744.198 
			1929.022,1735.379 1927.455,1735.417 1927.488,1736.813 		"/>
		<path fill-rule="evenodd" clip-rule="evenodd" fill="#954B36" d="M1938.147,1741.558c-0.922,0.968-1.536,1.379-2.65,1.404
			c-2.114,0.051-2.686-1.75-2.675-2.885l6.27-0.147c0.021-2.286-1.117-4.905-4.045-4.836c-2.435,0.057-4.087,2.1-4.023,4.781
			c0.06,2.511,1.844,4.51,4.507,4.447c1.435-0.034,2.76-0.708,3.621-1.843L1938.147,1741.558z M1932.866,1738.716
			c0.071-0.945,0.495-2.222,2.157-2.261c1.736-0.041,2.167,1.386,2.261,2.157L1932.866,1738.716z"/>
		<path fill-rule="evenodd" clip-rule="evenodd" fill="#954B36" d="M1944.514,1742.285c0.876,1.113,2.216,1.818,3.744,1.782
			c2.984-0.07,4.019-2.665,3.967-4.874c-0.064-2.738-1.823-4.416-4.335-4.357c-1.284,0.03-2.312,0.527-3.179,1.397l0.836,1.021
			c0.723-0.623,1.317-1.033,2.375-1.058c1.964-0.047,2.418,1.567,2.438,2.418l-3.172,0.074l0.031,1.359l3.173-0.075
			c0.018,0.737-0.201,2.689-2.165,2.734c-1.209,0.028-1.844-0.485-2.678-1.373L1944.514,1742.285z"/>
		<path fill-rule="evenodd" clip-rule="evenodd" fill="#954B36" d="M1954.018,1734.915l0.207,8.819l1.567-0.037l-0.096-4.061
			l0.698-0.017c0.831-0.02,1.227,0.728,2.016,2.145c0.611,1.081,1.163,2.051,2.674,2.016c0.132-0.004,0.377-0.029,0.546-0.07
			l-0.032-1.378c-0.075,0.001-0.132,0.003-0.207,0.005c-0.567-0.006-0.871-0.037-1.799-1.791c-0.298-0.56-0.693-1.307-1.701-1.584
			l-0.002-0.076c0.32-0.026,0.865-0.19,1.552-1.528c0.415-0.804,0.406-1.201,1.495-1.472l-0.031-1.341
			c-1.604,0.074-1.914,0.574-2.73,2.011c-0.634,1.129-0.848,1.72-2.51,1.722l-0.08-3.399L1954.018,1734.915z"/>
		<path fill-rule="evenodd" clip-rule="evenodd" fill="#954B36" d="M1969.499,1740.826c-0.732,0.943-1.309,1.392-2.327,1.415
			c-1.661,0.04-2.597-1.147-2.643-3.092c-0.056-2.361,1.072-3.39,2.508-3.423c0.981-0.023,1.709,0.375,2.424,1.038l0.881-1.116
			c-1.102-1.014-2.185-1.309-3.187-1.286c-2.625,0.063-4.487,1.996-4.419,4.848c0.052,2.229,1.296,4.467,4.392,4.394
			c0.906-0.021,2.337-0.243,3.449-1.914L1969.499,1740.826z"/>
		<polygon fill-rule="evenodd" clip-rule="evenodd" fill="#954B36" points="1973.692,1735.75 1977.278,1735.666 1977.456,1743.125 
			1979.022,1743.087 1978.813,1734.269 1972.092,1734.427 1972.3,1743.246 1973.868,1743.208 		"/>
		<path fill-rule="evenodd" clip-rule="evenodd" fill="#954B36" d="M1987.932,1740.317c-0.922,0.967-1.535,1.378-2.65,1.404
			c-2.114,0.049-2.686-1.751-2.674-2.885l6.268-0.147c0.022-2.287-1.116-4.905-4.043-4.836c-2.437,0.057-4.088,2.099-4.025,4.78
			c0.059,2.512,1.845,4.511,4.507,4.448c1.436-0.034,2.761-0.708,3.622-1.843L1987.932,1740.317z M1982.651,1737.475
			c0.072-0.946,0.496-2.222,2.156-2.262c1.738-0.04,2.168,1.385,2.262,2.157L1982.651,1737.475z"/>
		<path fill-rule="evenodd" clip-rule="evenodd" fill="#954B36" d="M1991.664,1742.667l6.416-0.264l0.105,2.566l1.566-0.064
			l-0.162-3.926l-1.282,0.053l-0.307-7.474l-5.85,0.24l0.084,2.096c0.141,3.416-0.613,4.827-1.062,5.431l-1.132,0.047l0.161,3.926
			l1.566-0.064L1991.664,1742.667z M1996.741,1741.096l-3.736,0.154c0.733-1.468,0.914-3.063,0.768-6.157l2.717-0.111
			L1996.741,1741.096z"/>
		<polygon fill-rule="evenodd" clip-rule="evenodd" fill="#954B36" points="2002.788,1739.006 2002.559,1733.457 2000.993,1733.521 
			2001.354,1742.335 2002.92,1742.271 2002.867,1740.969 2006.811,1736.648 2007.034,1742.102 2008.601,1742.038 2008.239,1733.224 
			2006.672,1733.288 2006.73,1734.685 		"/>
		<polygon fill-rule="evenodd" clip-rule="evenodd" fill="#954B36" points="2012.706,1740.543 2012.399,1733.088 2010.833,1733.153 
			2011.194,1741.966 2017.799,1741.696 2017.906,1744.281 2019.472,1744.216 2019.309,1740.272 2018.083,1740.323 
			2017.778,1732.867 2016.21,1732.931 2016.517,1740.386 		"/>
		<polygon fill-rule="evenodd" clip-rule="evenodd" fill="#954B36" points="2022.449,1738.27 2022.221,1732.722 2020.655,1732.786 
			2021.016,1741.599 2022.583,1741.536 2022.529,1740.233 2026.473,1735.913 2026.697,1741.368 2028.263,1741.303 
			2027.901,1732.489 2026.334,1732.553 2026.392,1733.949 		"/>
		<polygon fill-rule="evenodd" clip-rule="evenodd" fill="#954B36" points="2032.288,1737.869 2032.059,1732.319 2030.493,1732.383 
			2030.855,1741.198 2032.421,1741.133 2032.369,1739.832 2036.311,1735.509 2036.536,1740.964 2038.102,1740.9 2037.74,1732.086 
			2036.173,1732.15 2036.231,1733.547 		"/>
		<polygon fill-rule="evenodd" clip-rule="evenodd" fill="#954B36" points="2059.088,1737.489 2060.296,1737.44 2063.274,1728.923 
			2063.719,1739.794 2065.532,1739.72 2064.989,1726.509 2062.498,1726.611 2059.607,1734.916 2056.006,1726.877 2053.497,1726.98 
			2054.04,1740.192 2055.85,1740.118 2055.404,1729.247 		"/>
		<path fill-rule="evenodd" clip-rule="evenodd" fill="#954B36" d="M2068.743,1732.805c1.069-0.8,1.843-1.167,2.502-1.206
			c0.886-0.052,2.016,0.166,2.025,1.964c-3.18,0.3-5.799,0.812-5.637,3.565c0.078,1.339,1.018,2.514,3.016,2.396
			c1.301-0.077,2.173-0.714,3.093-1.468c0.36,0.66,1.056,1.226,2.338,1.149l-0.084-1.434c-0.756,0.007-0.931-0.38-0.97-1.06
			l-0.19-3.242c-0.032-0.565-0.22-3.432-3.501-3.239c-0.905,0.053-2.154,0.371-3.394,1.485L2068.743,1732.805z M2073.346,1734.863
			l0.093,1.585c-0.616,1.096-1.72,1.633-2.493,1.679c-1.018,0.06-1.485-0.501-1.521-1.104
			C2069.379,1736.25,2070.005,1734.983,2073.346,1734.863z"/>
		<polygon fill-rule="evenodd" clip-rule="evenodd" fill="#954B36" points="2078.86,1731.424 2082.932,1731.186 2082.852,1729.828 
			2077.215,1730.159 2077.73,1738.965 2079.296,1738.874 		"/>
		<path fill-rule="evenodd" clip-rule="evenodd" fill="#954B36" d="M2091.22,1735.724c-0.888,0.998-1.486,1.431-2.599,1.496
			c-2.112,0.123-2.746-1.656-2.774-2.79l6.26-0.366c-0.059-2.285-1.286-4.863-4.21-4.692c-2.432,0.143-4.012,2.24-3.854,4.919
			c0.146,2.508,2,4.443,4.659,4.287c1.433-0.084,2.733-0.804,3.555-1.968L2091.22,1735.724z M2085.843,1733.068
			c0.04-0.948,0.417-2.238,2.077-2.335c1.734-0.102,2.215,1.309,2.335,2.077L2085.843,1733.068z"/>
		<path fill-rule="evenodd" clip-rule="evenodd" fill="#954B36" d="M2096.985,1730.435l2.525-0.148l0.437,7.449l1.565-0.092
			l-0.517-8.807l-5.6,0.328c0.047,1.435,0.037,3.536-0.172,5.138c-0.13,1.01-0.407,2.427-1.909,2.609l0.081,1.396
			c0.19,0.008,0.359-0.002,0.548-0.014c0.773-0.045,1.907-0.395,2.54-2.513C2096.925,1734.279,2097.044,1732.096,2096.985,1730.435z
			"/>
		<path fill-rule="evenodd" clip-rule="evenodd" fill="#954B36" d="M2106.83,1729.863l2.526-0.147l0.437,7.448l1.565-0.092
			l-0.516-8.807l-5.601,0.328c0.046,1.436,0.036,3.536-0.172,5.139c-0.13,1.011-0.407,2.426-1.909,2.609l0.081,1.395
			c0.189,0.009,0.359-0.001,0.548-0.013c0.773-0.045,1.906-0.396,2.54-2.515C2106.77,1733.708,2106.889,1731.525,2106.83,1729.863z"
			/>
		<path fill-rule="evenodd" clip-rule="evenodd" fill="#954B36" d="M2114.253,1730.261c1.069-0.801,1.843-1.169,2.503-1.207
			c0.886-0.052,2.015,0.166,2.025,1.964c-3.18,0.299-5.798,0.812-5.638,3.564c0.079,1.34,1.019,2.514,3.017,2.397
			c1.301-0.076,2.172-0.714,3.093-1.468c0.36,0.66,1.056,1.225,2.338,1.15l-0.085-1.434c-0.756,0.007-0.93-0.382-0.97-1.06
			l-0.19-3.243c-0.033-0.565-0.22-3.431-3.5-3.239c-0.905,0.053-2.154,0.372-3.395,1.485L2114.253,1730.261z M2118.858,1732.318
			l0.094,1.585c-0.618,1.096-1.722,1.633-2.494,1.679c-1.019,0.06-1.486-0.499-1.521-1.104
			C2114.89,1733.706,2115.516,1732.438,2118.858,1732.318z"/>
		<polygon fill-rule="evenodd" clip-rule="evenodd" fill="#954B36" points="2124.629,1732.07 2128.735,1731.757 2129.044,1735.826 
			2130.608,1735.708 2129.939,1726.912 2128.375,1727.03 2128.631,1730.401 2124.526,1730.713 2124.27,1727.342 2122.706,1727.461 
			2123.375,1736.257 2124.939,1736.138 		"/>
		<path fill-rule="evenodd" clip-rule="evenodd" fill="#954B36" d="M2133.393,1728.911c1.055-0.818,1.82-1.199,2.481-1.249
			c0.884-0.067,2.018,0.13,2.06,1.927c-3.175,0.355-5.785,0.914-5.576,3.663c0.103,1.338,1.063,2.496,3.059,2.345
			c1.3-0.1,2.159-0.752,3.066-1.521c0.371,0.653,1.076,1.206,2.357,1.108l-0.109-1.432c-0.756,0.02-0.937-0.364-0.988-1.042
			l-0.246-3.239c-0.043-0.566-0.279-3.428-3.557-3.178c-0.904,0.068-2.147,0.41-3.367,1.545L2133.393,1728.911z M2138.032,1730.888
			l0.121,1.582c-0.599,1.107-1.692,1.663-2.465,1.722c-1.016,0.078-1.494-0.474-1.539-1.076
			C2134.089,1732.343,2134.694,1731.066,2138.032,1730.888z"/>
		<path fill-rule="evenodd" clip-rule="evenodd" fill="#954B36" d="M2154.792,1732.013c1.464,1.457,3.103,1.93,4.907,1.76
			c4.006-0.375,5.584-3.786,5.235-7.491c-0.325-3.479-2.219-6.679-6.148-6.311c-1.881,0.176-3.349,0.921-4.521,2.377l1.004,0.988
			c0.796-1.024,2.082-1.656,3.55-1.794c2.707-0.253,3.85,2.011,4.051,3.966l-5.134,0.48l0.146,1.562l5.134-0.481
			c0.31,4.315-2.354,5.039-3.444,5.142c-1.242,0.116-2.714-0.409-3.737-1.415L2154.792,1732.013z"/>
		<path fill-rule="evenodd" clip-rule="evenodd" fill="#954B36" d="M2173.81,1720.524l1.087,11.604l1.806-0.169l-1.233-13.165
			l-6.92,0.647l0.195,2.088c0.121,1.299,0.445,4.967,0.158,7.366c-0.295,2.322-1.623,2.713-2.055,2.771
			c-0.074,0.007-0.131,0.014-0.207,0.021l0.135,1.429c0.23,0.035,0.439,0.034,0.684,0.012c2.068-0.193,3.105-2.074,3.283-4.842
			c0.179-2.749-0.023-4.305-0.242-7.452L2173.81,1720.524z"/>
		<path fill-rule="evenodd" clip-rule="evenodd" fill="#954B36" d="M2179.875,1731.556l3.953-0.51
			c4.608-0.594,4.766-3.357,4.575-4.837c-0.501-3.879-4.016-3.673-5.628-3.465l-2.172,0.28l-0.622-4.814l-1.797,0.232
			L2179.875,1731.556z M2181.472,1729.77l-0.669-5.19l2.136-0.274c2.079-0.27,3.294,0.299,3.534,2.153
			c0.14,1.086-0.148,2.686-2.828,3.03L2181.472,1729.77z"/>
		
			<rect x="2189.551" y="1724.5" transform="matrix(-0.9894 0.1452 -0.1452 -0.9894 4611.5459 3113.7935)" fill-rule="evenodd" clip-rule="evenodd" fill="#954B36" width="5.137" height="1.436"/>
		<path fill-rule="evenodd" clip-rule="evenodd" fill="#954B36" d="M2198.178,1722.792c0.111-0.021,0.203-0.041,0.314-0.063
			c1.223-0.246,2.022-0.388,4.418,2.619c1.965,2.496,2.657,2.685,3.881,2.438c0.222-0.044,0.418-0.122,0.633-0.204l-0.283-1.407
			c-0.11,0.022-0.203,0.041-0.314,0.063c-0.841,0.13-0.778-0.133-3.277-2.984c-0.896-1.014-1.668-1.784-3.104-1.747l-0.012-0.055
			c2.906-1.739,1.496-5.31,3.404-5.692c0.093-0.019,0.166-0.033,0.263-0.034l-0.282-1.407c-0.115,0.004-0.212,0.005-0.322,0.026
			c-1.556,0.313-2.097,1.364-2.669,3.214c-0.82,2.631-1.038,3.272-2.66,3.636c-0.092,0.02-0.204,0.041-0.297,0.06l-1.056-5.26
			l-1.777,0.356l2.603,12.965l1.777-0.357L2198.178,1722.792z"/>
		<path fill-rule="evenodd" clip-rule="evenodd" fill="#954B36" d="M2210.793,1722.461l5.732-1.791l2.314,3.037l1.912-0.597
			l-9.19-10.982l-1.551,0.484l-1.302,14.26l1.911-0.597L2210.793,1722.461z M2215.374,1719.387l-4.363,1.363l0.459-6.198
			L2215.374,1719.387z"/>
		<polygon fill-rule="evenodd" clip-rule="evenodd" fill="#954B36" points="2222.459,1716.238 2227.994,1714.509 2229.802,1720.296 
			2231.533,1719.755 2227.589,1707.134 2225.858,1707.674 2227.526,1713.012 2221.992,1714.742 2220.325,1709.404 
			2218.592,1709.945 2222.537,1722.566 2224.268,1722.025 		"/>
		<path fill-rule="evenodd" clip-rule="evenodd" fill="#954B36" d="M2231.641,1712.718c0.225,0.682,0.975,2.762,2.514,3.981
			c1.939,1.526,3.965,1.153,5.345,0.695c1.362-0.452,3.228-1.368,3.853-3.745c0.203-0.765,0.457-2.281-0.347-4.702
			c-0.802-2.421-1.912-3.485-2.531-3.976c-1.922-1.532-3.966-1.152-5.327-0.701c-1.381,0.458-3.228,1.37-3.871,3.752
			C2230.773,1709.921,2231.415,1712.038,2231.641,1712.718z M2233.469,1712.051c-0.303-0.913-1.558-5.055,2.152-6.286
			c3.316-1.1,4.949,2.021,5.539,3.795c0.588,1.775,1.145,5.253-2.173,6.354C2236.515,1716.734,2234.528,1715.243,2233.469,1712.051z
			"/>
		<path fill-rule="evenodd" clip-rule="evenodd" fill="#954B36" d="M2251.499,1702.088l3.527,9.511l1.648-0.611l-4.6-12.396
			l-1.257,0.466c-0.007,1.231-1.167,3.153-1.852,3.971l1.167,0.918C2250.723,1703.364,2250.97,1702.89,2251.499,1702.088z"/>
		<path fill-rule="evenodd" clip-rule="evenodd" fill="#954B36" d="M2256.633,1696.875l1.92,6.47l1.284-0.502
			c0.094-0.483,0.419-1.056,1.298-1.399c1.478-0.578,2.48,0.794,3.004,2.131c0.611,1.566,0.512,3.127-0.879,3.669
			c-1.09,0.427-1.734,0.232-2.804-0.586l-0.903,1.063c1.636,1.693,3.322,1.237,4.113,0.927c2.27-0.887,3.172-3.146,2.202-5.626
			c-1.005-2.568-2.963-3.79-4.845-3.055c-1.038,0.405-1.349,1.014-1.434,1.209l-0.982-3.449l3.799-1.485l-0.551-1.407
			L2256.633,1696.875z"/>
		<path fill-rule="evenodd" clip-rule="evenodd" fill="#954B36" d="M2270.922,1703.708c1.203-3.934,3.03-6.945,1.824-9.738
			c-0.823-1.906-2.563-3.028-4.989-1.98c-1.96,0.847-2.536,2.658-2.419,4.027l1.553,0.07c0.064-1.714,0.64-2.333,1.385-2.655
			c1.214-0.524,2.268,0.009,2.783,1.206c0.93,2.15-0.371,4.666-2.12,9.906l0.605,1.405l7.075-3.055l-0.6-1.388L2270.922,1703.708z"
			/>
		<path fill-rule="evenodd" clip-rule="evenodd" fill="#954B36" d="M2280.054,1699.611c1.065-3.974,2.786-7.047,1.483-9.796
			c-0.89-1.877-2.666-2.937-5.057-1.805c-1.929,0.913-2.439,2.744-2.274,4.108l1.554,0.017c0.002-1.716,0.557-2.354,1.291-2.702
			c1.194-0.566,2.266-0.07,2.824,1.107c1.002,2.117-0.209,4.677-1.774,9.975l0.654,1.383l6.965-3.3l-0.647-1.364L2280.054,1699.611z
			"/>
	</g>
	<path fill="none" stroke="#954B36" stroke-width="5.1024" stroke-miterlimit="3.8637" stroke-dasharray="14.1732,2.8346" d="
		M3348.144,1325.573c-21.239-25.298-35.592-35.602-48.192-49.776l-44.102-36.226c-16.611-14.722-55.107-31.028-77.961-47.25
		c-11.428-8.11-25.201-19.688-43.115-35.773"/>
	<polygon fill="#954B36" stroke="#954B36" stroke-width="5.1024" stroke-miterlimit="3.8637" points="3133.315,1154.5 
		3135.991,1153.567 3129.294,1151.031 3132.735,1157.601 	"/>
	<path fill="none" stroke="#954B36" stroke-width="5.1024" stroke-miterlimit="3.8637" stroke-dasharray="14.1732,2.8346" d="
		M2706.949,1170.004c0,0,17.258,18.972,21.555,30.474c7.356,19.688,9.028,47.898,9.028,60.012c0,19.688,3.688,24.19,2.414,36.457
		c-1.272,12.268-8.756,24.354-18.358,37.286c-9.602,12.933-19.204,24.639-37.028,38.133
		c-17.823,13.494-172.514,150.574-208.475,177.35"/>
	<polygon fill="#954B36" stroke="#954B36" stroke-width="5.1024" stroke-miterlimit="3.8637" points="2473.84,1551.513 
		2473.406,1548.713 2469.704,1554.842 2476.787,1552.643 	"/>
	<path fill="none" stroke="#954B36" stroke-width="5.1024" stroke-miterlimit="3.8637" stroke-dasharray="14.1732,2.8346" d="
		M2092.052,1718.078c-44.896,3.441-118.134-0.496-258.309-7.583c-36.213-1.831-80.315-6.317-92.926-14.175
		c-20.764-12.938-36.039-14.112-40.764,0.063s-12.787,26.713-22.236,34.588c0,0-12.601,20.475-42.525,14.175
		c-21.168-4.457-30.713-13.388-38.588-23.626"/>
	<polygon fill="#954B36" stroke="#954B36" stroke-width="5.1024" stroke-miterlimit="3.8637" points="1598.29,1723.581 
		1601.091,1723.151 1594.97,1719.436 1597.154,1726.524 	"/>
	<path fill="none" stroke="#954B36" stroke-width="5.1024" stroke-miterlimit="3.8637" stroke-dasharray="14.1732,2.8346" d="
		M1577.558,1688.937c-0.67-1.219-1.371-2.435-2.115-3.643c-19.361-31.4-32.568-52.226-38.868-71.126s-22.558-50.149-43.032-91.1
		c-12.623-25.244-34.822-57.671-58.479-89.163"/>
	<polygon fill="#954B36" stroke="#954B36" stroke-width="5.1024" stroke-miterlimit="3.8637" points="1436.625,1435.985 
		1439.431,1435.587 1433.352,1431.803 1435.455,1438.916 	"/>
	<path fill="none" stroke="#954B36" stroke-width="5.1024" stroke-miterlimit="3.8637" stroke-dasharray="14.1732,2.8346" d="
		M1059.629,1414.477c-2.362,12.601-4.726,27.563-12.601,41.738c-7.875,14.175-11.813,20.475-11.813,32.287
		s-0.787,34.65-2.362,51.188c-1.575,16.538-6.916,32.882-12.6,48.038c-2.362,6.3-8.663,12.993-8.663,12.993"/>
	<polygon fill="#954B36" stroke="#954B36" stroke-width="5.1024" stroke-miterlimit="3.8637" points="1013.374,1598.828 
		1012.504,1596.13 1009.812,1602.765 1016.46,1599.481 	"/>
	<path fill="none" stroke="#954B36" stroke-width="5.1024" stroke-miterlimit="3.8637" stroke-dasharray="14.1732,2.8346" d="
		M911.579,2001.167c-3.149,5.513-11.813,13.388-23.625,9.45s-28.351-16.164-42.525-30.339
		c-14.175-14.176-35.81-53.295-43.312-72.824c-5.57-14.499-18.113-43.313-41.738-78.75c-8.995-13.492-40.162-27.563-59.85-35.438"/>
	<polygon fill="#954B36" stroke="#954B36" stroke-width="5.1024" stroke-miterlimit="3.8637" points="702.943,1794.232 
		705.134,1792.435 697.974,1792.358 703.465,1797.343 	"/>
	<g>
		<path fill-rule="evenodd" clip-rule="evenodd" fill="#954B36" d="M2891.077,975.885l-11.33,3.464l0.601,1.962l14.769-4.515
			l-0.459-1.498c-1.435-0.092-3.596-1.576-4.502-2.43l-1.15,1.297C2889.643,974.894,2890.179,975.214,2891.077,975.885z"/>
		<path fill-rule="evenodd" clip-rule="evenodd" fill="#954B36" d="M2896.849,982.467l-7.704,1.663l0.471,1.541
			c0.555,0.153,1.193,0.581,1.516,1.636c0.541,1.772-1.146,2.818-2.749,3.309c-1.878,0.574-3.687,0.319-4.195-1.347
			c-0.399-1.308-0.116-2.041,0.932-3.215l-1.157-1.146c-2.117,1.755-1.734,3.76-1.444,4.71c0.832,2.722,3.383,3.972,6.358,3.063
			c3.08-0.942,4.676-3.114,3.986-5.372c-0.381-1.245-1.061-1.659-1.281-1.776l4.104-0.84l1.393,4.558l1.688-0.516L2896.849,982.467z
			"/>
		<path fill-rule="evenodd" clip-rule="evenodd" fill="#954B36" d="M2887.443,998.485c4.412,1.904,7.671,4.415,11.067,3.376
			c2.32-0.71,3.848-2.584,2.944-5.537c-0.729-2.384-2.758-3.286-4.362-3.327l-0.281,1.793c1.98,0.294,2.625,1.043,2.902,1.95
			c0.451,1.477-0.303,2.63-1.759,3.075c-2.616,0.8-5.368-1.035-11.226-3.742l-1.709,0.522l2.632,8.607l1.688-0.516L2887.443,998.485
			z"/>
		<path fill-rule="evenodd" clip-rule="evenodd" fill="#954B36" d="M2901.186,1008.95l-11.33,3.464l0.6,1.962l14.769-4.516
			l-0.458-1.498c-1.436-0.092-3.596-1.576-4.503-2.43l-1.149,1.297C2899.752,1007.958,2900.288,1008.279,2901.186,1008.95z"/>
	</g>
	<g>
		<g>
			
				<rect x="2699.841" y="1054.844" fill="#954B36" stroke="#954B36" stroke-width="3.5717" stroke-miterlimit="3.8637" width="2.961" height="26.769"/>
			
				<rect x="2693.755" y="1060.768" fill="#954B36" stroke="#954B36" stroke-width="3.5717" stroke-miterlimit="3.8637" width="15.133" height="2.961"/>
		</g>
		<g>
			
				<line fill="none" stroke="#FFFFFF" stroke-width="2.6787" stroke-linejoin="round" stroke-miterlimit="3.8637" x1="2701.322" y1="1054.844" x2="2701.322" y2="1081.613"/>
			
				<line fill="none" stroke="#FFFFFF" stroke-width="2.6787" stroke-linejoin="round" stroke-miterlimit="3.8637" x1="2693.755" y1="1062.249" x2="2708.888" y2="1062.249"/>
		</g>
	</g>
</g>
</svg>
