<?xml version="1.0" encoding="utf-8"?>
<!-- Generator: Adobe Illustrator 16.0.3, SVG Export Plug-In . SVG Version: 6.00 Build 0)  -->
<!DOCTYPE svg PUBLIC "-//W3C//DTD SVG 1.1//EN" "http://www.w3.org/Graphics/SVG/1.1/DTD/svg11.dtd">
<svg version="1.1" id="ОТКРЫТИЯ" xmlns="http://www.w3.org/2000/svg" xmlns:xlink="http://www.w3.org/1999/xlink" x="0px"
	 y="0px" width="3646.566px" height="2372.037px" viewBox="0 0 3646.566 2372.037" enable-background="new 0 0 3646.566 2372.037"
	 xml:space="preserve">
<g id="Крузенштерн">
	<path fill="none" stroke="#AA021B" stroke-width="3" stroke-miterlimit="10" d="M1689.243,446.849c0,0-36.62,49.591-43.42,58.668
		s-17.076,13.441-25.438,11.759s-6.847-0.227-13.604-7.954s-8.072-23.905-8.072-23.905s-0.428-15.586-4.807-22.704
		s-26.066,5.562-34.473,12.222s-39.79,65.951-49.883,75.594s-10.899,11.917-25.711,21.492s-52.882,11.692-66.347,10.383
		s-29.329-11.626-46.647,10.782s-25.019,76.538-31.168,102.473s-27.256,63.866-45.787,90.9s-39.076,11.106-56.425,44.094
		s-100.097,171.471-104.768,199.206s7.599,32.78,27.131,43.924s20.927,4.742,29.563,26.943s9.768,75.234-5.798,107.718
		s-159.648,178.602-165.273,198.209s11.235,51.538,8.804,90.906s-16.269,60.697-28.35,61.699s-17.771-7.312-17.771-7.312
		s-22.763,21.078-27.203,43.362s2.44,28.447,0,56.699s-6.404,57.565-17.755,68.575s-18.969,7.474-18.969,7.474
		s21.549,16.312,5.583,54.925s-14.065,53.217-14.016,78.915s9.223,82.449,23.636,98.74s60.261,24.867,64.004,41.579
		s4,23.469-10.128,40.424s-18.688,25.577-61.075,15.6s-222.844-203.591-269.727-264.144s-102.786-91.963-137.883-124.31
		s-22.355-108.807-82.625-116.134c-89.745-10.91-138.816-35.611-199.519-88.212c-44.147-38.255-75.246-0.102-118.898-4.124
		s-121.128-30.9-121.128-30.9"/>
	<path fill="none" stroke="#AA021B" stroke-width="3" stroke-miterlimit="10" d="M3627.497,1406.116c0,0-48.94-7.393-75.165-47.975
		c-24.391-37.744-38.736,16.602-77.439-23.032s38.088-379.178,16.399-410.906s-155.287-1.026-207.938-31.446
		s-397.944-360.606-427.73-372.834s-11.672,1.567-42.375-4.161s-56.568-84.256-87.34-107.503
		c-31.249-23.608-71.125-7.799-72.924,21.151c-1.884,30.313,80.199,77.25,89.177,138.156c4.395,29.813-12.235,7.825-24.804,27.02
		s-8.601,79.087-20.803,98.631s-25.543,68.783-25.096,86.35s3.2,21.986,19.545,32.343s24.474,8.63,46.409,4.16
		s44.995-11.636,53.132-63.053s34.045-226.051,47.977-238.265c3.517-3.083,6.122,2.782,17.102,6.309
		c10.247,3.291,28.191,16.404,36.324,27.491c20.949,28.557-44.545,262.023-57.834,291.117s-92.27,43.239-113.564,64.147
		s-45.116,38.064-80.492,53.591s-140.568,2.796-140.568,2.796s72.815,104.998,68.215,140.083s-31.459,117.436-37.24,135.375
		s-3.154,50.578-10.801,69.592s-18.027,7.305-32.504,18.826s-133.965,130.38-270.574,114.153
		c-44.402-5.274-326.875,132.724-326.875,132.724s-171.012,99.912-193.687,114.945s-67.049,20.985-78.195,13.343
		s-7.345-29.455-7.345-29.455s4.193,10.961-23.865-9.894s-96.614-170.91-151.533-196.233s-236.32-103.446-268.361-174.087
		s-55.073-244.407-102.324-302.887c-41.818-51.755-49.72-115.527,32.236-213.215c34.083-40.625,124.231-168.045,147.119-187.141
		s182.284-138.128,221.625-154.586c27.653-11.568,88.521,35.697,88.521,35.697"/>
	<polygon fill="#AA021B" stroke="#AA021B" stroke-width="3" stroke-miterlimit="10" points="2780.676,477.507 2771.285,483.602 
		2768.476,468.046 	"/>
	<polygon fill="#AA021B" stroke="#AA021B" stroke-width="3" stroke-miterlimit="10" points="3061.621,692.143 3055.016,701.184 
		3046.851,687.649 	"/>
	<polygon fill="#AA021B" stroke="#AA021B" stroke-width="3" stroke-miterlimit="10" points="3248.168,857.543 3241.564,866.584 
		3233.399,853.05 	"/>
	<polygon fill="#AA021B" stroke="#AA021B" stroke-width="3" stroke-miterlimit="10" points="3479.833,1153.769 3468.65,1153.232 
		3475.453,1138.965 	"/>
	<polygon fill="#AA021B" stroke="#AA021B" stroke-width="3" stroke-miterlimit="10" points="3635.916,1403.536 3632.534,1414.208 
		3620.485,1403.979 	"/>
	<polygon fill="#AA021B" stroke="#AA021B" stroke-width="3" stroke-miterlimit="10" points="2648.535,419.637 2659.725,419.982 
		2653.167,434.364 	"/>
	<polygon fill="#AA021B" stroke="#AA021B" stroke-width="3" stroke-miterlimit="10" points="2732.465,550.479 2743.225,547.386 
		2741.378,563.084 	"/>
	<polygon fill="#AA021B" stroke="#AA021B" stroke-width="3" stroke-miterlimit="10" points="2700.055,654.697 2711.2,655.757 
		2703.735,669.689 	"/>
	<polygon fill="#AA021B" stroke="#AA021B" stroke-width="3" stroke-miterlimit="10" points="2797.223,747.11 2786.256,744.858 
		2795.175,731.808 	"/>
	<polygon fill="#AA021B" stroke="#AA021B" stroke-width="3" stroke-miterlimit="10" points="2819.244,607.337 2808.115,606.114 
		2815.782,592.292 	"/>
	<polygon fill="#AA021B" stroke="#AA021B" stroke-width="3" stroke-miterlimit="10" points="2874.375,674.056 2885.427,675.851 
		2877.057,689.26 	"/>
	<polygon fill="#AA021B" stroke="#AA021B" stroke-width="3" stroke-miterlimit="10" points="2787.398,868.43 2790.693,879.131 
		2774.963,877.578 	"/>
	<polygon fill="#AA021B" stroke="#AA021B" stroke-width="3" stroke-miterlimit="10" points="2590.342,960.36 2590.815,971.547 
		2575.994,966.056 	"/>
	<polygon fill="#AA021B" stroke="#AA021B" stroke-width="3" stroke-miterlimit="10" points="2553.263,1067.698 2562.982,1062.137 
		2564.915,1077.825 	"/>
	<polygon fill="#AA021B" stroke="#AA021B" stroke-width="3" stroke-miterlimit="10" points="2440.055,1356.167 2446.729,1365.158 
		2431.38,1368.936 	"/>
	<polygon fill="#AA021B" stroke="#AA021B" stroke-width="3" stroke-miterlimit="10" points="2145.015,1449.019 2151.689,1458.01 
		2136.34,1461.789 	"/>
	<polygon fill="#AA021B" stroke="#AA021B" stroke-width="3" stroke-miterlimit="10" points="1818.368,1606.25 1825.042,1615.241 
		1809.693,1619.019 	"/>
	<polygon fill="#AA021B" stroke="#AA021B" stroke-width="3" stroke-miterlimit="10" points="1663.543,1694.248 1665.625,1705.25 
		1650.166,1701.953 	"/>
	<polygon fill="#AA021B" stroke="#AA021B" stroke-width="3" stroke-miterlimit="10" points="1533.977,1576.081 1524.983,1582.75 
		1521.21,1567.401 	"/>
	<polygon fill="#AA021B" stroke="#AA021B" stroke-width="3" stroke-miterlimit="10" points="1236.941,1352.52 1231.028,1362.028 
		1221.877,1349.14 	"/>
	<polygon fill="#AA021B" stroke="#AA021B" stroke-width="3" stroke-miterlimit="10" points="1126.925,1137.48 1116.051,1140.146 
		1118.516,1124.534 	"/>
	<polygon fill="#AA021B" stroke="#AA021B" stroke-width="3" stroke-miterlimit="10" points="1063.622,831.722 1053.385,827.187 
		1064.878,816.335 	"/>
	<polygon fill="#AA021B" stroke="#AA021B" stroke-width="3" stroke-miterlimit="10" points="1223.798,617.276 1214.971,610.389 
		1228.756,602.656 	"/>
	<polygon fill="#AA021B" stroke="#AA021B" stroke-width="3" stroke-miterlimit="10" points="1413.093,468.245 1408.252,458.149 
		1424.039,457.358 	"/>
	<polygon fill="#AA021B" stroke="#AA021B" stroke-width="3" stroke-miterlimit="10" points="1539.578,465.537 1545.632,456.12 
		1554.588,469.143 	"/>
	<polygon fill="#AA021B" stroke="#AA021B" stroke-width="3" stroke-miterlimit="10" points="1673.101,459.642 1682.374,465.916 
		1669.143,474.564 	"/>
	<polygon fill="#AA021B" stroke="#AA021B" stroke-width="3" stroke-miterlimit="10" points="1533.529,501.687 1542.802,507.96 
		1529.571,516.608 	"/>
	<polygon fill="#AA021B" stroke="#AA021B" stroke-width="3" stroke-miterlimit="10" points="1348.229,627.403 1359.364,628.56 
		1351.778,642.427 	"/>
	<polygon fill="#AA021B" stroke="#AA021B" stroke-width="3" stroke-miterlimit="10" points="1227.177,838.667 1237.339,843.366 
		1225.673,854.031 	"/>
	<polygon fill="#AA021B" stroke="#AA021B" stroke-width="3" stroke-miterlimit="10" points="1187.723,1116.825 1198.884,1115.949 
		1193.931,1130.959 	"/>
	<polygon fill="#AA021B" stroke="#AA021B" stroke-width="3" stroke-miterlimit="10" points="1104.549,1295.298 1113.929,1301.409 
		1100.852,1310.286 	"/>
	<polygon fill="#AA021B" stroke="#AA021B" stroke-width="3" stroke-miterlimit="10" points="1020.03,1462.217 1031.035,1460.162 
		1027.703,1475.613 	"/>
	<polygon fill="#AA021B" stroke="#AA021B" stroke-width="3" stroke-miterlimit="10" points="949.312,1651.001 960.406,1652.502 
		952.393,1666.127 	"/>
	<polygon fill="#AA021B" stroke="#AA021B" stroke-width="3" stroke-miterlimit="10" points="905.103,1821.32 916.197,1822.821 
		908.184,1836.446 	"/>
	<polygon fill="#AA021B" stroke="#AA021B" stroke-width="3" stroke-miterlimit="10" points="912.352,2046.32 905.681,2055.31 
		897.619,2041.712 	"/>
	<polygon fill="#AA021B" stroke="#AA021B" stroke-width="3" stroke-miterlimit="10" points="647.292,1778.533 638.584,1785.57 
		634.177,1770.389 	"/>
	<polygon fill="#AA021B" stroke="#AA021B" stroke-width="3" stroke-miterlimit="10" points="303.342,1507.218 298.675,1517.394 
		287.975,1505.759 	"/>
</g>
</svg>
