<?xml version="1.0" encoding="utf-8"?>
<!-- Generator: Adobe Illustrator 16.0.3, SVG Export Plug-In . SVG Version: 6.00 Build 0)  -->
<!DOCTYPE svg PUBLIC "-//W3C//DTD SVG 1.1//EN" "http://www.w3.org/Graphics/SVG/1.1/DTD/svg11.dtd">
<svg version="1.1" id="Температура_зимой"
	 xmlns="http://www.w3.org/2000/svg" xmlns:xlink="http://www.w3.org/1999/xlink" x="0px" y="0px" width="3646.566px"
	 height="2372.037px" viewBox="0 0 3646.566 2372.037" enable-background="new 0 0 3646.566 2372.037" xml:space="preserve">
<g id="Слой_96">
	<path fill="none" stroke="#000000" stroke-width="2.1277" stroke-miterlimit="3.8637" d="M1583.358-17.719"/>
	<path fill="none" stroke="#000000" stroke-width="2.1277" stroke-miterlimit="3.8637" d="M1568.978,17.135"/>
	<path fill="none" stroke="#000000" stroke-width="2.1277" stroke-miterlimit="3.8637" d="M1540.93,79.444
		c2.555-3.069,40.584-94.74,51.793-121.569"/>
	<path fill="none" stroke="#000000" stroke-width="2.1277" stroke-miterlimit="3.8637" d="M2431.174,649.564
		c0,0,45.766,0.751,66.023,0c34.733-1.288,42.766-0.751,56.27-15.017c24.093-25.451,31.345,2.193,31.511,6.758
		c1.501,41.298,29.552,18.751,30.011,13.515c3.751-42.799,27.742-46.071,37.513-46.554c60.771-3.003,32.62-68.341,32.262-73.586
		c-2.251-33.038,13.254-11.188,16.506-8.258c22.507,20.272,21.611-9.902,17.256-17.27c-41.264-69.832-67.969-67.782-77.982-73.394
		c-18.757-10.512-6.046-39.238,23.964-35.483c53.646,6.712,38.779-34.021,47.267-43.55c30.76-34.541,51.029,17.312,50.268,24.027
		c-3.753,33.039,15.485,57.241,21.757,68.329c22.507,39.797,27.76,23.278,22.507-5.254c-1.223-6.647-1.5-27.782-30.01-61.572
		c-5.665-6.715-21.757-33.037,3.002-36.792c4.325-0.656,40.514-20.274,46.515-41.298c1.902-6.656-0.256-21.953-7.683-30.813
		c-7.427-8.86-3.842-32.191,21.304-31.054c5.813,0.263,60.79-4.416,75.569-15.93"/>
	<path fill="none" stroke="#000000" stroke-width="2.1277" stroke-miterlimit="3.8637" d="M2271.37,747.928
		c-81.027,36.042-130.546-21.775-127.544-30.785c3.001-9.01-0.75-18.021,18.006-30.786c5.301-3.607,4.502-22.526-18.006-12.014
		c-9.805,4.579-26.517,38.956-9.004,64.575c19.507,28.533,68.273,54.813,79.528,68.329c8.15,9.789,45.767,56.315,128.294,27.782
		c10.639-3.678,39.015-24.779,65.273-25.53c12.021-0.344,12.004-20.273,3.751-34.54c-3.031-5.24-0.75-50.309-45.016-60.07
		c-12.084-2.665-45.017,15.018-45.017,15.018"/>
	<path fill="none" stroke="#000000" stroke-width="2.1277" stroke-miterlimit="3.8637" d="M3102.97,760.851
		c48.364-6.3,310.631-73.898,402.311-90.046c70.201-12.365,172.412-22.201,172.412-22.201"/>
	<path fill="none" stroke="#000000" stroke-width="2.1277" stroke-miterlimit="3.8637" d="M2907.027,1329.628l8.24,3.546
		c22.828,14.719,60.598,0.433,12.955-17.588c-5.965-2.257-41.64-10.888-73.9-28.157c-32.262-17.271-15.27,24.112,9.49,27.868"/>
	<path fill="none" stroke="#000000" stroke-width="2.1277" stroke-miterlimit="3.8637" d="M2992.593,1856.291
		c3.496-1.793,8.095-3.106,10.344-5.357c5.639-5.644,71.211-53.664,50.204,10.161c-3.052,9.271-9.005,47.679,45.015,49.181
		c7.65,0.214,90.248,1.316,273.095-27.782c212.324-33.788,227.329,85.6,375.881,33.039"/>
	<path fill="none" stroke="#000000" stroke-width="2.1277" stroke-miterlimit="3.8637" d="M2196.343,1697.778
		c15.756,0,122.293-9.761,256.589,30.786c12.4,3.744,118.541,32.288,171.06,17.27c7.104-2.03,100.535-38.293,129.795,13.517
		c6.604,11.693,47.267,36.042,51.769,36.792c4.501,0.752,23.257,12.766,12.004,30.037c-3.379,5.186-22.509,30.034,9.003,30.784
		c23.265,0.556,111.727,2.952,122.23,6.705c3.115,1.112,8.015,1.373,13.66,0.894"/>
	<path fill="none" stroke="#000000" stroke-width="2.1277" stroke-miterlimit="3.8637" d="M3256.461,2457.66
		c-32.262-124.645-182.313-78.842-183.064-183.964c-0.43-60.297-170.117-66.755-218.324-84.848
		c-30.012-11.264-58.521-27.031-58.521-27.031l-13.596-4.966"/>
	<path fill="none" stroke="#000000" stroke-width="2.1277" stroke-miterlimit="3.8637" d="M2532.267,2238.879
		c0,0-2.703-1.993,8.445,4.782c21.008,12.766,25.51,27.031,3.751,45.053c-21.756,18.021-57.77,42.048-76.525,84.848
		c-5.263,12.009-24.009,86.352,3.752,102.87"/>
	<path fill="none" stroke="#000000" stroke-width="2.1277" stroke-miterlimit="3.8637" d="M3094.03,1773.992
		c9.378-9.01,42.391,9.012,12.38,34.166c-3.911,3.278-33.388,22.526-41.64,6.006"/>
	<path fill="none" stroke="#000000" stroke-width="2.1277" stroke-miterlimit="3.8637" d="M2110.846,228.996
		c0.153-11.495,5.924-21.863,20.976-29.203c12.975-6.325,72.024-44.301,150.052-14.266c7.209,2.775,76.526,26.28,103.535,21.775
		c5.922-0.987,34.212-2.15,39.764-6.758c6.002-3.004,66.024-12.015,78.777-7.509c12.755,4.505,119.884,17.935,133.547,15.768
		c75.776-12.014,105.855-0.549,116.29,0c42.766,2.252,30.282,31.965,20.258,36.042c-24.009,9.761-36.013,45.053-39.014,54.063
		c-3.002,9.01-13.832,41.47-71.275,60.07c-25.508,8.26-79.527,24.027-88.53,58.567c-2.28,8.749-15.756,23.277-37.514,16.52
		c-4.587-1.426-23.257-5.257-36.012,1.501c-3.315,1.758-27.759,3.755-28.51-20.272c-0.213-6.796-6.754-27.032-30.762-15.018
		c-9.537,4.773-15.04,12.188-49.517-8.26c-20.258-12.014-42.015,9.761-96.783-15.018l-20.632-6.007
		c-51.393-9.761-96.034-32.663-113.665-60.069c-2.386-3.709-18.395-18.113-31.615-36.201"/>
	<path fill="none" stroke="#000000" stroke-width="2.1277" stroke-miterlimit="3.8637" d="M2490.822,785.472
		c7.32-4.857,17.993-12.119,21.006-12.765l25.884-6.757c32.262-2.253,51.663,6.881,67.523-22.526
		c3.855-7.147,25.51-23.277,45.017-7.509c5.865,4.742,21.758,23.277,26.258-6.757c1.782-11.881-3.821-54.689,29.19-69.707
		c6.83-3.107,46.587-10.638,51.838,17.146c1.675,8.854-20.257,52.561,6.753,57.816c12.714,2.475,10.923-23.079,7.321-40.799
		c-1.894-9.319-0.569-56.063,25.689-82.344c4.041-4.044,63.772-69.08,67.525-107.374c1.463-14.946,19.505-40.547,51.767-61.572"/>
	<path fill="none" stroke="#000000" stroke-width="2.1277" stroke-miterlimit="3.8637" d="M937.411,722.397
		c-103.536,15.017-183.063,6.007-247.585,54.063c-10.766,8.017-129.512,68.449-203.604,55.273
		c-9.781-1.74-70.992,2.544-58.238,58.859c2.675,11.807,51.394,91.606-23.633,66.077c-11.126-3.787-16.881-3.754-34.887-52.561
		c-4.158-11.27-27.009-21.024-10.504-88.602c2.344-9.594-1.5-69.832-35.262-24.029c-7.893,10.707-26.259,33.039-84.029-18.771
		c-9.215-8.265-70.276-88.1-70.276-88.1l-27.495-15.271c-21.007-10.512-205.333-61.82-245.097-33.287"/>
	<path fill="none" stroke="#000000" stroke-width="2.1277" stroke-miterlimit="3.8637" d="M1672.467,481.692
		c-0.698,2.597-1.625,5.486-2.802,8.686c-4.101,11.141-68.274,39.046-79.527,40.548c-7.362,0.981-24.009,9.761-29.261,34.54
		c-1.684,7.945-19.506,15.768-26.259,15.768s-26.259,3.004-21.007,31.537c1.386,7.53,12.004,47.305,45.766,27.031
		c13.262-7.963,41.98-13.74,54.769,4.506c35.263,50.309,57.02,102.869,87.03,57.066c6.426-9.808,39.019-63.106,102.035-51.059
		c66.774,12.765,47.05,74.715-3.001,57.817c-62.271-21.025-64.713,44.468-13.504,41.297c11.257-0.697,63.772-33.789,108.038,12.766
		c12.336,12.975,46.515,89.353,77.275,83.346c10.545-2.059,37.514-20.273,4.502-45.803c-5.107-3.95-91.018-24.577-75.743-105.172
		c1.314-6.934,12.343-29.943,41.982-0.701c14.968,14.768,69.773,29.284,84.028,46.554c12.238,14.827,56.72,12.819,63.021,10.512
		c30.761-11.264,41.265,15.768,7.504,20.273c-8.479,1.131-48.768-3.754-60.021,18.771c-3.021,6.044,11.254,19.523,31.511,12.765
		c11.587-3.865,33.763-0.751,38.264,14.267c1.988,6.631,30.01,19.523,33.012-8.259c0.841-7.794,4.921-30.738,43.514,14.267
		c6.259,7.296,57.771,38.293,75.027,37.543c9.859-0.429,44.265,15.017,105.036,3.754c7.266-1.346,25.51-3.754,27.01-30.786
		c1.499-10.512,23.257-27.031,33.011,13.516c9.524,39.593,34.512,28.532,30.761-9.011c-0.721-7.209,5.056-19.664,9.003-26.656"/>
	<path fill="none" stroke="#000000" stroke-width="2.1277" stroke-miterlimit="3.8637" d="M1590.888,279.384
		c28.51-15.019,96.033,6.757,28.51,69.079c-8.615,7.952-81.778,65.326-40.514,86.351c15.551,7.923,38.004,23.311,24.759,53.312
		c-14.255,32.287,33.761,8.259,36.42,3.113c9.739-18.85,24.355-30.897,30.829-27.903c0,0,4.057,2.932,1.431,19.201"/>
	<path fill="none" stroke="#000000" stroke-width="2.1277" stroke-miterlimit="3.8637" d="M2368.908,647.31
		c-18.757-2.253-100.571-3.679-161.306-31.537c-18.007-8.26-14.896-9.778-17.256-25.529c-2.252-15.018-36.014-53.312-73.526-15.769
		c-6.39,6.393-4.501,45.803-33.762,10.512c-3.388-4.087-15.005-13.516-40.515,3.754c-8.451,5.723-59.1,40.504-73.524-15.018
		c-9.754-37.543,27.826-89.61-42.765-146.419c-72.776-58.568-19.508-119.389-7.503-123.895c12.003-4.505,42.014-14.265,3-40.546
		c-8.373-5.643-12.753-26.281-6.001-58.568c1.85-8.85-9.753-60.82-87.031-61.571c-16.505-0.16-56.269-6.007-76.526-33.789
		c-6.634-9.098-79.528-25.53-148.551,27.782c-4.79,3.698-71.275,64.575-108.789,78.091"/>
	<path fill="none" stroke="#000000" stroke-width="2.1277" stroke-miterlimit="3.8637" d="M1445.337,249.349
		c-12.754,12.765-45.766,53.311-111.789,69.831c-11.848,2.963-81.778,31.536-107.018,30.156
		c-9.279-0.506-38.264,14.642-18.276-21.146c3.822-6.845-5.251-36.794-51.767-25.531c-14.028,3.397-35.206,22.917-65.273,62.322
		c-31.51,41.297-69.023,127.648-127.543,141.915c-8.869,2.162-126.101,38.698-174.118,37.6c-4.387-0.101-29.493,1.098-38.271-25.127
		c-2.439-7.288-26.912-15.441-50.082-10.852c-8.616,1.708-53.62-3.221-78.608-43.792c-17.424-28.291-16.328-65.365-18.523-77.444
		c-2.194-12.078-16.485-26.747-41.562-25.125c-20.484,1.324-31.737-9.188-51.994-74.514c-2.224-7.171-4.502-27.782-30.011-25.529
		c-6.726,0.593-17.256,4.505-36.012-30.035c-4.005-7.376-27.76-23.277-63.021-19.522c-5.223,0.557-43.516,3.003-51.768,5.256
		c-8.253,2.252-25.509-20.273-1.501-30.786c9.548-4.181,92.973-59.063,30.76-51.81c-14.37,1.675-43.076-22.238-46.141-24.402
		c-6.377-4.506-14.255-16.896-56.27,12.388c-11.501,8.016-65.272,5.257-65.272,5.257"/>
	<path fill="none" stroke="#000000" stroke-width="2.1277" stroke-miterlimit="3.8637" d="M1512.92,116.487
		c0,0-3.251,5.256-16.005,19.522c-12.755,14.267-24.535,34.458-54.58,45.011c-10.712,3.761-30.76,6.006-49.517,40.547
		c-4.672,8.602-61.521,59.318-97.534,60.82c-9.746,0.405-18.756,5.256-11.254-22.526c1.579-5.845,51.018-54.063,14.255-132.904
		c-3.82-8.193-46.996-62.575-109.538-24.777c-13.745,8.306-61.414,41.333-63.772,81.093c-0.227,3.822,14.255,67.579-60.771,64.575
		c-11.269-0.452-66.022-8.26-123.793,37.543c-10.403,8.249-57.019,36.042-84.029,40.547c-5.232,0.874-36.012-5.255-36.763-15.768"/>
	<path fill="none" stroke="#000000" stroke-width="2.1277" stroke-miterlimit="3.8637" d="M142.886,132.212
		c-93.033,2.252-109.538-7.509-243.835,80.344"/>
	<path fill="none" stroke="#000000" stroke-width="2.1277" stroke-miterlimit="3.8637" d="M168.02,93.167
		c10.503-4.505,37.138-27.782,61.896-29.283c9.096-0.553,44.265-12.014,74.276-9.01c12.713,1.272,41.264-0.751,47.266-8.26
		c6.002-7.508-0.75-22.525-17.255-29.284c-16.506-6.758-47.267-31.537-36.763-61.572c1.663-4.753,5.252-21.024,9.003-25.528
		c3.752-4.505,22.508-34.54,22.508-34.54"/>
	<path fill="none" stroke="#000000" stroke-width="2.1277" stroke-miterlimit="3.8637" d="M120.753,98.048
		C-40.09,68.567-27.423,87.912-104.7,65.385"/>
	<path fill="none" stroke="#000000" stroke-width="2.1277" stroke-miterlimit="3.8637" d="M1003.434,708.881
		c25.508-9.01,102.036-15.018,123.042,16.519c8.488,12.743,75.332,36.931,105.193,37.836c16.505,0.5,67.367,8.717,89.875,58.275
		c4.968,10.937,28.51,46.554,25.509,75.087c-1.885,17.922,42.015,60.07,70.524,40.547c11.417-7.819,27.009-21.024,39.013,10.512
		c2.723,7.155,34.512,29.285,66.773,18.021c9.842-3.435,38.264-0.751,54.019,9.762c5.922,3.951,24.759,24.779,52.519-6.007
		c8.948-9.924,39.013-12.764,52.518-2.252c5.33,4.149,44.665,28.339,67.481-20.312c10.546-22.487,3.793-42.009,24.8-56.276
		c8.444-5.735,48.768-6.007,66.774,19.522c5.885,8.343,21.449,19.29,23.257,42.8c2.252,29.284,42.015,30.034,43.516-2.253
		c0.522-11.251,6.753-54.813,27.88-69.333c8.116-5.579,15.636-15.515,36.643-11.01c57.771,26.28,85.529,44.302,148.552,0.751
		c7.039-4.865,31.511-23.277,75.025-3.004c12.753,5.942,26.259,19.522,108.788,12.014c7.359-0.669,56.7-14,48.767,19.522
		c-13.504,57.066,23.259,51.06,24.009,31.537c0.375-9.755,8.253-48.806,24.008-19.523c6.711,12.474,15.756,33.753,15.756,63.824
		c0,35.291,33.011,37.543,25.509,3.754c-1.789-8.063,3.001-41.298,23.257-14.267c6.255,8.346,24.761,31.538,20.527-9.438
		c-0.771-7.46-13.773-35.613,13.985-26.602c10.705,3.474,41.264,37.542,72.776,9.76c4.842-4.27,46.515-27.032,56.269-27.782
		c9.754-0.751,35.263-27.032,41.265-30.035c12.004-6.007,54.019-23.277,61.521-27.782c7.503-4.505,87.78-36.792,196.568-48.806
		c7.458-0.824,111.998-25.302,120.371-27.746"/>
	<path fill="none" stroke="#000000" stroke-width="2.1277" stroke-miterlimit="3.8637" d="M436.988,1826.926
		c16.534-3.206,93.79-0.938,122.033,8.721c43.746,14.961,59.542-10.087,69.283-10.974c8.253-0.75,64.522-51.81,72.025-60.821
		c7.502-9.01,32.999-27.407,48.016,0c12.755,23.278,19.507,48.808,28.51,12.016c2.149-8.782,2.809-29.773,21.758-4.506
		c6.369,8.494,22.507,25.53,43.514,36.794c4.63,2.48,19.106,15.926,15.006,40.547c-8.253,49.557,42.809,67.668,60.771,33.788
		c19.507-36.792,29.26-72.083,105.787-72.083c54.019,0,90.877-46.072,152.303-40.547c66.773,6.007,156.804,30.035,199.569-15.768
		c6.52-6.981,31.511-15.77,58.52-20.274c19.981-3.333,47.266-12.766,59.27-26.28c5.205-5.859,42.015-24.028,92.282-2.252
		c9.265,4.011,67.524,37.543,105.787,49.556c11.543,3.625,33.012,5.258,83.279-14.266c8.539-3.316,107.288-23.276,165.059-25.528
		c11.996-0.47,195.066-15.77,195.066-15.77"/>
	<path fill="none" stroke="#000000" stroke-width="2.1277" stroke-miterlimit="3.8637" d="M2758.449,2148.842
		c0,0-10.659-2.796-16.662-3.546c-6.002-0.752-132.796-33.039-189.065-35.291c-25.49-1.021-53.936-5.593-138.048-25.53
		c-28.51-6.757-177.062-33.79-217.575-24.028c-8.058,1.941-62.272,1.503-105.037,51.811c-5.934,6.982-47.266,48.057-72.775,2.253
		c-5.166-9.276-27.009-32.287-81.778-39.045c-6.864-0.847-37.513-0.752-65.271-30.035c-4.647-4.903-18.007-27.783-114.791-6.758
		c-10.42,2.263-121.513,39.705-240.833,36.793c-92.282-2.254-147.801,15.767-213.074,12.014"/>
	<path fill="none" stroke="#000000" stroke-width="2.1277" stroke-miterlimit="3.8637" d="M2494.201,2213.625
		c-37.513-21.024-210.072-45.803-218.325-48.807c-8.253-3.003-107.288-15.769-122.293-15.769s-66.173,2.788-126.794,45.053
		c-66.772,46.555-66.772,12.764-58.521,0.75c3.649-5.31,22.053-48.521-21.007-65.325c-14.812-5.781-42.015-7.508-51.769,16.52
		c-4.013,9.888-51.768,20.273-86.279,23.277c-7.475,0.65-118.553,22.123-125.294,22.525
		c-50.267,3.003-139.654,10.261-210.823,90.855c-7.114,8.057-117.041,150.174-159.806,174.202"/>
	<path fill="none" stroke="#000000" stroke-width="2.1277" stroke-miterlimit="3.8637" d="M1703.051,2259.428
		c-33.386-3.003-45.391,9.011-54.394,30.785c-2.295,5.551,0,36.793,9.003,53.312c9.003,16.521,9.003,24.028,2.251,30.787
		c-6.752,6.757-56.269,77.337-64.522,81.093"/>
	<path fill="none" stroke="#000000" stroke-width="2.1277" stroke-miterlimit="3.8637" d="M1272.027,2090.483
		c-36.012,3.002-136.305-4.58-162.244,28.597c-32.824,41.984-12.616,90.844-68.836,106.559
		c-15.601,4.361-128.294,66.077-195.068,81.096c-7.642,1.718-24.009,3.752-40.514,2.251
		c-16.506-1.502-106.538-27.782-139.549-42.799c-13.745-6.254-108.037-21.025-138.047-15.018
		c-18.45,3.692-72.775,10.512-112.539,43.55c-15.966,13.267-18.006,36.042-54.769,43.551c-21.621,4.416-72.025,29.284-84.029,53.312
		s-48.767,64.575-54.77,75.087"/>
	<path fill="none" stroke="#000000" stroke-width="2.1277" stroke-miterlimit="3.8637" d="M811.367,256.857
		c57.77-49.557,18.006-76.589,12.004-84.098c-6.001-7.508-65.272-42.048-27.759-116.385c4.551-9.017,29.26-45.052,29.26-45.052
		s44.265-73.586,30.01-88.603c-7.769-8.185-33.762-27.031-33.762-27.031"/>
	<path fill="none" stroke="#000000" stroke-width="2.1277" stroke-miterlimit="3.8637" d="M771.604,1547.602
		c0,0-5.801,18.256,3.001,22.528c15.239,7.395,12.548,40.698,11.379,69.053c-0.729,17.711,1.88,33.49,1.375,39.822
		c-3.001,37.543-39.014,13.516-39.014,4.505c0-9.01-2.745-92.587-12.004-101.367c-14.255-13.515-27.41-69.138-28.51-79.592
		c-3.001-28.532-36.337-48.857-45.016-53.313c-29.26-15.017-61.752-62.778-65.272-70.581
		c-21.007-46.553-23.866-100.627-24.759-111.879c-3.751-47.306,39.379-72.124,44.266-75.089
		c24.758-15.017,27.126-38.335,26.259-47.304c-2.25-23.277,28.51-43.551,19.507,2.252c-4.354,22.151-16.506,48.055-39.764,83.345
		c-6.876,10.434-12.754,16.521-6.002,18.773c6.752,2.252,12.754,6.007-6.003,22.525c-5.036,4.438-18.006,47.306,25.509,96.863
		c9.513,10.833,20.257,72.082,64.522,79.592c11.096,1.882,47.266,23.276,50.268,45.804"/>
	<path fill="none" stroke="#000000" stroke-width="2.1277" stroke-miterlimit="3.8637" d="M-106.951,101.427
		c24.009,9.761,51.018,36.793,96.033,21.775c6.082-2.029,36.763-30.786,70.525-12.014c11.823,6.573,38.263,12.014-34.513,15.768
		C-11.22,128.831-92.696,182.521-103.2,190.03"/>
	<path fill="none" stroke="#000000" stroke-width="2.1277" stroke-miterlimit="3.8637" d="M1013.938,2427.623
		c11.253-40.547,35.43-49.311,51.185-63.576l18.673-20.024c36.012-22.692,41.245-45.569,43.807-55.31
		c1.875-7.134,1.384-9.72,5.886-14.225"/>
	<path fill="none" stroke="#000000" stroke-width="2.1277" stroke-miterlimit="3.8637" d="M380.718,1843.446
		c-11.195,7.48-44.265,39.045-85.271,36.534c-28.822-1.767-94.416,2.137-123.763,17.616
		c-29.347,15.479-113.117,41.644-131.787,50.191c-18.67,8.55-138.161,57.124-154.178,85.427"/>
	<path fill="none" stroke="#000000" stroke-width="2.1277" stroke-miterlimit="3.8637" d="M2191.095,2484.689
		c0,0-18.006-17.27-34.511-61.572c-16.506-44.301,6.002-76.589,10.503-88.602c4.501-12.015,27.759-30.034,24.759-47.305
		c-0.899-5.18-36.763-46.554-70.524-0.751c0,0-19.507,3.003-30.01-2.252c-10.504-5.257-27.01-5.257-33.763-5.257
		c-6.752,0-51.019,9.011-63.021,9.762c-12.005,0.75-42.296-3.234-54.769-6.008c-20.258-4.504-107.289-9.762-122.293-20.273
		c-32.302-22.63-57.395-9.385-65.648-4.13"/>
	<path fill="none" stroke="#000000" stroke-width="2.1277" stroke-miterlimit="3.8637" d="M1164.365,2244.41
		c35.262-15.391,50.642-12.014,61.146,17.271c3.698,10.309,9.379,55.939,31.886,79.968c22.508,24.027,43.515,84.849,33.762,121.642"
		/>
	<path fill="none" stroke="#000000" stroke-width="2.1277" stroke-miterlimit="3.8637" d="M1564.629,294.401
		c-45.766,18.021-94.533,50.309-111.789,60.069c-9.949,5.627-59.271,45.804-110.288,13.516
		c-5.418-3.428-53.269-12.014-100.535,27.783c-5.741,4.833-58.52,47.306-79.528,51.809c-7.481,1.605-55.519,42.049-63.021,57.067
		c-3.629,7.265-49.325,99.421-199.569,114.132c-133.256,13.048-156.167,31.714-175.561,45.052
		c-21.822,15.009-41.362-15.559-54.019-13.515c-46.516,7.508-30.3,27.499-93.032,31.536c-13.477,0.867-42.079-4.038-69.251,1.323
		c-8.197,1.618-24.787,2.696-16.278-18.594c1.5-3.754,11.253-43.55-20.894-8.728c-6.66,7.213-17.37,64.293-48.13,58.286
		c-9.601-1.875-18.756-28.533-7.502-50.309c3.599-6.963,15.005-27.782-18.757-36.793c-14.57-3.889-30.01-24.778-9.753-48.056
		c6.611-7.595,18.756-34.54,18.756-42.798c0-8.26,17.689-17.941,33.011-24.78c55.519-24.779,24.009-33.038,0.751-21.024
		c-10.75,5.553-45.016,23.277-48.018,46.555c-1.344,10.426-28.509,24.027-20.257-8.259c2.177-8.515,20.257-33.039,59.271-46.554
		c14.339-4.968,63.772-47.305,17.257-53.313c-20.091-2.595-60.021,3.755-6.003-30.785c9.896-6.328,11.254-14.267-4.501-32.287
		c-6.629-7.583,5.251-24.028,10.504-32.288c5.251-8.26,7.502-24.778-13.505-32.287c-8.938-3.195-14.322-32.032-57.771-34.54
		c-39.013-2.253-172.667,38.183-183.813,36.792s-26.901,1.299-40.514-12.765c-11.629-12.014-36.954-8.467-36.954-8.467
		l-35.956,2.765c-65.272,12.765-85.32-23.539-89.071-28.795c-3.751-5.257-42.09-43.593-108.113,13.474"/>
</g>
<g id="Слой_97">
	<g>
		<polygon fill-rule="evenodd" clip-rule="evenodd" points="1653.551,1633.051 1653.551,1634.531 1658.765,1634.531 
			1658.765,1639.75 1660.239,1639.75 1660.239,1634.531 1665.456,1634.531 1665.456,1633.051 1660.239,1633.051 1660.239,1627.833 
			1658.765,1627.833 1658.765,1633.051 		"/>
		<path fill-rule="evenodd" clip-rule="evenodd" d="M1675.174,1638.39v3.861h2.239v-3.861h2.617v-1.881h-2.617v-10.939h-2.262
			l-7.837,10.939v1.881H1675.174z M1669.458,1636.509l5.715-8.008v8.008H1669.458z"/>
		<path fill-rule="evenodd" clip-rule="evenodd" d="M1681.577,1627.833c0,1.263,1.023,2.288,2.286,2.288
			c1.264,0,2.286-1.025,2.286-2.288c0-1.264-1.022-2.287-2.286-2.287C1682.6,1625.545,1681.577,1626.569,1681.577,1627.833z
			 M1682.67,1627.833c0-0.643,0.551-1.19,1.192-1.19c0.642,0,1.19,0.548,1.19,1.19c0,0.644-0.548,1.192-1.19,1.192
			C1683.222,1629.025,1682.67,1628.476,1682.67,1627.833z"/>
	</g>
	<g>
		<polygon fill-rule="evenodd" clip-rule="evenodd" points="1778.618,1507.347 1778.618,1508.826 1783.831,1508.826 
			1783.831,1514.044 1785.306,1514.044 1785.306,1508.826 1790.522,1508.826 1790.522,1507.347 1785.306,1507.347 
			1785.306,1502.127 1783.831,1502.127 1783.831,1507.347 		"/>
		<path fill-rule="evenodd" clip-rule="evenodd" d="M1793.119,1512.876c0.715,4.052,4.241,4.17,5.17,4.17
			c2.594,0,6.283-1.12,6.283-9.056c0-7.603-3.118-8.626-5.975-8.626c-3.62,0-5.715,2.429-5.715,5.885
			c0,3.551,2.309,5.601,5.357,5.601c1.524,0,3.098-0.476,4.074-1.763h0.047c0.023,2.621-0.572,6.172-4.047,6.172
			c-0.668,0-2.644-0.024-3.191-2.383H1793.119z M1802.216,1505.202c0,2.288-1.333,3.861-3.666,3.861
			c-2.359,0-3.526-1.74-3.526-3.788c0-2.098,1.026-4.124,3.479-4.124C1801.049,1501.151,1802.216,1503.129,1802.216,1505.202z"/>
		<path fill-rule="evenodd" clip-rule="evenodd" d="M1806.644,1502.127c0,1.265,1.023,2.288,2.287,2.288
			c1.263,0,2.286-1.023,2.286-2.288c0-1.263-1.023-2.288-2.286-2.288C1807.667,1499.839,1806.644,1500.865,1806.644,1502.127z
			 M1807.737,1502.127c0-0.642,0.551-1.191,1.193-1.191c0.642,0,1.189,0.55,1.189,1.191c0,0.645-0.548,1.191-1.189,1.191
			C1808.288,1503.319,1807.737,1502.772,1807.737,1502.127z"/>
	</g>
	<g>
		<polygon fill-rule="evenodd" clip-rule="evenodd" points="1526.757,1200.551 1526.757,1202.029 1531.971,1202.029 
			1531.971,1207.249 1533.445,1207.249 1533.445,1202.029 1538.661,1202.029 1538.661,1200.551 1533.445,1200.551 
			1533.445,1195.332 1531.971,1195.332 1531.971,1200.551 		"/>
		<path fill-rule="evenodd" clip-rule="evenodd" d="M1543.069,1197.215h3.81v12.536h2.238v-16.683h-1.57
			c-0.241,1.812-1.979,2.979-3.98,2.979h-0.498V1197.215z"/>
		<path fill-rule="evenodd" clip-rule="evenodd" d="M1554.71,1194.951h9.979c-2.026,2.193-3.643,4.957-4.646,7.315
			c-1.143,2.694-1.688,5.076-1.999,7.485h2.379c0.334-3.006,0.785-5.079,1.835-7.676c1.143-2.812,2.406-5.029,4.618-7.482v-1.524
			h-12.167V1194.951z"/>
		<path fill-rule="evenodd" clip-rule="evenodd" d="M1568.709,1195.332c0,1.264,1.027,2.288,2.286,2.288
			c1.264,0,2.287-1.024,2.287-2.288c0-1.263-1.023-2.287-2.287-2.287C1569.736,1193.044,1568.709,1194.069,1568.709,1195.332z
			 M1569.807,1195.332c0-0.643,0.547-1.19,1.189-1.19c0.646,0,1.193,0.548,1.193,1.19c0,0.644-0.548,1.192-1.193,1.192
			C1570.354,1196.524,1569.807,1195.975,1569.807,1195.332z"/>
	</g>
	<g>
		<polygon fill-rule="evenodd" clip-rule="evenodd" points="1560.519,1105.941 1560.519,1107.419 1565.732,1107.419 
			1565.732,1112.638 1567.207,1112.638 1567.207,1107.419 1572.423,1107.419 1572.423,1105.941 1567.207,1105.941 
			1567.207,1100.722 1565.732,1100.722 1565.732,1105.941 		"/>
		<path fill-rule="evenodd" clip-rule="evenodd" d="M1576.831,1102.605h3.81v12.536h2.239v-16.682h-1.571
			c-0.24,1.812-1.979,2.979-3.979,2.979h-0.499V1102.605z"/>
		<path fill-rule="evenodd" clip-rule="evenodd" d="M1600.306,1113.257h-8.81c0.311-1.215,1.24-2.215,3.503-3.646
			c3.88-2.479,5.357-3.48,5.357-6.603c0-3.192-2.167-5.05-5.572-5.05c-5.073,0-5.714,3.812-5.714,5.313v0.5h2.189v-0.619
			c0-1.979,1.333-3.313,3.452-3.313c2.001,0,3.359,1.12,3.359,3.193c0,2.551-2.025,3.623-3.406,4.504
			c-3.239,2.05-5.667,3.576-5.644,7.603h11.286V1113.257z"/>
		<path fill-rule="evenodd" clip-rule="evenodd" d="M1602.472,1100.722c0,1.264,1.026,2.288,2.286,2.288
			c1.264,0,2.287-1.023,2.287-2.288c0-1.263-1.023-2.288-2.287-2.288C1603.498,1098.434,1602.472,1099.458,1602.472,1100.722z
			 M1603.568,1100.722c0-0.643,0.547-1.191,1.189-1.191c0.645,0,1.193,0.548,1.193,1.191c0,0.644-0.548,1.192-1.193,1.192
			C1604.116,1101.914,1603.568,1101.366,1603.568,1100.722z"/>
	</g>
	<g>
		<polygon fill-rule="evenodd" clip-rule="evenodd" points="1246.355,1077.011 1246.304,1078.489 1251.515,1078.671 
			1251.333,1083.887 1252.806,1083.938 1252.988,1078.723 1258.201,1078.905 1258.253,1077.427 1253.039,1077.245 
			1253.221,1072.029 1251.749,1071.978 1251.566,1077.193 		"/>
		<path fill-rule="evenodd" clip-rule="evenodd" d="M1262.774,1074.247l3.808,0.134l-0.438,12.528l2.238,0.078l0.582-16.671
			l-1.57-0.055c-0.304,1.801-2.081,2.908-4.082,2.837l-0.498-0.016L1262.774,1074.247z"/>
		<path fill-rule="evenodd" clip-rule="evenodd" d="M1285.863,1085.713l-8.804-0.308c0.353-1.205,1.316-2.172,3.627-3.521
			c3.964-2.342,5.475-3.291,5.583-6.411c0.111-3.191-1.988-5.124-5.391-5.242c-5.07-0.177-5.844,3.611-5.896,5.11l-0.018,0.5
			l2.187,0.076l0.022-0.618c0.068-1.979,1.448-3.265,3.566-3.19c2,0.069,3.317,1.236,3.245,3.31
			c-0.089,2.548-2.15,3.549-3.561,4.381c-3.308,1.936-5.789,3.376-5.906,7.401l11.279,0.395L1285.863,1085.713z"/>
		<path fill-rule="evenodd" clip-rule="evenodd" d="M1288.465,1073.261c-0.044,1.263,0.945,2.322,2.205,2.365
			c1.263,0.044,2.32-0.942,2.364-2.206c0.045-1.262-0.942-2.323-2.204-2.366C1289.569,1071.01,1288.509,1071.999,1288.465,1073.261z
			 M1289.56,1073.299c0.022-0.642,0.59-1.171,1.23-1.148c0.645,0.022,1.173,0.59,1.151,1.231c-0.022,0.645-0.59,1.172-1.234,1.15
			C1290.066,1074.509,1289.538,1073.941,1289.56,1073.299z"/>
	</g>
	<g>
		<polygon fill-rule="evenodd" clip-rule="evenodd" points="970.332,1606.021 970.357,1607.5 975.57,1607.409 975.661,1612.626 
			977.135,1612.601 977.044,1607.382 982.26,1607.292 982.234,1605.813 977.019,1605.904 976.927,1600.686 975.454,1600.711 
			975.544,1605.931 		"/>
		<path fill-rule="evenodd" clip-rule="evenodd" d="M986.583,1602.402l3.809-0.067l0.218,12.533l2.239-0.04l-0.291-16.678
			l-1.571,0.027c-0.208,1.815-1.926,3.013-3.927,3.048l-0.498,0.009L986.583,1602.402z"/>
		<path fill-rule="evenodd" clip-rule="evenodd" d="M1004.544,1615.125c1.239-0.021,5.829-0.388,5.68-8.941
			c-0.149-8.556-4.748-8.759-5.988-8.738c-1.237,0.021-5.826,0.387-5.676,8.941
			C998.708,1614.941,1003.308,1615.146,1004.544,1615.125z M1004.511,1613.242c-2.69,0.047-3.671-3.104-3.737-6.895
			c-0.066-3.789,0.804-6.974,3.495-7.021c2.69-0.048,3.677,3.106,3.743,6.895C1008.078,1610.01,1007.201,1613.194,1004.511,1613.242
			z"/>
		<path fill-rule="evenodd" clip-rule="evenodd" d="M1012.187,1600.071c0.022,1.263,1.065,2.27,2.325,2.246
			c1.264-0.021,2.269-1.063,2.246-2.327c-0.021-1.262-1.063-2.269-2.325-2.248
			C1013.172,1597.765,1012.165,1598.808,1012.187,1600.071z M1013.283,1600.051c-0.011-0.644,0.528-1.201,1.169-1.211
			c0.645-0.013,1.203,0.526,1.214,1.167c0.011,0.646-0.527,1.203-1.172,1.215
			C1013.852,1601.234,1013.294,1600.694,1013.283,1600.051z"/>
	</g>
	<g>
		<polygon fill-rule="evenodd" clip-rule="evenodd" points="757.578,1498.962 756.16,1499.37 757.596,1504.387 752.583,1505.828 
			752.991,1507.246 758.004,1505.807 759.44,1510.824 760.861,1510.417 759.423,1505.399 764.436,1503.963 764.029,1502.541 
			759.016,1503.98 		"/>
		<path fill-rule="evenodd" clip-rule="evenodd" d="M765.272,1513.74l1.051,3.666l-12.04,3.456l0.618,2.152l16.022-4.599
			l-0.435-1.512c-1.805,0.271-3.405-1.081-3.957-3.006l-0.138-0.48L765.272,1513.74z"/>
		<path fill-rule="evenodd" clip-rule="evenodd" d="M772.154,1536.058c3.694-1.803,2.837-5.227,2.583-6.118
			c-0.408-1.421-1.872-6.01-10.431-3.553c-6.433,1.845-7.65,4.602-6.64,8.128c0.997,3.482,3.909,4.829,7.229,3.876
			c3.41-0.979,4.743-3.768,3.901-6.699c-0.419-1.466-1.311-2.846-2.816-3.431l-0.012-0.046c2.511-0.745,6.085-1.15,7.044,2.192
			c0.183,0.643,0.705,2.549-1.41,3.729L772.154,1536.058z M762.277,1529.423c2.197-0.629,4.075,0.221,4.718,2.464
			c0.649,2.27-0.698,3.869-2.668,4.436c-2.015,0.577-4.241,0.152-4.918-2.208C758.708,1531.662,760.286,1529.996,762.277,1529.423z"
			/>
		<path fill-rule="evenodd" clip-rule="evenodd" d="M774.134,1537.894c-1.213,0.348-1.916,1.615-1.568,2.83
			c0.348,1.215,1.615,1.918,2.828,1.569s1.915-1.616,1.567-2.83C776.614,1538.25,775.347,1537.546,774.134,1537.894z
			 M774.437,1538.949c0.617-0.177,1.295,0.196,1.471,0.816c0.177,0.618-0.198,1.297-0.816,1.473
			c-0.618,0.179-1.295-0.197-1.472-0.814C773.443,1539.803,773.817,1539.126,774.437,1538.949z"/>
	</g>
	<g>
		
			<rect x="823.756" y="1738.636" transform="matrix(-0.9925 0.122 -0.122 -0.9925 1859.7913 3365.4644)" fill-rule="evenodd" clip-rule="evenodd" width="6.286" height="2.027"/>
		<path fill-rule="evenodd" clip-rule="evenodd" d="M834.292,1732.534l3.781-0.464l1.527,12.442l2.223-0.273l-2.032-16.558
			l-1.559,0.192c-0.016,1.827-1.601,3.196-3.584,3.44l-0.498,0.061L834.292,1732.534z"/>
		<path fill-rule="evenodd" clip-rule="evenodd" d="M853.485,1743.311c1.228-0.152,5.753-0.995,4.712-9.488
			c-1.042-8.491-5.637-8.214-6.865-8.063c-1.23,0.15-5.757,0.994-4.715,9.485C847.66,1743.738,852.255,1743.461,853.485,1743.311z
			 M853.256,1741.441c-2.67,0.327-3.978-2.704-4.44-6.466c-0.461-3.761,0.075-7.019,2.746-7.348c2.67-0.328,3.978,2.705,4.44,6.465
			C856.462,1737.854,855.926,1741.113,853.256,1741.441z"/>
		<path fill-rule="evenodd" clip-rule="evenodd" d="M859.511,1727.539c0.154,1.254,1.296,2.146,2.547,1.992
			c1.254-0.153,2.145-1.295,1.99-2.549c-0.154-1.253-1.293-2.146-2.547-1.993C860.25,1725.144,859.357,1726.286,859.511,1727.539z
			 M860.599,1727.406c-0.078-0.637,0.399-1.249,1.036-1.327c0.64-0.079,1.25,0.399,1.329,1.036c0.079,0.64-0.398,1.251-1.038,1.328
			C861.288,1728.521,860.677,1728.045,860.599,1727.406z"/>
	</g>
	<g>
		<polygon fill-rule="evenodd" clip-rule="evenodd" points="554.408,1457.43 554.46,1458.906 559.67,1458.725 559.853,1463.941 
			561.326,1463.889 561.144,1458.673 566.357,1458.492 566.306,1457.012 561.092,1457.197 560.91,1451.98 559.437,1452.031 
			559.619,1457.247 		"/>
		<path fill-rule="evenodd" clip-rule="evenodd" d="M576.204,1462.008l0.135,3.858l2.238-0.077l-0.135-3.859l2.615-0.091
			l-0.065-1.881l-2.615,0.092l-0.381-10.933l-2.261,0.08l-7.45,11.205l0.065,1.881L576.204,1462.008z M570.426,1460.329l5.433-8.202
			l0.279,8.003L570.426,1460.329z"/>
		<path fill-rule="evenodd" clip-rule="evenodd" d="M582.235,1451.234c0.045,1.263,1.103,2.25,2.364,2.206
			c1.263-0.044,2.25-1.103,2.206-2.365s-1.102-2.251-2.365-2.208C583.178,1448.912,582.191,1449.972,582.235,1451.234z
			 M583.328,1451.195c-0.022-0.642,0.508-1.209,1.15-1.229c0.642-0.024,1.208,0.507,1.231,1.147
			c0.022,0.645-0.506,1.211-1.148,1.233C583.92,1452.368,583.351,1451.838,583.328,1451.195z"/>
	</g>
	<g>
		<polygon fill-rule="evenodd" clip-rule="evenodd" points="782.078,1194.883 782.078,1196.361 787.292,1196.361 787.292,1201.582 
			788.766,1201.582 788.766,1196.361 793.982,1196.361 793.982,1194.883 788.766,1194.883 788.766,1189.664 787.292,1189.664 
			787.292,1194.883 		"/>
		<path fill-rule="evenodd" clip-rule="evenodd" d="M798.39,1191.545h3.81v12.537h2.239v-16.682h-1.571
			c-0.241,1.81-1.978,2.978-3.98,2.978h-0.498V1191.545z"/>
		<path fill-rule="evenodd" clip-rule="evenodd" d="M810.031,1189.281h9.979c-2.025,2.195-3.643,4.958-4.645,7.318
			c-1.144,2.694-1.688,5.076-2,7.483h2.38c0.334-3.004,0.786-5.077,1.834-7.675c1.143-2.811,2.406-5.028,4.62-7.481v-1.525h-12.169
			V1189.281z"/>
		<path fill-rule="evenodd" clip-rule="evenodd" d="M824.031,1189.664c0,1.265,1.025,2.288,2.286,2.288
			c1.263,0,2.286-1.023,2.286-2.288c0-1.263-1.023-2.289-2.286-2.289C825.057,1187.375,824.031,1188.4,824.031,1189.664z
			 M825.126,1189.664c0-0.642,0.549-1.192,1.19-1.192c0.645,0,1.193,0.551,1.193,1.192c0,0.644-0.548,1.192-1.193,1.192
			C825.675,1190.856,825.126,1190.307,825.126,1189.664z"/>
	</g>
	<g>
		<polygon fill-rule="evenodd" clip-rule="evenodd" points="413.677,1048.733 413.548,1050.206 418.742,1050.661 418.287,1055.861 
			419.756,1055.989 420.21,1050.79 425.408,1051.245 425.536,1049.771 420.339,1049.317 420.793,1044.117 419.325,1043.988 
			418.871,1049.188 		"/>
		<path fill-rule="evenodd" clip-rule="evenodd" d="M439.628,1047.178c-0.356-4.098-3.858-4.523-4.784-4.604
			c-1.471-0.129-6.275-0.407-7.051,8.472c-0.583,6.672,1.549,8.796,5.201,9.116c3.609,0.316,5.905-1.923,6.207-5.365
			c0.309-3.538-1.813-5.782-4.85-6.047c-1.519-0.133-3.125,0.206-4.209,1.402l-0.047-0.004c0.205-2.613,1.107-6.1,4.569-5.796
			c0.666,0.059,2.632,0.254,2.972,2.652L439.628,1047.178z M429.9,1054.03c0.199-2.28,1.662-3.73,3.989-3.527
			c2.347,0.206,3.357,2.041,3.179,4.083c-0.183,2.088-1.377,4.017-3.821,3.802C430.71,1058.167,429.719,1056.096,429.9,1054.03z"/>
		<path fill-rule="evenodd" clip-rule="evenodd" d="M442.05,1045.978c-0.109,1.26,0.821,2.369,2.079,2.479
			c1.258,0.11,2.366-0.82,2.477-2.081c0.11-1.257-0.819-2.368-2.078-2.478C443.269,1043.788,442.161,1044.721,442.05,1045.978z
			 M443.14,1046.074c0.056-0.641,0.653-1.139,1.292-1.082c0.639,0.055,1.138,0.65,1.082,1.29c-0.057,0.642-0.651,1.14-1.29,1.083
			C443.585,1047.31,443.083,1046.714,443.14,1046.074z"/>
	</g>
	<g>
		<polygon fill-rule="evenodd" clip-rule="evenodd" points="187.702,702.677 186.555,703.607 189.837,707.664 185.784,710.949 
			186.713,712.096 190.766,708.812 194.046,712.868 195.196,711.939 191.914,707.882 195.966,704.598 195.038,703.448 
			190.984,706.734 		"/>
		<path fill-rule="evenodd" clip-rule="evenodd" d="M200.553,713.271l2.399,2.964l-9.734,7.888l1.41,1.741l12.953-10.499
			l-0.99-1.222c-1.556,0.955-3.557,0.338-4.815-1.218l-0.315-0.39L200.553,713.271z"/>
		<path fill-rule="evenodd" clip-rule="evenodd" d="M215.602,731.125c2.696-3.105,0.572-5.92-0.012-6.644
			c-0.929-1.148-4.067-4.797-10.989,0.81c-5.2,4.215-5.246,7.226-2.938,10.078c2.277,2.815,5.483,2.915,8.168,0.74
			c2.756-2.234,2.896-5.32,0.976-7.691c-0.958-1.185-2.318-2.107-3.931-2.057l-0.029-0.037c2.021-1.668,5.152-3.44,7.339-0.736
			c0.419,0.518,1.644,2.07,0.158,3.982L215.602,731.125z M203.92,728.88c1.776-1.438,3.836-1.392,5.304,0.422
			c1.485,1.835,0.868,3.836-0.723,5.126c-1.629,1.32-3.846,1.798-5.39-0.108C201.508,732.336,202.31,730.184,203.92,728.88z"/>
		<path fill-rule="evenodd" clip-rule="evenodd" d="M218.142,732.041c-0.98,0.795-1.132,2.236-0.338,3.218
			c0.794,0.982,2.234,1.133,3.216,0.338c0.98-0.795,1.131-2.237,0.337-3.217C220.563,731.398,219.122,731.245,218.142,732.041z
			 M218.832,732.893c0.498-0.405,1.269-0.325,1.673,0.177c0.404,0.499,0.324,1.27-0.176,1.675c-0.5,0.404-1.269,0.324-1.673-0.176
			C218.251,734.069,218.331,733.299,218.832,732.893z"/>
	</g>
	<g>
		
			<rect x="349.624" y="747.375" transform="matrix(-0.9902 -0.1394 0.1394 -0.9902 597.7489 1538.6481)" fill-rule="evenodd" clip-rule="evenodd" width="6.286" height="2.025"/>
		<path fill-rule="evenodd" clip-rule="evenodd" d="M361.749,743.429l3.773,0.532l-1.744,12.412l2.217,0.312l2.32-16.519
			l-1.559-0.219c-0.486,1.761-2.37,2.674-4.35,2.396l-0.496-0.07L361.749,743.429z"/>
		<path fill-rule="evenodd" clip-rule="evenodd" d="M379.595,754.698l-0.537,3.824l2.214,0.312l0.537-3.824l2.595,0.365l0.262-1.862
			l-2.595-0.366l1.521-10.833l-2.24-0.315l-9.279,9.742l-0.261,1.863L379.595,754.698z M374.197,752.04l6.773-7.133l-1.113,7.928
			L374.197,752.04z"/>
		<path fill-rule="evenodd" clip-rule="evenodd" d="M387.401,745.137c-0.176,1.25,0.698,2.408,1.945,2.583
			c1.251,0.176,2.407-0.697,2.583-1.947c0.175-1.251-0.695-2.408-1.946-2.583C388.735,743.014,387.577,743.884,387.401,745.137z
			 M388.487,745.29c0.089-0.638,0.708-1.104,1.344-1.016c0.639,0.09,1.105,0.709,1.016,1.347c-0.09,0.636-0.708,1.103-1.347,1.013
			C388.864,746.545,388.397,745.925,388.487,745.29z"/>
	</g>
	<g>
		<polygon fill-rule="evenodd" clip-rule="evenodd" points="599.025,934.623 598.921,936.098 604.123,936.462 603.759,941.668 
			605.23,941.771 605.593,936.565 610.797,936.929 610.9,935.455 605.696,935.09 606.061,929.883 604.589,929.781 604.226,934.987 
					"/>
		<path fill-rule="evenodd" clip-rule="evenodd" d="M615.53,932.435l3.8,0.265l-0.874,12.506l2.234,0.156l1.163-16.642l-1.567-0.109
			c-0.366,1.79-2.181,2.833-4.178,2.693l-0.496-0.035L615.53,932.435z"/>
		<path fill-rule="evenodd" clip-rule="evenodd" d="M632.315,946.676c1.236,0.087,5.841,0.123,6.437-8.413
			c0.597-8.534-3.968-9.139-5.205-9.225c-1.233-0.087-5.837-0.124-6.434,8.411C626.517,945.984,631.081,946.59,632.315,946.676z
			 M632.446,944.798c-2.685-0.188-3.387-3.415-3.123-7.194c0.264-3.78,1.409-6.877,4.093-6.689c2.684,0.188,3.393,3.415,3.128,7.195
			C636.28,941.89,635.129,944.986,632.446,944.798z"/>
		<path fill-rule="evenodd" clip-rule="evenodd" d="M641.239,932.346c-0.088,1.261,0.864,2.354,2.121,2.442
			c1.26,0.088,2.352-0.863,2.44-2.124c0.088-1.26-0.861-2.354-2.121-2.441C642.422,930.135,641.327,931.086,641.239,932.346z
			 M642.333,932.422c0.045-0.641,0.63-1.15,1.27-1.105c0.644,0.045,1.152,0.631,1.107,1.272c-0.045,0.642-0.63,1.151-1.273,1.105
			C642.796,933.65,642.288,933.064,642.333,932.422z"/>
	</g>
	<g>
		<polygon fill-rule="evenodd" clip-rule="evenodd" points="951.994,720.639 952.249,722.095 957.383,721.188 958.29,726.327 
			959.743,726.072 958.84,720.932 963.975,720.025 963.717,718.57 958.583,719.477 957.676,714.336 956.224,714.593 
			957.129,719.733 		"/>
		<path fill-rule="evenodd" clip-rule="evenodd" d="M967.48,714.517l3.751-0.662l2.175,12.345l2.204-0.389l-2.893-16.429
			l-1.548,0.273c0.079,1.825-1.43,3.277-3.399,3.626l-0.492,0.084L967.48,714.517z"/>
		<path fill-rule="evenodd" clip-rule="evenodd" d="M990.378,709.989c-1.407-3.865-4.898-3.37-5.812-3.208
			c-1.454,0.257-6.166,1.233-4.622,10.011c1.164,6.595,3.771,8.095,7.382,7.457c3.567-0.629,5.208-3.386,4.607-6.79
			c-0.616-3.498-3.248-5.113-6.249-4.584c-1.5,0.266-2.965,1.007-3.704,2.445l-0.047,0.009c-0.478-2.578-0.507-6.179,2.919-6.783
			c0.656-0.115,2.605-0.435,3.556,1.793L990.378,709.989z M982.749,719.128c-0.396-2.253,0.645-4.035,2.942-4.439
			c2.321-0.411,3.775,1.099,4.13,3.12c0.364,2.065-0.293,4.238-2.711,4.665C984.601,722.916,983.109,721.17,982.749,719.128z"/>
		<path fill-rule="evenodd" clip-rule="evenodd" d="M992.406,708.202c0.22,1.245,1.407,2.075,2.648,1.855
			c1.243-0.22,2.073-1.406,1.856-2.649c-0.22-1.245-1.407-2.077-2.649-1.857C993.018,705.771,992.186,706.958,992.406,708.202z
			 M993.484,708.012c-0.111-0.635,0.334-1.27,0.967-1.381c0.633-0.111,1.269,0.333,1.38,0.966c0.112,0.633-0.334,1.269-0.967,1.38
			C994.231,709.089,993.599,708.646,993.484,708.012z"/>
	</g>
	<g>
		
			<rect x="791.064" y="384.895" transform="matrix(-0.9612 -0.2758 0.2758 -0.9612 1451.1799 975.8896)" fill-rule="evenodd" clip-rule="evenodd" width="6.287" height="2.026"/>
		<path fill-rule="evenodd" clip-rule="evenodd" d="M799.592,389.647c-0.335,1.862-0.053,4.942,4.088,6.131
			c3.983,1.144,6.462-0.846,7.381-4.055c0.979-3.413-0.493-6.067-3.445-6.914c-1.465-0.42-2.707-0.405-3.965,0.176l2-4.559
			l7.072,2.03l0.518-1.809l-8.651-2.482l-3.543,8.13l2.014,0.579c0.812-0.759,2.485-0.799,3.536-0.498
			c1.741,0.5,3.255,1.951,2.442,4.791c-1.077,3.758-3.789,3.202-4.866,2.893c-2.471-0.709-2.64-2.717-2.476-3.809L799.592,389.647z"
			/>
		<path fill-rule="evenodd" clip-rule="evenodd" d="M817.253,399.673c1.188,0.341,5.685,1.334,8.041-6.891
			c2.356-8.223-1.983-9.765-3.171-10.107c-1.192-0.341-5.688-1.335-8.044,6.889C811.723,397.79,816.062,399.332,817.253,399.673z
			 M817.771,397.863c-2.586-0.741-2.606-4.044-1.562-7.686c1.044-3.644,2.81-6.434,5.395-5.692c2.587,0.743,2.606,4.046,1.563,7.687
			C822.125,395.815,820.359,398.606,817.771,397.863z"/>
		<path fill-rule="evenodd" clip-rule="evenodd" d="M828.958,387.512c-0.349,1.215,0.355,2.482,1.567,2.829
			c1.214,0.348,2.479-0.353,2.827-1.568c0.348-1.213-0.354-2.481-1.567-2.829C830.574,385.596,829.305,386.298,828.958,387.512z
			 M830.011,387.815c0.177-0.619,0.855-0.995,1.472-0.818c0.619,0.178,0.996,0.856,0.819,1.475
			c-0.178,0.619-0.856,0.994-1.476,0.816C830.209,389.111,829.834,388.433,830.011,387.815z"/>
	</g>
	<g>
		
			<rect x="802.862" y="265.94" transform="matrix(-0.2417 -0.9703 0.9703 -0.2417 741.8116 1113.5879)" fill-rule="evenodd" clip-rule="evenodd" width="6.292" height="2.024"/>
		<path fill-rule="evenodd" clip-rule="evenodd" d="M806.291,273.133c-2.154,0.612-5.169,2.298-3.994,7.016
			c0.8,3.212,3.215,5.117,6.38,4.326c2.447-0.61,3.487-2.444,3.312-4.141l0.047-0.012c0.824,1.439,2.462,2.208,4.244,1.766
			c1.269-0.317,4.279-1.732,3.156-6.241c-1.233-4.948-5.304-4.25-6.708-3.876l0.501,2.012c3.552-0.91,4.268,1.466,4.458,2.228
			c0.633,2.543-0.732,3.573-2.001,3.89c-2.772,0.691-3.505-2.148-3.678-2.842l-0.161-0.646l-1.756,0.438l0.417,1.666
			c0.448,1.804-0.396,3.241-2.175,3.686c-1.04,0.26-3.499,0.529-4.334-2.823c-0.709-2.846,1.568-3.854,2.3-4.159
			c0.179-0.07,0.334-0.133,0.513-0.202L806.291,273.133z"/>
		<path fill-rule="evenodd" clip-rule="evenodd" d="M809.498,298.759l-2.131-8.556c1.255,0.006,2.45,0.666,4.382,2.518
			c3.344,3.17,4.671,4.361,7.695,3.606c3.098-0.773,4.376-3.328,3.553-6.634c-1.229-4.924-5.079-4.626-6.536-4.263l-0.487,0.12
			l0.531,2.13l0.601-0.15c1.917-0.481,3.534,0.492,4.047,2.55c0.483,1.943-0.272,3.531-2.283,4.033
			c-2.474,0.617-4.004-1.09-5.19-2.216c-2.773-2.65-4.839-4.641-8.737-3.644l2.731,10.961L809.498,298.759z"/>
		<path fill-rule="evenodd" clip-rule="evenodd" d="M822.282,297.803c-1.226,0.305-1.973,1.547-1.665,2.772
			c0.305,1.225,1.545,1.973,2.769,1.667c1.225-0.306,1.969-1.547,1.665-2.773C824.746,298.243,823.506,297.497,822.282,297.803z
			 M822.545,298.867c0.625-0.156,1.29,0.243,1.445,0.868c0.155,0.624-0.244,1.289-0.868,1.445c-0.625,0.155-1.29-0.243-1.445-0.869
			C821.522,299.687,821.92,299.022,822.545,298.867z"/>
	</g>
	<g>
		<path fill-rule="evenodd" clip-rule="evenodd" d="M365.868,274.412c1.227-0.173,5.739-1.096,4.549-9.568
			c-1.189-8.472-5.78-8.115-7.007-7.942c-1.227,0.173-5.738,1.097-4.548,9.567C360.05,274.941,364.642,274.584,365.868,274.412z
			 M365.605,272.547c-2.664,0.375-4.025-2.635-4.551-6.387c-0.526-3.753-0.048-7.021,2.616-7.396
			c2.666-0.374,4.025,2.635,4.553,6.386C368.749,268.904,368.271,272.173,365.605,272.547z"/>
		<path fill-rule="evenodd" clip-rule="evenodd" d="M371.63,258.612c0.176,1.25,1.334,2.123,2.582,1.947
			c1.25-0.177,2.123-1.335,1.946-2.584c-0.176-1.25-1.332-2.125-2.582-1.947C372.326,256.202,371.454,257.36,371.63,258.612z
			 M372.716,258.457c-0.089-0.635,0.377-1.253,1.012-1.344c0.638-0.089,1.256,0.377,1.345,1.015
			c0.089,0.636-0.376,1.256-1.014,1.346C373.423,259.561,372.805,259.094,372.716,258.457z"/>
	</g>
	<g>
		
			<rect x="149.516" y="130.265" transform="matrix(-0.9986 0.0524 -0.0524 -0.9986 311.9916 254.3719)" fill-rule="evenodd" clip-rule="evenodd" width="6.286" height="2.025"/>
		<path fill-rule="evenodd" clip-rule="evenodd" d="M160.533,124.709l3.804-0.198l0.655,12.518l2.236-0.117l-0.873-16.66
			l-1.568,0.084c-0.144,1.82-1.818,3.078-3.816,3.184l-0.5,0.025L160.533,124.709z"/>
		<path fill-rule="evenodd" clip-rule="evenodd" d="M183.81,123.032c-0.924-4.009-4.45-3.943-5.377-3.895
			c-1.475,0.075-6.271,0.472-5.804,9.372c0.351,6.688,2.757,8.494,6.419,8.303c3.615-0.189,5.58-2.728,5.399-6.178
			c-0.186-3.545-2.599-5.473-5.643-5.312c-1.522,0.079-3.066,0.637-3.973,1.974l-0.047,0.002c-0.161-2.616,0.246-6.193,3.719-6.376
			c0.665-0.035,2.641-0.115,3.312,2.211L183.81,123.032z M175.127,131.171c-0.119-2.285,1.13-3.925,3.46-4.047
			c2.354-0.124,3.61,1.551,3.719,3.599c0.108,2.093-0.807,4.17-3.256,4.3C176.505,135.155,175.236,133.243,175.127,131.171z"/>
		<path fill-rule="evenodd" clip-rule="evenodd" d="M186.043,121.524c0.066,1.261,1.143,2.232,2.403,2.165
			c1.26-0.064,2.229-1.141,2.163-2.403c-0.066-1.261-1.143-2.23-2.403-2.165C186.946,119.187,185.977,120.264,186.043,121.524z
			 M187.136,121.466c-0.032-0.642,0.485-1.218,1.128-1.25c0.642-0.036,1.216,0.484,1.25,1.126c0.034,0.643-0.484,1.22-1.126,1.252
			C187.746,122.628,187.171,122.111,187.136,121.466z"/>
	</g>
	<g>
		
			<rect x="126.384" y="97.868" transform="matrix(-0.9903 0.1392 -0.1392 -0.9903 271.5576 178.769)" fill-rule="evenodd" clip-rule="evenodd" width="6.286" height="2.026"/>
		<path fill-rule="evenodd" clip-rule="evenodd" d="M135.716,99.346c0.381,2.21,1.742,5.387,6.552,4.711
			c3.278-0.461,5.42-2.664,4.967-5.897c-0.352-2.5-2.063-3.729-3.771-3.731l-0.006-0.044c1.518-0.67,2.454-2.222,2.198-4.042
			c-0.182-1.296-1.272-4.441-5.871-3.795c-5.046,0.71-4.778,4.837-4.553,6.273l2.051-0.289c-0.535-3.63,1.902-4.092,2.681-4.202
			c2.593-0.365,3.471,1.098,3.653,2.398c0.398,2.83-2.498,3.262-3.206,3.361l-0.661,0.093l0.253,1.795l1.697-0.239
			c1.839-0.261,3.181,0.731,3.436,2.55c0.149,1.061,0.161,3.538-3.258,4.019c-2.901,0.406-3.666-1.962-3.894-2.726
			c-0.05-0.186-0.096-0.346-0.147-0.533L135.716,99.346z"/>
		<path fill-rule="evenodd" clip-rule="evenodd" d="M161.535,98.974l-8.725,1.229c0.138-1.248,0.918-2.369,2.959-4.098
			c3.499-2.995,4.822-4.192,4.387-7.284c-0.444-3.162-2.848-4.702-6.22-4.227c-5.022,0.706-5.129,4.571-4.92,6.059l0.069,0.494
			l2.169-0.305l-0.085-0.613c-0.275-1.958,0.859-3.466,2.958-3.762c1.981-0.278,3.48,0.642,3.77,2.696
			c0.354,2.523-1.501,3.867-2.746,4.933c-2.92,2.482-5.114,4.33-4.531,8.314l11.176-1.571L161.535,98.974z"/>
		<path fill-rule="evenodd" clip-rule="evenodd" d="M161.94,86.293c0.176,1.252,1.333,2.124,2.583,1.948
			c1.249-0.177,2.121-1.333,1.945-2.583c-0.175-1.252-1.333-2.123-2.583-1.949C162.636,83.886,161.764,85.043,161.94,86.293z
			 M163.025,86.141c-0.089-0.637,0.377-1.256,1.014-1.347c0.637-0.088,1.255,0.378,1.345,1.015c0.088,0.637-0.377,1.256-1.014,1.346
			C163.732,87.246,163.115,86.779,163.025,86.141z"/>
	</g>
	<g>
		
			<rect x="1535.044" y="871.714" transform="matrix(-0.9994 -0.0349 0.0349 -0.9994 3045 1798.5701)" fill-rule="evenodd" clip-rule="evenodd" width="6.286" height="2.027"/>
		<path fill-rule="evenodd" clip-rule="evenodd" d="M1544.2,874.236c-0.008,2.242,0.781,5.608,5.634,5.777
			c3.31,0.116,5.804-1.681,5.917-4.943c0.088-2.525-1.384-4.031-3.066-4.327l0.002-0.049c1.608-0.395,2.8-1.761,2.864-3.595
			c0.046-1.31-0.481-4.595-5.124-4.757c-5.091-0.179-5.545,3.931-5.572,5.384l2.071,0.072c0.104-3.667,2.584-3.701,3.368-3.673
			c2.619,0.091,3.229,1.687,3.183,2.996c-0.1,2.858-3.026,2.78-3.741,2.756l-0.666-0.023l-0.063,1.81l1.713,0.06
			c1.857,0.065,3.006,1.273,2.941,3.106c-0.037,1.072-0.457,3.514-3.907,3.393c-2.929-0.103-3.271-2.571-3.361-3.36
			c-0.017-0.192-0.037-0.359-0.054-0.551L1544.2,874.236z"/>
		<path fill-rule="evenodd" clip-rule="evenodd" d="M1558.374,865.385c-0.044,1.262,0.945,2.321,2.205,2.365
			c1.262,0.044,2.32-0.943,2.364-2.206c0.044-1.262-0.942-2.322-2.205-2.367C1559.478,863.134,1558.417,864.123,1558.374,865.385z
			 M1559.468,865.423c0.023-0.642,0.59-1.17,1.231-1.148c0.645,0.022,1.17,0.589,1.148,1.231c-0.022,0.644-0.586,1.173-1.231,1.15
			C1559.975,866.633,1559.446,866.065,1559.468,865.423z"/>
	</g>
	<g>
		
			<rect x="1135.848" y="2267.278" transform="matrix(-0.6815 0.7318 -0.7318 -0.6815 3575.1516 2980.7314)" fill-rule="evenodd" clip-rule="evenodd" width="6.288" height="2.027"/>
		<path fill-rule="evenodd" clip-rule="evenodd" d="M1140.138,2258.133l2.6-2.788l9.159,8.549l1.527-1.639l-12.192-11.378
			l-1.069,1.15c1.16,1.41,0.83,3.479-0.536,4.942l-0.342,0.366L1140.138,2258.133z"/>
		<path fill-rule="evenodd" clip-rule="evenodd" d="M1155.775,2240.797c-3.446-2.241-5.938,0.258-6.572,0.937
			c-1.004,1.082-4.182,4.698,2.332,10.778c4.895,4.565,7.879,4.191,10.381,1.509c2.467-2.649,2.122-5.84-0.404-8.196
			c-2.594-2.422-5.666-2.13-7.747,0.1c-1.04,1.116-1.762,2.593-1.489,4.185l-0.033,0.035c-1.93-1.771-4.121-4.629-1.749-7.172
			c0.453-0.487,1.821-1.919,3.919-0.711L1155.775,2240.797z M1155.179,2252.688c-1.671-1.56-1.912-3.609-0.319-5.316
			c1.608-1.727,3.675-1.394,5.172,0.005c1.532,1.431,2.314,3.563,0.643,5.355
			C1158.936,2254.597,1156.697,2254.102,1155.179,2252.688z"/>
		<path fill-rule="evenodd" clip-rule="evenodd" d="M1156.396,2238.216c0.922,0.862,2.368,0.81,3.231-0.111
			c0.859-0.925,0.808-2.374-0.115-3.234c-0.922-0.863-2.368-0.812-3.23,0.111
			C1155.422,2235.908,1155.474,2237.354,1156.396,2238.216z M1157.142,2237.415c-0.47-0.438-0.495-1.215-0.059-1.685
			c0.438-0.471,1.214-0.499,1.682-0.058c0.473,0.438,0.5,1.212,0.059,1.684C1158.387,2237.827,1157.611,2237.852,1157.142,2237.415z
			"/>
	</g>
	<g>
		<path fill-rule="evenodd" clip-rule="evenodd" d="M2766.202,2161.425c1.178,0.384,5.639,1.532,8.28-6.604
			c2.64-8.137-1.643-9.831-2.819-10.214c-1.178-0.384-5.638-1.531-8.281,6.604
			C2760.743,2159.35,2765.022,2161.042,2766.202,2161.425z M2766.782,2159.634c-2.558-0.833-2.462-4.134-1.292-7.736
			c1.169-3.604,3.032-6.332,5.592-5.501c2.559,0.833,2.464,4.135,1.291,7.738
			C2771.205,2157.741,2769.343,2160.468,2766.782,2159.634z"/>
		<path fill-rule="evenodd" clip-rule="evenodd" d="M2778.362,2149.571c-0.391,1.202,0.266,2.494,1.467,2.883
			c1.2,0.392,2.491-0.267,2.878-1.47c0.393-1.2-0.266-2.49-1.465-2.883C2780.04,2147.711,2778.75,2148.37,2778.362,2149.571z
			 M2779.402,2149.912c0.199-0.613,0.89-0.965,1.5-0.766c0.613,0.197,0.966,0.889,0.767,1.499c-0.2,0.612-0.89,0.964-1.502,0.769
			C2779.554,2151.214,2779.203,2150.522,2779.402,2149.912z"/>
	</g>
	<g>
		
			<rect x="2498.029" y="2219.15" transform="matrix(-0.8289 -0.5594 0.5594 -0.8289 3332.4919 5459.5933)" fill-rule="evenodd" clip-rule="evenodd" width="6.29" height="2.027"/>
		<path fill-rule="evenodd" clip-rule="evenodd" d="M2511.447,2219.603l3.16,2.133l-7.004,10.39l1.857,1.256l9.319-13.832
			l-1.301-0.877c-1.21,1.366-3.307,1.362-4.965,0.243l-0.413-0.279L2511.447,2219.603z"/>
		<path fill-rule="evenodd" clip-rule="evenodd" d="M2531.1,2232.205c1.676-3.758-1.184-5.831-1.951-6.35
			c-1.226-0.827-5.294-3.401-10.271,3.988c-3.743,5.552-2.905,8.447,0.135,10.497c3.001,2.027,6.097,1.184,8.025-1.681
			c1.986-2.943,1.214-5.936-1.313-7.642c-1.262-0.853-2.83-1.337-4.36-0.816l-0.041-0.027c1.448-2.186,3.926-4.796,6.805-2.851
			c0.555,0.374,2.181,1.499,1.317,3.761L2531.1,2232.205z M2519.272,2233.474c1.277-1.895,3.266-2.452,5.199-1.148
			c1.956,1.32,1.95,3.416,0.804,5.115c-1.173,1.739-3.15,2.844-5.185,1.473C2517.976,2237.487,2518.115,2235.194,2519.272,2233.474z
			"/>
		<path fill-rule="evenodd" clip-rule="evenodd" d="M2533.843,2232.268c-0.705,1.048-0.43,2.469,0.614,3.176
			c1.048,0.707,2.469,0.431,3.176-0.617c0.706-1.048,0.431-2.47-0.615-3.176C2535.971,2230.944,2534.549,2231.22,2533.843,2232.268z
			 M2534.751,2232.882c0.357-0.534,1.12-0.684,1.654-0.323c0.532,0.361,0.679,1.121,0.32,1.656c-0.361,0.531-1.12,0.679-1.654,0.321
			C2534.54,2234.175,2534.391,2233.416,2534.751,2232.882z"/>
	</g>
	<g>
		<polygon fill-rule="evenodd" clip-rule="evenodd" points="2143.677,1697.612 2143.65,1699.09 2148.865,1699.181 2148.773,1704.4 
			2150.25,1704.425 2150.341,1699.208 2155.554,1699.298 2155.582,1697.82 2150.367,1697.729 2150.458,1692.511 2148.982,1692.486 
			2148.89,1697.705 		"/>
		<path fill-rule="evenodd" clip-rule="evenodd" d="M2160.048,1694.468l3.81,0.065l-0.221,12.534l2.239,0.039l0.291-16.681
			l-1.572-0.025c-0.269,1.806-2.027,2.941-4.025,2.908l-0.502-0.009L2160.048,1694.468z"/>
		<path fill-rule="evenodd" clip-rule="evenodd" d="M2183.389,1694.307c-0.644-4.063-4.167-4.245-5.096-4.262
			c-1.475-0.024-6.286,0.034-6.441,8.944c-0.117,6.697,2.16,8.668,5.823,8.729c3.62,0.064,5.759-2.329,5.817-5.784
			c0.061-3.55-2.213-5.641-5.258-5.693c-1.523-0.025-3.104,0.423-4.102,1.692h-0.047c0.02-2.62,0.675-6.162,4.15-6.101
			c0.669,0.012,2.645,0.07,3.152,2.438L2183.389,1694.307z M2174.159,1701.822c0.041-2.288,1.401-3.84,3.733-3.798
			c2.36,0.041,3.493,1.801,3.458,3.85c-0.035,2.098-1.096,4.105-3.546,4.063C2175.254,1705.893,2174.124,1703.893,2174.159,1701.822
			z"/>
		<path fill-rule="evenodd" clip-rule="evenodd" d="M2185.722,1692.849c-0.023,1.264,0.985,2.305,2.245,2.327
			c1.265,0.021,2.305-0.984,2.328-2.246c0.021-1.263-0.985-2.306-2.248-2.328C2186.788,1690.58,2185.744,1691.587,2185.722,1692.849
			z M2186.819,1692.87c0.01-0.644,0.568-1.183,1.211-1.171c0.641,0.012,1.181,0.568,1.169,1.212
			c-0.012,0.642-0.569,1.182-1.214,1.17C2187.344,1694.069,2186.807,1693.512,2186.819,1692.87z"/>
	</g>
	<g>
		<polygon fill-rule="evenodd" clip-rule="evenodd" points="2517.127,1272.513 2517.127,1273.992 2522.342,1273.992 
			2522.342,1279.211 2523.815,1279.211 2523.815,1273.992 2529.032,1273.992 2529.032,1272.513 2523.815,1272.513 
			2523.815,1267.294 2522.342,1267.294 2522.342,1272.513 		"/>
		<path fill-rule="evenodd" clip-rule="evenodd" d="M2533.44,1269.177h3.81v12.535h2.239v-16.68h-1.57
			c-0.24,1.81-1.979,2.977-3.98,2.977h-0.498V1269.177z"/>
		<path fill-rule="evenodd" clip-rule="evenodd" d="M2545.558,1278.042c0.716,4.052,4.237,4.173,5.167,4.173
			c2.598,0,6.287-1.12,6.287-9.057c0-7.602-3.119-8.627-5.977-8.627c-3.619,0-5.714,2.432-5.714,5.886
			c0,3.55,2.308,5.601,5.356,5.601c1.524,0,3.095-0.478,4.07-1.762h0.051c0.023,2.62-0.575,6.17-4.051,6.17
			c-0.665,0-2.645-0.022-3.188-2.384H2545.558z M2554.655,1270.37c0,2.288-1.332,3.859-3.666,3.859
			c-2.358,0-3.525-1.738-3.525-3.786c0-2.099,1.022-4.125,3.476-4.125C2553.487,1266.318,2554.655,1268.296,2554.655,1270.37z"/>
		<path fill-rule="evenodd" clip-rule="evenodd" d="M2559.082,1267.294c0,1.266,1.025,2.287,2.284,2.287
			c1.265,0,2.287-1.021,2.287-2.287c0-1.263-1.022-2.288-2.287-2.288C2560.107,1265.006,2559.082,1266.032,2559.082,1267.294z
			 M2560.177,1267.294c0-0.643,0.548-1.191,1.188-1.191c0.646,0,1.194,0.549,1.194,1.191c0,0.645-0.549,1.192-1.194,1.192
			C2560.725,1268.487,2560.177,1267.939,2560.177,1267.294z"/>
	</g>
	<g>
		<polygon fill-rule="evenodd" clip-rule="evenodd" points="2770.016,1386.512 2769.965,1387.99 2775.174,1388.172 
			2774.993,1393.388 2776.466,1393.439 2776.649,1388.222 2781.862,1388.406 2781.915,1386.928 2776.7,1386.746 2776.881,1381.53 
			2775.409,1381.477 2775.227,1386.695 		"/>
		<path fill-rule="evenodd" clip-rule="evenodd" d="M2786.435,1383.749l3.808,0.133l-0.438,12.527l2.237,0.08l0.583-16.673
			l-1.569-0.056c-0.304,1.803-2.081,2.908-4.082,2.839l-0.497-0.018L2786.435,1383.749z"/>
		<path fill-rule="evenodd" clip-rule="evenodd" d="M2803.708,1397.396c1.237,0.043,5.841-0.083,6.138-8.633
			c0.299-8.552-4.284-8.995-5.522-9.039c-1.237-0.043-5.839,0.081-6.137,8.631
			C2797.887,1396.906,2802.469,1397.352,2803.708,1397.396z M2803.772,1395.514c-2.689-0.095-3.504-3.294-3.371-7.081
			c0.131-3.788,1.167-6.923,3.857-6.828c2.688,0.094,3.509,3.293,3.377,7.081C2807.503,1392.473,2806.46,1395.607,2803.772,1395.514
			z"/>
		<path fill-rule="evenodd" clip-rule="evenodd" d="M2812.125,1382.761c-0.045,1.264,0.946,2.322,2.205,2.367
			c1.262,0.044,2.319-0.944,2.364-2.207c0.043-1.264-0.942-2.322-2.205-2.365C2813.23,1380.511,2812.168,1381.5,2812.125,1382.761z
			 M2813.22,1382.799c0.023-0.642,0.589-1.171,1.231-1.149c0.645,0.023,1.174,0.593,1.15,1.233
			c-0.021,0.644-0.589,1.173-1.233,1.149C2813.727,1384.01,2813.199,1383.444,2813.22,1382.799z"/>
	</g>
	<g>
		<polygon fill-rule="evenodd" clip-rule="evenodd" points="2256.127,969.695 2256.127,971.173 2261.34,971.173 2261.34,976.392 
			2262.815,976.392 2262.815,971.173 2268.033,971.173 2268.033,969.695 2262.815,969.695 2262.815,964.476 2261.34,964.476 
			2261.34,969.695 		"/>
		<path fill-rule="evenodd" clip-rule="evenodd" d="M2270.153,964.094h9.977c-2.021,2.193-3.644,4.957-4.641,7.317
			c-1.144,2.693-1.692,5.075-2,7.483h2.381c0.334-3.003,0.785-5.077,1.833-7.674c1.145-2.812,2.403-5.029,4.62-7.482v-1.525h-12.17
			V964.094z"/>
		<path fill-rule="evenodd" clip-rule="evenodd" d="M2284.154,964.476c0,1.264,1.024,2.288,2.285,2.288
			c1.264,0,2.286-1.023,2.286-2.288c0-1.263-1.022-2.288-2.286-2.288C2285.178,962.188,2284.154,963.213,2284.154,964.476z
			 M2285.247,964.476c0-0.643,0.552-1.191,1.192-1.191c0.644,0,1.189,0.548,1.189,1.191c0,0.644-0.546,1.192-1.189,1.192
			C2285.798,965.667,2285.247,965.119,2285.247,964.476z"/>
	</g>
	<g>
		<rect x="1889.067" y="888.125" fill-rule="evenodd" clip-rule="evenodd" width="6.287" height="2.027"/>
		<path fill-rule="evenodd" clip-rule="evenodd" d="M1898.129,880.713h9.979c-2.025,2.193-3.646,4.957-4.646,7.317
			c-1.142,2.692-1.689,5.074-1.998,7.482h2.38c0.333-3.004,0.784-5.077,1.835-7.674c1.142-2.812,2.406-5.029,4.617-7.483v-1.525
			h-12.167V880.713z"/>
		<path fill-rule="evenodd" clip-rule="evenodd" d="M1912.129,881.094c0,1.264,1.026,2.288,2.286,2.288
			c1.263,0,2.286-1.024,2.286-2.288c0-1.263-1.023-2.288-2.286-2.288C1913.156,878.807,1912.129,879.832,1912.129,881.094z
			 M1913.226,881.094c0-0.642,0.547-1.19,1.189-1.19c0.646,0,1.189,0.548,1.189,1.19c0,0.644-0.544,1.193-1.189,1.193
			C1913.773,882.288,1913.226,881.738,1913.226,881.094z"/>
	</g>
	<g>
		
			<rect x="2031.803" y="707.419" transform="matrix(-0.9998 0.0174 -0.0174 -0.9998 4081.9099 1381.3513)" fill-rule="evenodd" clip-rule="evenodd" width="6.286" height="2.027"/>
		<path fill-rule="evenodd" clip-rule="evenodd" d="M2041.03,709.625c0.109,2.24,1.073,5.56,5.929,5.475
			c3.311-0.058,5.706-1.983,5.649-5.247c-0.044-2.526-1.592-3.953-3.288-4.161v-0.048c1.586-0.48,2.704-1.906,2.672-3.74
			c-0.022-1.312-0.722-4.563-5.365-4.482c-5.093,0.089-5.331,4.216-5.282,5.669l2.071-0.037c-0.088-3.668,2.386-3.832,3.172-3.846
			c2.619-0.045,3.313,1.516,3.334,2.825c0.051,2.859-2.877,2.937-3.593,2.948l-0.664,0.011l0.031,1.812l1.716-0.03
			c1.856-0.032,3.066,1.114,3.098,2.948c0.02,1.073-0.271,3.533-3.723,3.593c-2.932,0.051-3.4-2.396-3.531-3.18
			c-0.027-0.191-0.057-0.357-0.084-0.547L2041.03,709.625z"/>
		<path fill-rule="evenodd" clip-rule="evenodd" d="M2061.006,714.854c1.236-0.021,5.825-0.388,5.676-8.942
			c-0.15-8.554-4.748-8.759-5.985-8.736c-1.24,0.02-5.829,0.386-5.68,8.94C2055.167,714.67,2059.766,714.875,2061.006,714.854z
			 M2060.973,712.971c-2.689,0.047-3.675-3.105-3.739-6.894c-0.066-3.789,0.806-6.974,3.496-7.021
			c2.689-0.046,3.675,3.105,3.74,6.895C2064.537,709.74,2063.664,712.924,2060.973,712.971z"/>
		<path fill-rule="evenodd" clip-rule="evenodd" d="M2068.646,699.799c0.021,1.264,1.064,2.27,2.324,2.247
			c1.265-0.021,2.269-1.062,2.247-2.326c-0.023-1.263-1.063-2.27-2.327-2.248C2069.63,697.494,2068.625,698.537,2068.646,699.799z
			 M2069.741,699.781c-0.012-0.644,0.528-1.201,1.169-1.212c0.646-0.011,1.202,0.527,1.214,1.17
			c0.012,0.644-0.527,1.202-1.173,1.213C2070.31,700.963,2069.752,700.424,2069.741,699.781z"/>
	</g>
	<g>
		
			<rect x="1999.03" y="548.685" transform="matrix(-0.9976 0.0698 -0.0698 -0.9976 4037.8452 958.2352)" fill-rule="evenodd" clip-rule="evenodd" width="6.286" height="2.027"/>
		<path fill-rule="evenodd" clip-rule="evenodd" d="M2015.829,551.262l0.271,3.853l2.233-0.158l-0.27-3.851l2.611-0.183
			l-0.131-1.877l-2.611,0.183l-0.762-10.912l-2.258,0.157l-7.052,11.459l0.131,1.877L2015.829,551.262z M2009.998,549.784
			l5.143-8.387l0.56,7.988L2009.998,549.784z"/>
		<path fill-rule="evenodd" clip-rule="evenodd" d="M2025.278,545.417c-1.866,0.632-2.852,2.588-2.717,4.514
			c0.2,2.853,2.125,5.084,5.972,4.814c3.847-0.27,5.44-2.747,5.241-5.599c-0.136-1.925-1.385-3.726-3.317-4.091
			c1.481-0.653,2.253-2.237,2.144-3.83c-0.123-1.735-1.286-4.4-5.3-4.119c-4.016,0.281-4.796,3.082-4.675,4.817
			C2022.738,543.516,2023.719,544.977,2025.278,545.417z M2027.814,544.452c-2.142,0.149-3.038-1.102-3.143-2.601
			c-0.061-0.855,0.163-2.782,2.753-2.963c2.589-0.182,3.077,1.695,3.138,2.551C2030.666,542.938,2029.951,544.301,2027.814,544.452z
			 M2028.409,552.961c-1.618,0.113-3.541-0.803-3.715-3.299c-0.097-1.38,0.482-3.307,3.24-3.499
			c2.753-0.193,3.598,1.634,3.694,3.014C2031.802,551.673,2030.023,552.849,2028.409,552.961z"/>
		<path fill-rule="evenodd" clip-rule="evenodd" d="M2035.375,539.311c0.088,1.262,1.184,2.21,2.44,2.122
			c1.259-0.088,2.208-1.181,2.12-2.441c-0.086-1.26-1.18-2.211-2.439-2.123C2036.239,536.957,2035.287,538.051,2035.375,539.311z
			 M2036.468,539.234c-0.045-0.641,0.463-1.227,1.104-1.271c0.643-0.045,1.228,0.463,1.271,1.104
			c0.045,0.643-0.463,1.228-1.105,1.273C2037.097,540.386,2036.513,539.876,2036.468,539.234z"/>
	</g>
	<g>
		<path fill-rule="evenodd" clip-rule="evenodd" d="M2480.746,803.288c0.964-0.78,4.354-3.898-1.026-10.546
			c-5.378-6.648-9.128-3.977-10.094-3.198c-0.96,0.781-4.351,3.897,1.026,10.546C2476.033,806.74,2479.784,804.068,2480.746,803.288
			z M2479.561,801.824c-2.089,1.696-4.803-0.183-7.186-3.127c-2.383-2.945-3.653-5.994-1.565-7.688
			c2.092-1.694,4.807,0.184,7.189,3.128C2480.381,797.081,2481.653,800.128,2479.561,801.824z"/>
		<path fill-rule="evenodd" clip-rule="evenodd" d="M2477.574,786.798c0.796,0.98,2.233,1.131,3.217,0.337
			c0.979-0.795,1.132-2.235,0.336-3.217c-0.792-0.982-2.233-1.132-3.213-0.338C2476.932,784.375,2476.78,785.815,2477.574,786.798z
			 M2478.424,786.108c-0.405-0.502-0.323-1.271,0.176-1.676c0.502-0.407,1.271-0.324,1.676,0.176
			c0.405,0.499,0.323,1.271-0.176,1.675C2479.602,786.689,2478.829,786.607,2478.424,786.108z"/>
	</g>
	<g>
		
			<rect x="2381.616" y="648.456" transform="matrix(-0.9986 -0.0523 0.0523 -0.9986 4732.3047 1422.7181)" fill-rule="evenodd" clip-rule="evenodd" width="6.286" height="2.025"/>
		<path fill-rule="evenodd" clip-rule="evenodd" d="M2393.276,643.698l3.803,0.2l-0.651,12.519l2.233,0.117l0.872-16.66
			l-1.568-0.082c-0.334,1.796-2.129,2.872-4.126,2.765l-0.501-0.025L2393.276,643.698z"/>
		<path fill-rule="evenodd" clip-rule="evenodd" d="M2416.607,644.379c-0.502-4.084-4.015-4.388-4.94-4.436
			c-1.476-0.078-6.287-0.187-6.753,8.714c-0.349,6.688,1.854,8.735,5.518,8.928c3.614,0.189,5.832-2.127,6.014-5.581
			c0.188-3.544-2.012-5.713-5.058-5.872c-1.521-0.079-3.114,0.314-4.156,1.547l-0.049-0.001c0.113-2.619,0.894-6.134,4.367-5.952
			c0.664,0.035,2.637,0.162,3.062,2.547L2416.607,644.379z M2407.12,651.565c0.123-2.284,1.535-3.786,3.867-3.664
			c2.353,0.124,3.429,1.922,3.319,3.969c-0.108,2.094-1.236,4.062-3.687,3.935C2408.076,655.672,2407.014,653.635,2407.12,651.565z"
			/>
		<path fill-rule="evenodd" clip-rule="evenodd" d="M2418.989,643.029c-0.066,1.261,0.903,2.339,2.163,2.403
			c1.261,0.067,2.338-0.904,2.402-2.165c0.064-1.261-0.901-2.338-2.162-2.403C2420.132,640.797,2419.053,641.767,2418.989,643.029z
			 M2420.083,643.085c0.031-0.642,0.61-1.162,1.25-1.127c0.643,0.034,1.161,0.61,1.126,1.252c-0.031,0.644-0.61,1.162-1.249,1.128
			C2420.566,644.304,2420.05,643.728,2420.083,643.085z"/>
	</g>
	<g>
		
			<rect x="2279.157" y="746.76" transform="matrix(-0.9454 0.3258 -0.3258 -0.9454 4683.6982 711.0831)" fill-rule="evenodd" clip-rule="evenodd" width="6.286" height="2.025"/>
		<path fill-rule="evenodd" clip-rule="evenodd" d="M2288.037,739.226l3.602-1.24l4.08,11.851l2.115-0.729l-5.427-15.774
			l-1.485,0.513c0.363,1.79-0.901,3.461-2.79,4.113l-0.474,0.162L2288.037,739.226z"/>
		<path fill-rule="evenodd" clip-rule="evenodd" d="M2309.92,731.106c-1.993-3.598-5.364-2.562-6.242-2.26
			c-1.395,0.48-5.897,2.184-2.996,10.611c2.179,6.331,4.988,7.404,8.459,6.21c3.421-1.181,4.612-4.162,3.487-7.43
			c-1.154-3.356-4.006-4.542-6.888-3.548c-1.442,0.497-2.772,1.459-3.275,2.995l-0.047,0.014c-0.874-2.469-1.466-6.021,1.819-7.153
			c0.629-0.217,2.509-0.839,3.793,1.212L2309.92,731.106z M2303.819,741.325c-0.745-2.163,0.004-4.085,2.21-4.844
			c2.23-0.769,3.897,0.495,4.565,2.435c0.681,1.982,0.374,4.23-1.946,5.03C2306.24,744.775,2304.492,743.286,2303.819,741.325z"/>
		<path fill-rule="evenodd" clip-rule="evenodd" d="M2311.625,728.957c0.411,1.194,1.713,1.831,2.906,1.419
			c1.192-0.413,1.825-1.715,1.415-2.909s-1.713-1.831-2.903-1.417C2311.848,726.461,2311.214,727.764,2311.625,728.957z
			 M2312.662,728.599c-0.212-0.607,0.129-1.305,0.734-1.513c0.61-0.209,1.307,0.129,1.516,0.739
			c0.207,0.607-0.133,1.306-0.739,1.514C2313.566,729.549,2312.869,729.209,2312.662,728.599z"/>
	</g>
	<g>
		<polygon fill-rule="evenodd" clip-rule="evenodd" points="2866.403,1317.65 2865.968,1319.063 2870.957,1320.588 
			2869.432,1325.58 2870.843,1326.013 2872.37,1321.022 2877.355,1322.547 2877.785,1321.135 2872.8,1319.607 2874.324,1314.617 
			2872.912,1314.184 2871.388,1319.177 		"/>
		<path fill-rule="evenodd" clip-rule="evenodd" d="M2882.972,1319.246l3.644,1.113l-3.661,11.988l2.14,0.656l4.874-15.954
			l-1.503-0.459c-0.757,1.662-2.762,2.27-4.672,1.685l-0.481-0.146L2882.972,1319.246z"/>
		<path fill-rule="evenodd" clip-rule="evenodd" d="M2905.422,1325.628c0.502-4.084-2.833-5.23-3.724-5.5
			c-1.411-0.433-6.05-1.702-8.657,6.821c-1.952,6.402-0.31,8.925,3.195,9.999c3.464,1.059,6.179-0.653,7.186-3.958
			c1.038-3.396-0.573-6.031-3.487-6.924c-1.455-0.446-3.102-0.45-4.407,0.495l-0.047-0.014c0.744-2.513,2.351-5.735,5.673-4.717
			c0.64,0.193,2.521,0.796,2.356,3.211L2905.422,1325.628z M2894.484,1330.304c0.669-2.188,2.402-3.301,4.635-2.618
			c2.252,0.689,2.862,2.694,2.262,4.654c-0.613,2.006-2.184,3.644-4.529,2.928
			C2894.414,1334.521,2893.877,1332.287,2894.484,1330.304z"/>
		<path fill-rule="evenodd" clip-rule="evenodd" d="M2908.041,1324.97c-0.37,1.208,0.309,2.487,1.514,2.857
			c1.206,0.369,2.488-0.312,2.854-1.52c0.369-1.206-0.312-2.486-1.515-2.857C2909.687,1323.083,2908.408,1323.762,2908.041,1324.97z
			 M2909.084,1325.292c0.188-0.617,0.874-0.98,1.488-0.793s0.978,0.874,0.79,1.487c-0.188,0.615-0.872,0.979-1.486,0.792
			C2909.261,1326.59,2908.897,1325.907,2909.084,1325.292z"/>
	</g>
	<g>
		
			<rect x="2385.544" y="575.457" transform="matrix(-0.9994 0.035 -0.035 -0.9994 4796.0654 1069.0938)" fill-rule="evenodd" clip-rule="evenodd" width="6.286" height="2.027"/>
		<path fill-rule="evenodd" clip-rule="evenodd" d="M2402.282,578.511l0.135,3.859l2.238-0.078l-0.135-3.86l2.615-0.091l-0.064-1.88
			l-2.615,0.092l-0.383-10.933l-2.261,0.079l-7.447,11.206l0.065,1.88L2402.282,578.511z M2396.505,576.83l5.432-8.202l0.28,8.002
			L2396.505,576.83z"/>
		<path fill-rule="evenodd" clip-rule="evenodd" d="M2408.23,567.357l9.97-0.348c-1.944,2.263-3.467,5.081-4.383,7.474
			c-1.048,2.732-1.514,5.131-1.74,7.549l2.382-0.083c0.229-3.014,0.607-5.102,1.563-7.733c1.044-2.85,2.229-5.11,4.357-7.64
			l-0.053-1.523l-12.16,0.424L2408.23,567.357z"/>
		<path fill-rule="evenodd" clip-rule="evenodd" d="M2422.232,567.249c0.044,1.264,1.105,2.251,2.365,2.207
			c1.261-0.044,2.248-1.103,2.203-2.366c-0.043-1.263-1.101-2.251-2.363-2.207C2423.179,564.927,2422.187,565.988,2422.232,567.249z
			 M2423.328,567.211c-0.021-0.642,0.506-1.21,1.148-1.232c0.644-0.022,1.21,0.507,1.231,1.149c0.023,0.644-0.506,1.21-1.148,1.232
			C2423.917,568.384,2423.351,567.854,2423.328,567.211z"/>
	</g>
	<g>
		
			<rect x="2793.502" y="731.128" transform="matrix(-0.9945 0.1045 -0.1045 -0.9945 5654.5015 1167.9353)" fill-rule="evenodd" clip-rule="evenodd" width="6.287" height="2.027"/>
		<path fill-rule="evenodd" clip-rule="evenodd" d="M2803.291,734.162c1.134,3.955,4.65,3.705,5.573,3.608
			c2.58-0.272,6.136-1.771,5.307-9.664c-0.794-7.561-4.003-8.253-6.848-7.954c-3.596,0.378-5.43,3.015-5.068,6.451
			c0.372,3.53,2.884,5.327,5.915,5.009c1.518-0.159,3.029-0.797,3.864-2.179l0.047-0.005c0.297,2.604,0.076,6.197-3.381,6.562
			c-0.66,0.069-2.63,0.253-3.423-2.037L2803.291,734.162z M2811.536,725.58c0.239,2.274-0.926,3.979-3.247,4.222
			c-2.343,0.247-3.685-1.361-3.897-3.399c-0.219-2.085,0.585-4.208,3.025-4.465C2809.953,721.671,2811.319,723.517,2811.536,725.58z
			"/>
		<path fill-rule="evenodd" clip-rule="evenodd" d="M2815.616,722.059c0.133,1.256,1.259,2.167,2.512,2.036
			c1.257-0.131,2.167-1.258,2.034-2.515c-0.131-1.255-1.256-2.168-2.511-2.037C2816.396,719.675,2815.484,720.802,2815.616,722.059z
			 M2816.705,721.944c-0.066-0.64,0.422-1.243,1.06-1.309c0.642-0.068,1.24,0.42,1.309,1.06c0.066,0.641-0.418,1.242-1.06,1.311
			C2817.375,723.072,2816.773,722.584,2816.705,721.944z"/>
	</g>
	<g>
		<path fill-rule="evenodd" clip-rule="evenodd" d="M1580.894,294.299c1.131-0.502,5.213-2.636,1.735-10.452
			c-3.476-7.815-7.79-6.207-8.921-5.702c-1.131,0.505-5.213,2.637-1.738,10.452C1575.449,296.413,1579.762,294.802,1580.894,294.299
			z M1580.129,292.579c-2.459,1.096-4.595-1.423-6.134-4.883c-1.542-3.46-1.981-6.734,0.477-7.831
			c2.459-1.094,4.593,1.422,6.135,4.885C1582.148,288.21,1582.588,291.485,1580.129,292.579z"/>
		<path fill-rule="evenodd" clip-rule="evenodd" d="M1582.037,277.421c0.513,1.154,1.864,1.672,3.019,1.159
			c1.151-0.514,1.671-1.867,1.157-3.021c-0.513-1.153-1.864-1.672-3.016-1.159C1582.042,274.913,1581.524,276.267,1582.037,277.421z
			 M1583.039,276.975c-0.263-0.589,0.015-1.312,0.604-1.573c0.586-0.262,1.307,0.016,1.571,0.604
			c0.261,0.588-0.018,1.313-0.604,1.574C1584.024,277.839,1583.3,277.563,1583.039,276.975z"/>
	</g>
	<g>
		<polygon fill-rule="evenodd" clip-rule="evenodd" points="1450.463,245.407 1455.547,241.708 1454.358,240.068 1449.273,243.766 
					"/>
		<path fill-rule="evenodd" clip-rule="evenodd" d="M1455.418,232.912l3.083-2.241l7.362,10.143l1.812-1.316l-9.797-13.498
			l-1.272,0.925c0.87,1.605,0.153,3.573-1.468,4.75l-0.404,0.293L1455.418,232.912z"/>
		<path fill-rule="evenodd" clip-rule="evenodd" d="M1474.005,218.78c-2.96-2.857-5.879-0.879-6.629-0.334
			c-1.196,0.869-5.003,3.814,0.231,11.025c3.934,5.417,6.934,5.619,9.903,3.464c2.928-2.129,3.195-5.329,1.167-8.125
			c-2.086-2.872-5.158-3.173-7.626-1.379c-1.23,0.896-2.224,2.206-2.256,3.822l-0.041,0.027c-1.556-2.107-3.159-5.331-0.349-7.375
			c0.539-0.393,2.154-1.534,3.983,0.052L1474.005,218.78z M1471.151,230.339c-1.342-1.851-1.187-3.907,0.7-5.28
			c1.908-1.388,3.872-0.666,5.076,0.991c1.234,1.699,1.594,3.939-0.39,5.383C1474.474,232.932,1472.37,232.018,1471.151,230.339z"/>
		<path fill-rule="evenodd" clip-rule="evenodd" d="M1475.031,216.266c0.744,1.02,2.174,1.248,3.194,0.506
			c1.02-0.743,1.248-2.175,0.504-3.196c-0.742-1.022-2.172-1.25-3.192-0.507C1474.515,213.812,1474.289,215.244,1475.031,216.266z
			 M1475.919,215.62c-0.378-0.518-0.258-1.285,0.26-1.662c0.522-0.378,1.287-0.26,1.665,0.262c0.378,0.52,0.258,1.287-0.264,1.665
			C1477.062,216.263,1476.296,216.142,1475.919,215.62z"/>
	</g>
	<g>
		
			<rect x="1519.115" y="113.001" transform="matrix(-0.5442 0.839 -0.839 -0.5442 2446.3149 -1101.0581)" fill-rule="evenodd" clip-rule="evenodd" width="6.29" height="2.021"/>
		<path fill-rule="evenodd" clip-rule="evenodd" d="M1526.67,109.643c1.917,1.161,5.205,2.218,7.849-1.859
			c1.805-2.779,1.547-5.843-1.187-7.62c-2.119-1.376-4.165-0.889-5.284,0.4l-0.041-0.026c0.489-1.584-0.067-3.31-1.605-4.309
			c-1.097-0.716-4.182-1.952-6.712,1.945c-2.775,4.277,0.51,6.781,1.741,7.553l1.128-1.738c-3.086-1.979-1.837-4.122-1.41-4.783
			c1.424-2.197,3.106-1.9,4.205-1.187c2.395,1.557,0.821,4.03,0.431,4.628l-0.364,0.561l1.518,0.985l0.935-1.437
			c1.011-1.561,2.638-1.923,4.176-0.924c0.896,0.584,2.772,2.2,0.894,5.099c-1.597,2.459-3.886,1.481-4.61,1.153
			c-0.172-0.084-0.325-0.154-0.498-0.239L1526.67,109.643z"/>
		<path fill-rule="evenodd" clip-rule="evenodd" d="M1543.329,89.897l-4.801,7.395c-0.849-0.922-1.184-2.247-1.149-4.923
			c0.035-4.608,0.003-6.393-2.614-8.092c-2.676-1.739-5.413-0.934-7.268,1.925c-2.761,4.256,0.082,6.873,1.342,7.691l0.419,0.273
			l1.193-1.839l-0.521-0.337c-1.656-1.077-2.049-2.925-0.894-4.702c1.09-1.679,2.767-2.209,4.504-1.08
			c2.137,1.389,1.934,3.672,1.919,5.312c-0.044,3.833-0.091,6.702,3.297,8.877l6.149-9.473L1543.329,89.897z"/>
		<path fill-rule="evenodd" clip-rule="evenodd" d="M1534.029,81.271c1.058,0.686,2.477,0.385,3.162-0.675
			c0.686-1.059,0.387-2.476-0.674-3.164c-1.055-0.687-2.474-0.387-3.159,0.673C1532.669,79.166,1532.971,80.582,1534.029,81.271z
			 M1534.624,80.35c-0.539-0.349-0.698-1.109-0.349-1.648c0.349-0.54,1.107-0.7,1.647-0.35c0.539,0.35,0.7,1.109,0.349,1.649
			C1535.922,80.541,1535.163,80.702,1534.624,80.35z"/>
	</g>
	<g>
		
			<rect x="2108.402" y="236.761" transform="matrix(-0.4063 -0.9137 0.9137 -0.4063 2752.1704 2263.7971)" fill-rule="evenodd" clip-rule="evenodd" width="6.293" height="2.022"/>
		<path fill-rule="evenodd" clip-rule="evenodd" d="M2112.87,243.826c-2.016,0.976-4.694,3.16-2.718,7.602
			c1.348,3.026,4.054,4.481,7.033,3.153c2.304-1.027,3.013-3.011,2.544-4.655l0.041-0.019c1.064,1.274,2.813,1.747,4.488,1.001
			c1.195-0.534,3.915-2.449,2.024-6.695c-2.071-4.658-5.962-3.266-7.28-2.652l0.844,1.896c3.341-1.515,4.459,0.701,4.778,1.419
			c1.063,2.396-0.1,3.645-1.297,4.177c-2.61,1.165-3.823-1.505-4.114-2.158l-0.27-0.608l-1.654,0.736l0.696,1.566
			c0.757,1.698,0.172,3.261-1.5,4.009c-0.979,0.436-3.356,1.13-4.76-2.026c-1.194-2.678,0.876-4.068,1.544-4.498
			c0.164-0.098,0.309-0.189,0.473-0.288L2112.87,243.826z"/>
		<path fill-rule="evenodd" clip-rule="evenodd" d="M2120.43,268.524l-3.585-8.056c1.236-0.21,2.53,0.231,4.754,1.718
			c3.843,2.54,5.354,3.484,8.206,2.214c2.914-1.299,3.728-4.035,2.345-7.15c-2.063-4.638-5.805-3.674-7.174-3.063l-0.457,0.202
			l0.89,2.004l0.566-0.252c1.805-0.804,3.566-0.127,4.428,1.81c0.813,1.829,0.343,3.525-1.549,4.369
			c-2.327,1.037-4.13-0.377-5.497-1.281c-3.188-2.127-5.568-3.728-9.237-2.067l4.594,10.319L2120.43,268.524z"/>
		<path fill-rule="evenodd" clip-rule="evenodd" d="M2132.811,265.38c-1.153,0.515-1.676,1.868-1.159,3.021
			c0.514,1.154,1.863,1.674,3.018,1.16c1.153-0.514,1.672-1.866,1.159-3.02C2135.314,265.386,2133.96,264.867,2132.811,265.38z
			 M2133.255,266.383c0.588-0.262,1.308,0.015,1.572,0.604c0.262,0.586-0.018,1.311-0.603,1.572
			c-0.589,0.26-1.313-0.015-1.572-0.604C2132.39,267.369,2132.67,266.644,2133.255,266.383z"/>
	</g>
	<g>
		
			<rect x="1734.044" y="302.27" transform="matrix(-0.9994 -0.035 0.035 -0.9994 3462.6855 667.2292)" fill-rule="evenodd" clip-rule="evenodd" width="6.287" height="2.027"/>
		<path fill-rule="evenodd" clip-rule="evenodd" d="M1743.201,304.792c-0.008,2.242,0.781,5.608,5.634,5.778
			c3.31,0.116,5.803-1.682,5.917-4.944c0.087-2.526-1.385-4.031-3.066-4.329l0.002-0.047c1.609-0.396,2.8-1.762,2.864-3.597
			c0.046-1.31-0.482-4.594-5.124-4.756c-5.091-0.178-5.545,3.931-5.572,5.383l2.071,0.073c0.104-3.667,2.584-3.702,3.369-3.674
			c2.619,0.092,3.229,1.687,3.183,2.997c-0.1,2.858-3.027,2.78-3.741,2.756l-0.665-0.023l-0.063,1.81l1.713,0.06
			c1.856,0.064,3.005,1.272,2.941,3.106c-0.037,1.072-0.457,3.514-3.907,3.393c-2.929-0.103-3.271-2.571-3.361-3.361
			c-0.017-0.191-0.037-0.359-0.054-0.55L1743.201,304.792z"/>
		<path fill-rule="evenodd" clip-rule="evenodd" d="M1760.613,301.444c-1.921,0.434-3.106,2.275-3.173,4.204
			c-0.099,2.858,1.582,5.279,5.436,5.413c3.855,0.135,5.697-2.162,5.797-5.019c0.066-1.929-0.986-3.851-2.873-4.417
			c1.542-0.494,2.477-1.988,2.532-3.584c0.061-1.737-0.819-4.51-4.841-4.65c-4.024-0.142-5.092,2.562-5.153,4.301
			C1758.284,299.288,1759.109,300.842,1760.613,301.444z M1763.236,300.749c-2.144-0.075-2.907-1.413-2.855-2.914
			c0.03-0.857,0.454-2.75,3.049-2.659c2.592,0.09,2.883,2.008,2.853,2.866C1766.231,299.542,1765.376,300.824,1763.236,300.749z
			 M1762.938,309.275c-1.62-0.057-3.437-1.17-3.35-3.67c0.048-1.383,0.826-3.238,3.587-3.141c2.759,0.096,3.409,2.001,3.36,3.384
			C1766.448,308.348,1764.555,309.331,1762.938,309.275z"/>
		<path fill-rule="evenodd" clip-rule="evenodd" d="M1771.292,296.426c-0.044,1.264,0.946,2.323,2.205,2.366
			c1.263,0.045,2.321-0.942,2.365-2.206c0.044-1.262-0.943-2.322-2.205-2.366C1772.398,294.177,1771.336,295.166,1771.292,296.426z
			 M1772.388,296.466c0.022-0.644,0.589-1.172,1.231-1.149c0.644,0.022,1.173,0.589,1.15,1.231c-0.022,0.644-0.59,1.173-1.233,1.151
			C1772.894,297.676,1772.366,297.109,1772.388,296.466z"/>
	</g>
	<g>
		<rect x="1772.031" y="563.748" fill-rule="evenodd" clip-rule="evenodd" width="6.286" height="2.026"/>
		<path fill-rule="evenodd" clip-rule="evenodd" d="M1788.689,567.274v3.862h2.239v-3.862h2.617v-1.881h-2.617v-10.94h-2.262
			l-7.834,10.94v1.881H1788.689z M1782.974,565.393l5.715-8.007v8.007H1782.974z"/>
		<path fill-rule="evenodd" clip-rule="evenodd" d="M1795.162,566.058c0.074,2.242,0.98,5.578,5.836,5.578
			c3.309,0,5.738-1.883,5.738-5.147c0-2.527-1.524-3.981-3.215-4.219v-0.048c1.597-0.452,2.74-1.858,2.74-3.692
			c0-1.311-0.645-4.576-5.287-4.576c-5.097,0-5.407,4.122-5.381,5.576h2.072c-0.023-3.67,2.449-3.79,3.235-3.79
			c2.62,0,3.288,1.574,3.288,2.884c0,2.86-2.931,2.884-3.643,2.884h-0.668v1.812h1.714c1.858,0,3.048,1.167,3.048,3.001
			c0,1.072-0.334,3.527-3.786,3.527c-2.928,0-3.355-2.455-3.476-3.241c-0.023-0.19-0.047-0.357-0.07-0.549H1795.162z"/>
		<path fill-rule="evenodd" clip-rule="evenodd" d="M1809.019,556.717c0,1.264,1.025,2.288,2.286,2.288
			c1.263,0,2.286-1.023,2.286-2.288c0-1.263-1.023-2.288-2.286-2.288C1810.044,554.429,1809.019,555.454,1809.019,556.717z
			 M1810.115,556.717c0-0.643,0.548-1.191,1.19-1.191c0.645,0,1.192,0.548,1.192,1.191c0,0.644-0.548,1.191-1.192,1.191
			C1810.663,557.908,1810.115,557.36,1810.115,556.717z"/>
	</g>
	<g>
		
			<rect x="2503.286" y="278.05" transform="matrix(-0.9877 0.1566 -0.1566 -0.9877 5025.6318 162.0825)" fill-rule="evenodd" clip-rule="evenodd" width="6.288" height="2.026"/>
		<path fill-rule="evenodd" clip-rule="evenodd" d="M2522.785,269.75c-1.338-3.89-4.838-3.455-5.753-3.31
			c-1.459,0.232-6.189,1.125-4.797,9.927c1.048,6.617,3.629,8.16,7.254,7.587c3.575-0.567,5.267-3.295,4.725-6.709
			c-0.556-3.507-3.155-5.17-6.167-4.693c-1.505,0.238-2.982,0.956-3.747,2.38l-0.047,0.008c-0.434-2.585-0.4-6.187,3.033-6.73
			c0.659-0.104,2.614-0.392,3.523,1.854L2522.785,269.75z M2515.001,278.753c-0.357-2.26,0.714-4.021,3.018-4.387
			c2.327-0.369,3.752,1.167,4.072,3.191c0.327,2.071-0.367,4.231-2.788,4.616C2516.787,282.571,2515.326,280.801,2515.001,278.753z"
			/>
		<path fill-rule="evenodd" clip-rule="evenodd" d="M2529.075,272.782c-1.805,0.793-2.615,2.827-2.313,4.734
			c0.446,2.824,2.558,4.879,6.367,4.275s5.182-3.211,4.733-6.035c-0.303-1.907-1.701-3.592-3.662-3.786
			c1.42-0.781,2.053-2.426,1.805-4.002c-0.273-1.719-1.666-4.272-5.64-3.642c-3.977,0.63-4.511,3.488-4.237,5.207
			C2526.376,271.11,2527.483,272.479,2529.075,272.782z M2531.515,271.6c-2.118,0.336-3.121-0.833-3.357-2.315
			c-0.133-0.849-0.078-2.787,2.486-3.194c2.562-0.406,3.213,1.42,3.347,2.269C2534.225,269.842,2533.631,271.264,2531.515,271.6z
			 M2532.85,280.025c-1.602,0.254-3.598-0.491-3.988-2.962c-0.216-1.366,0.193-3.336,2.923-3.769
			c2.726-0.432,3.727,1.314,3.942,2.68C2536.12,278.446,2534.446,279.772,2532.85,280.025z"/>
		<path fill-rule="evenodd" clip-rule="evenodd" d="M2538.601,265.818c0.197,1.25,1.371,2.1,2.614,1.903
			c1.248-0.198,2.099-1.369,1.901-2.618c-0.198-1.248-1.367-2.101-2.616-1.902C2539.255,263.398,2538.404,264.572,2538.601,265.818z
			 M2539.684,265.647c-0.102-0.635,0.354-1.263,0.987-1.363c0.638-0.1,1.264,0.356,1.365,0.99c0.1,0.637-0.354,1.264-0.991,1.364
			C2540.411,266.739,2539.785,266.282,2539.684,265.647z"/>
	</g>
	<g>
		
			<rect x="2550.031" y="382.371" transform="matrix(-0.9877 0.1563 -0.1563 -0.9877 5134.8916 362.9091)" fill-rule="evenodd" clip-rule="evenodd" width="6.287" height="2.027"/>
		<path fill-rule="evenodd" clip-rule="evenodd" d="M2557.703,374.137l9.856-1.563c-1.657,2.484-2.826,5.466-3.443,7.953
			c-0.709,2.841-0.877,5.278-0.805,7.705l2.351-0.373c-0.141-3.019-0.018-5.138,0.612-7.867c0.689-2.957,1.59-5.343,3.393-8.114
			l-0.239-1.506l-12.018,1.905L2557.703,374.137z"/>
		<path fill-rule="evenodd" clip-rule="evenodd" d="M2579.875,386.113c1.221-0.193,5.717-1.196,4.377-9.645
			c-1.336-8.45-5.921-8.013-7.141-7.819c-1.225,0.194-5.72,1.195-4.383,9.646C2574.067,386.746,2578.649,386.307,2579.875,386.113z
			 M2579.58,384.254c-2.657,0.421-4.07-2.563-4.663-6.308c-0.592-3.742-0.171-7.018,2.488-7.439
			c2.658-0.422,4.069,2.563,4.662,6.307C2582.66,380.556,2582.238,383.833,2579.58,384.254z"/>
		<path fill-rule="evenodd" clip-rule="evenodd" d="M2585.346,370.141c0.197,1.248,1.371,2.099,2.614,1.901
			c1.248-0.197,2.099-1.368,1.9-2.617c-0.197-1.247-1.368-2.1-2.614-1.902C2586.001,367.721,2585.149,368.894,2585.346,370.141z
			 M2586.427,369.97c-0.1-0.635,0.356-1.262,0.991-1.364c0.635-0.1,1.262,0.356,1.363,0.991c0.101,0.636-0.355,1.262-0.992,1.363
			C2587.157,371.061,2586.529,370.605,2586.427,369.97z"/>
	</g>
	<g>
		
			<rect x="2756.793" y="289.622" transform="matrix(-0.9702 0.2422 -0.2422 -0.9702 5508.1035 -95.7537)" fill-rule="evenodd" clip-rule="evenodd" width="6.287" height="2.027"/>
		<path fill-rule="evenodd" clip-rule="evenodd" d="M2766.467,291.179c0.64,1.78,2.423,4.308,6.604,3.264
			c4.021-1.003,5.172-3.968,4.367-7.206c-0.859-3.443-3.459-5.007-6.439-4.263c-1.479,0.369-2.547,1.005-3.346,2.137l-0.545-4.949
			l7.138-1.781l-0.454-1.826l-8.734,2.18l0.995,8.814l2.032-0.508c0.324-1.063,1.754-1.934,2.814-2.199
			c1.757-0.438,3.793,0.06,4.508,2.927c0.944,3.793-1.682,4.668-2.769,4.939c-2.493,0.623-3.643-1.031-4.048-2.061L2766.467,291.179
			z"/>
		<path fill-rule="evenodd" clip-rule="evenodd" d="M2779.922,279.297l3.697-0.922l3.03,12.163l2.173-0.541l-4.033-16.187
			l-1.526,0.381c0.208,1.815-1.196,3.368-3.14,3.854l-0.481,0.119L2779.922,279.297z"/>
		<path fill-rule="evenodd" clip-rule="evenodd" d="M2790.832,274.636c0.306,1.226,1.548,1.971,2.771,1.667
			c1.227-0.306,1.971-1.548,1.666-2.773c-0.306-1.226-1.547-1.973-2.772-1.667C2791.274,272.167,2790.526,273.41,2790.832,274.636z
			 M2791.895,274.37c-0.156-0.622,0.242-1.287,0.866-1.443c0.626-0.156,1.29,0.244,1.446,0.866c0.155,0.625-0.244,1.29-0.869,1.446
			C2792.714,275.394,2792.049,274.995,2791.895,274.37z"/>
	</g>
	<g>
		<polygon fill-rule="evenodd" clip-rule="evenodd" points="3055.502,773.296 3055.911,774.717 3060.923,773.279 3062.361,778.296 
			3063.779,777.89 3062.343,772.871 3067.355,771.434 3066.948,770.013 3061.937,771.452 3060.498,766.434 3059.078,766.842 
			3060.515,771.859 		"/>
		<path fill-rule="evenodd" clip-rule="evenodd" d="M3070.286,765.656l3.661-1.052l3.453,12.051l2.152-0.618l-4.595-16.036
			l-1.514,0.434c0.271,1.807-1.077,3.408-3.001,3.96l-0.479,0.138L3070.286,765.656z"/>
		<path fill-rule="evenodd" clip-rule="evenodd" d="M3092.6,758.822c-1.8-3.695-5.223-2.839-6.114-2.583
			c-1.417,0.406-6.004,1.872-3.548,10.439c1.843,6.437,4.597,7.656,8.12,6.645c3.48-1,4.824-3.915,3.873-7.236
			c-0.978-3.412-3.762-4.746-6.693-3.905c-1.464,0.421-2.843,1.313-3.428,2.818l-0.047,0.013c-0.744-2.513-1.149-6.09,2.192-7.049
			c0.64-0.184,2.547-0.706,3.722,1.41L3092.6,758.822z M3085.97,768.708c-0.628-2.198,0.221-4.078,2.462-4.722
			c2.267-0.65,3.869,0.699,4.432,2.67c0.577,2.015,0.152,4.245-2.206,4.922C3088.208,772.281,3086.542,770.701,3085.97,768.708z"/>
		<path fill-rule="evenodd" clip-rule="evenodd" d="M3094.453,756.898c0.346,1.214,1.611,1.915,2.823,1.568
			c1.215-0.348,1.918-1.615,1.57-2.829c-0.35-1.215-1.617-1.918-2.829-1.57C3094.804,754.417,3094.104,755.684,3094.453,756.898z
			 M3095.504,756.596c-0.178-0.62,0.196-1.297,0.815-1.476c0.616-0.176,1.297,0.2,1.473,0.819c0.176,0.617-0.199,1.296-0.817,1.472
			C3096.357,757.589,3095.681,757.213,3095.504,756.596z"/>
	</g>
	<g>
		<polygon fill-rule="evenodd" clip-rule="evenodd" points="3063.25,1808.2 3064.4,1809.128 3067.683,1805.075 3071.733,1808.359 
			3072.666,1807.209 3068.61,1803.925 3071.891,1799.871 3070.746,1798.938 3067.464,1802.996 3063.409,1799.711 3062.482,1800.86 
			3066.534,1804.145 		"/>
		<path fill-rule="evenodd" clip-rule="evenodd" d="M3070.974,1793.448l2.397-2.964l9.736,7.891l1.407-1.741l-12.954-10.497
			l-0.989,1.223c1.255,1.326,1.071,3.411-0.189,4.967l-0.313,0.389L3070.974,1793.448z"/>
		<path fill-rule="evenodd" clip-rule="evenodd" d="M3085.336,1775.038c-3.598-1.994-5.907,0.671-6.493,1.394
			c-0.928,1.148-3.845,4.979,3.077,10.587c5.199,4.217,8.152,3.634,10.461,0.781c2.276-2.813,1.707-5.974-0.978-8.148
			c-2.755-2.233-5.799-1.729-7.72,0.644c-0.957,1.185-1.576,2.707-1.191,4.276l-0.029,0.036c-2.052-1.631-4.437-4.328-2.244-7.032
			c0.417-0.518,1.678-2.042,3.856-0.982L3085.336,1775.038z M3085.57,1786.942c-1.775-1.44-2.161-3.465-0.691-5.282
			c1.484-1.833,3.569-1.646,5.159-0.355c1.63,1.319,2.557,3.39,1.015,5.297C3089.45,1788.583,3087.178,1788.245,3085.57,1786.942z"
			/>
		<path fill-rule="evenodd" clip-rule="evenodd" d="M3085.74,1772.394c0.98,0.795,2.42,0.642,3.215-0.339
			c0.794-0.981,0.644-2.423-0.337-3.218c-0.981-0.795-2.421-0.645-3.215,0.339
			C3084.609,1770.158,3084.757,1771.598,3085.74,1772.394z M3086.427,1771.542c-0.498-0.407-0.58-1.178-0.176-1.677
			s1.177-0.58,1.676-0.177c0.499,0.405,0.581,1.177,0.176,1.675C3087.701,1771.866,3086.93,1771.948,3086.427,1771.542z"/>
	</g>
	<g>
		
			<rect x="1371.872" y="748.499" transform="matrix(-0.9998 -0.0175 0.0175 -0.9998 2736.7224 1522.939)" fill-rule="evenodd" clip-rule="evenodd" width="6.287" height="2.027"/>
		<path fill-rule="evenodd" clip-rule="evenodd" d="M1383.327,743.496l3.809,0.066l-0.218,12.534l2.239,0.039l0.291-16.679
			l-1.571-0.027c-0.269,1.807-2.03,2.943-4.027,2.908l-0.501-0.008L1383.327,743.496z"/>
		<path fill-rule="evenodd" clip-rule="evenodd" d="M1406.614,754.557l-8.808-0.153c0.329-1.21,1.275-2.194,3.563-3.584
			c3.923-2.411,5.417-3.386,5.472-6.508c0.056-3.193-2.078-5.088-5.482-5.148c-5.073-0.089-5.78,3.713-5.807,5.213l-0.009,0.5
			l2.189,0.04l0.011-0.62c0.034-1.979,1.391-3.29,3.509-3.252c2.002,0.035,3.339,1.179,3.303,3.252
			c-0.045,2.55-2.085,3.587-3.483,4.443c-3.273,1.994-5.729,3.477-5.776,7.503l11.287,0.197L1406.614,754.557z"/>
		<path fill-rule="evenodd" clip-rule="evenodd" d="M1408.996,742.061c-0.022,1.264,0.985,2.305,2.246,2.328
			c1.263,0.021,2.303-0.984,2.325-2.248c0.021-1.263-0.983-2.306-2.246-2.328C1410.061,739.791,1409.018,740.798,1408.996,742.061z
			 M1410.091,742.081c0.012-0.643,0.569-1.182,1.21-1.171c0.645,0.012,1.183,0.569,1.172,1.211
			c-0.012,0.644-0.569,1.183-1.213,1.171C1410.619,743.281,1410.081,742.723,1410.091,742.081z"/>
	</g>
	<g>
		<polygon fill-rule="evenodd" clip-rule="evenodd" points="386.745,1839.095 387.151,1840.515 392.164,1839.078 393.602,1844.092 
			395.021,1843.688 393.584,1838.672 398.597,1837.232 398.189,1835.81 393.176,1837.249 391.739,1832.232 390.32,1832.64 
			391.758,1837.657 		"/>
		<path fill-rule="evenodd" clip-rule="evenodd" d="M401.512,1831.403l3.663-1.05l3.452,12.051l2.151-0.617l-4.594-16.037
			l-1.511,0.434c0.27,1.807-1.078,3.409-3.001,3.961l-0.48,0.139L401.512,1831.403z"/>
		<path fill-rule="evenodd" clip-rule="evenodd" d="M423.817,1824.524c-1.802-3.697-5.223-2.84-6.117-2.584
			c-1.418,0.407-6.001,1.872-3.549,10.438c1.845,6.44,4.597,7.656,8.123,6.646c3.479-0.997,4.824-3.914,3.871-7.233
			c-0.978-3.414-3.761-4.747-6.692-3.906c-1.465,0.421-2.844,1.312-3.429,2.817l-0.045,0.015c-0.744-2.515-1.15-6.093,2.192-7.05
			c0.641-0.185,2.547-0.707,3.723,1.409L423.817,1824.524z M417.187,1834.408c-0.631-2.198,0.218-4.077,2.461-4.723
			c2.267-0.647,3.867,0.703,4.431,2.672c0.578,2.016,0.151,4.245-2.207,4.921C419.423,1837.981,417.757,1836.403,417.187,1834.408z"
			/>
		<path fill-rule="evenodd" clip-rule="evenodd" d="M425.653,1822.551c0.347,1.214,1.615,1.917,2.827,1.568
			c1.213-0.349,1.917-1.615,1.567-2.829c-0.348-1.216-1.615-1.918-2.826-1.569C426.007,1820.069,425.306,1821.335,425.653,1822.551z
			 M426.707,1822.248c-0.177-0.617,0.198-1.297,0.816-1.473c0.617-0.178,1.296,0.199,1.473,0.816
			c0.176,0.619-0.199,1.296-0.818,1.476C427.561,1823.244,426.882,1822.868,426.707,1822.248z"/>
	</g>
	<g>
		<path fill-rule="evenodd" clip-rule="evenodd" d="M547.428,2256.924c1.24,0,5.835-0.286,5.835-8.843
			c0-8.554-4.595-8.839-5.835-8.839c-1.237,0-5.832,0.285-5.832,8.839C541.596,2256.638,546.191,2256.924,547.428,2256.924z
			 M547.428,2255.042c-2.69,0-3.619-3.17-3.619-6.961c0-3.787,0.929-6.956,3.619-6.956s3.62,3.169,3.62,6.956
			C551.048,2251.873,550.119,2255.042,547.428,2255.042z"/>
		<path fill-rule="evenodd" clip-rule="evenodd" d="M555.332,2242.007c0,1.261,1.023,2.287,2.287,2.287
			c1.263,0,2.286-1.026,2.286-2.287c0-1.264-1.023-2.288-2.286-2.288C556.355,2239.719,555.332,2240.744,555.332,2242.007z
			 M556.428,2242.007c0-0.645,0.548-1.192,1.19-1.192c0.641,0,1.192,0.548,1.192,1.192s-0.551,1.19-1.192,1.19
			C556.977,2243.198,556.428,2242.652,556.428,2242.007z"/>
	</g>
	<g>
		<path fill-rule="evenodd" clip-rule="evenodd" d="M1287.185,2096.238c1.24,0,5.835-0.286,5.835-8.842
			c0-8.555-4.595-8.841-5.835-8.841c-1.237,0-5.833,0.286-5.833,8.841C1281.352,2095.952,1285.948,2096.238,1287.185,2096.238z
			 M1287.185,2094.357c-2.69,0-3.619-3.171-3.619-6.961c0-3.788,0.929-6.956,3.619-6.956c2.69,0,3.62,3.168,3.62,6.956
			C1290.804,2091.186,1289.875,2094.357,1287.185,2094.357z"/>
		<path fill-rule="evenodd" clip-rule="evenodd" d="M1295.089,2081.321c0,1.261,1.023,2.287,2.286,2.287
			c1.264,0,2.286-1.026,2.286-2.287c0-1.263-1.022-2.288-2.286-2.288C1296.112,2079.033,1295.089,2080.058,1295.089,2081.321z
			 M1296.185,2081.321c0-0.645,0.548-1.191,1.19-1.191c0.642,0,1.193,0.547,1.193,1.191s-0.551,1.189-1.193,1.189
			C1296.733,2082.51,1296.185,2081.965,1296.185,2081.321z"/>
	</g>
	<g>
		
			<rect x="1710.335" y="2258.701" transform="matrix(-0.9994 0.0348 -0.0348 -0.9994 3504.5713 4458.4189)" fill-rule="evenodd" clip-rule="evenodd" width="6.285" height="2.028"/>
		<path fill-rule="evenodd" clip-rule="evenodd" d="M1719.581,2260.809c0.149,2.238,1.173,5.541,6.026,5.371
			c3.305-0.117,5.667-2.081,5.556-5.344c-0.088-2.527-1.665-3.925-3.361-4.104l-0.003-0.048c1.58-0.51,2.673-1.954,2.608-3.789
			c-0.044-1.31-0.799-4.548-5.442-4.387c-5.091,0.178-5.258,4.309-5.185,5.761l2.072-0.072c-0.152-3.667,2.319-3.873,3.104-3.9
			c2.62-0.09,3.341,1.459,3.385,2.768c0.099,2.857-2.826,2.984-3.541,3.009l-0.665,0.022l0.062,1.813l1.714-0.062
			c1.855-0.065,3.086,1.062,3.15,2.896c0.038,1.071-0.211,3.535-3.661,3.657c-2.927,0.102-3.441-2.338-3.587-3.118
			c-0.029-0.191-0.062-0.356-0.091-0.545L1719.581,2260.809z"/>
		<path fill-rule="evenodd" clip-rule="evenodd" d="M1745.298,2263.119l-8.807,0.307c0.27-1.225,1.161-2.259,3.373-3.767
			c3.792-2.611,5.232-3.663,5.123-6.783c-0.111-3.191-2.341-4.974-5.744-4.855c-5.07,0.178-5.578,4.01-5.528,5.513l0.018,0.5
			l2.189-0.078l-0.02-0.621c-0.067-1.976,1.215-3.355,3.335-3.428c1.999-0.071,3.394,1.001,3.467,3.073
			c0.088,2.547-1.897,3.691-3.247,4.621c-3.166,2.16-5.54,3.77-5.375,7.795l11.28-0.395L1745.298,2263.119z"/>
		<path fill-rule="evenodd" clip-rule="evenodd" d="M1747.024,2250.525c0.044,1.263,1.102,2.252,2.365,2.208
			c1.26-0.043,2.248-1.105,2.204-2.366c-0.044-1.263-1.102-2.252-2.366-2.206C1747.967,2248.204,1746.98,2249.263,1747.024,2250.525
			z M1748.12,2250.488c-0.023-0.643,0.504-1.208,1.148-1.231c0.642-0.023,1.208,0.506,1.231,1.148
			c0.021,0.642-0.507,1.21-1.149,1.232C1748.706,2251.661,1748.14,2251.131,1748.12,2250.488z"/>
	</g>
	<g>
		
			<rect x="363.852" y="186.992" transform="matrix(-0.951 -0.3091 0.3091 -0.951 657.9161 480.2315)" fill-rule="evenodd" clip-rule="evenodd" width="6.286" height="2.026"/>
		<path fill-rule="evenodd" clip-rule="evenodd" d="M379.072,194.575l-1.192,3.673l2.129,0.692l1.192-3.672l2.489,0.81l0.581-1.79
			l-2.489-0.809l3.378-10.404l-2.152-0.7l-10.828,7.981l-0.581,1.79L379.072,194.575z M374.218,191.019l7.908-5.848l-2.472,7.616
			L374.218,191.019z"/>
		<path fill-rule="evenodd" clip-rule="evenodd" d="M392.32,198.884l-1.192,3.672l2.127,0.691l1.192-3.672l2.492,0.809l0.581-1.789
			l-2.491-0.811l3.378-10.403l-2.15-0.697l-10.831,7.98l-0.581,1.788L392.32,198.884z M387.466,195.326l7.908-5.848l-2.473,7.617
			L387.466,195.326z"/>
		<path fill-rule="evenodd" clip-rule="evenodd" d="M401.667,190.822c-0.39,1.203,0.27,2.493,1.468,2.884
			c1.201,0.391,2.49-0.268,2.88-1.469c0.39-1.202-0.266-2.492-1.468-2.884C403.349,188.963,402.057,189.622,401.667,190.822z
			 M402.709,191.162c0.198-0.611,0.889-0.964,1.5-0.765c0.613,0.2,0.966,0.89,0.767,1.501c-0.199,0.612-0.89,0.963-1.503,0.764
			C402.863,192.464,402.51,191.773,402.709,191.162z"/>
	</g>
</g>
</svg>
