<?xml version="1.0" encoding="utf-8"?>
<!-- Generator: Adobe Illustrator 16.0.3, SVG Export Plug-In . SVG Version: 6.00 Build 0)  -->
<!DOCTYPE svg PUBLIC "-//W3C//DTD SVG 1.1//EN" "http://www.w3.org/Graphics/SVG/1.1/DTD/svg11.dtd">
<svg version="1.1" id="ОТКРЫТИЯ" xmlns="http://www.w3.org/2000/svg" xmlns:xlink="http://www.w3.org/1999/xlink" x="0px"
	 y="0px" width="3646.566px" height="2372.037px" viewBox="0 0 3646.566 2372.037" enable-background="new 0 0 3646.566 2372.037"
	 xml:space="preserve">
<g id="Васко_да_Гама">
	<path fill="none" stroke="#0A50A1" stroke-width="4.5354" stroke-linejoin="round" stroke-miterlimit="3.8637" d="
		M1262.162,890.893c0,0-41.031,39.592-48.092,52.968c-9.356,17.721-32.53,52.258-25.986,89.954
		c3.843,22.136,9.951,72.593,7.651,111.256"/>
	<polygon fill="#0A50A1" stroke="#0A50A1" stroke-width="4.5354" stroke-miterlimit="3.8637" points="1195.889,1142.488 
		1193.366,1140.99 1195.685,1147.768 1198.813,1141.008 	"/>
	<g>
		<path fill-rule="evenodd" clip-rule="evenodd" fill="#0A50A1" d="M1270.347,1556.896l-6.489,14.477l6.464,2.599
			c4.346,1.747,6.331,0.251,7.267-1.838c1.159-2.585-0.423-4.174-1.597-4.89l0.029-0.062c1.551,0.331,3.25-0.524,3.944-2.075
			c0.76-1.696,0.799-4.023-2.913-5.516L1270.347,1556.896z M1271.667,1559.354l4.192,1.686c2.577,1.037,2.287,2.604,1.916,3.432
			c-0.537,1.199-1.752,1.955-4.002,1.052l-4.126-1.659L1271.667,1559.354z M1268.915,1565.498l4.257,1.711
			c2.14,0.861,3.229,2.055,2.395,3.916c-1.057,2.358-3.246,1.722-4.666,1.151l-4.258-1.712L1268.915,1565.498z"/>
		<path fill-rule="evenodd" clip-rule="evenodd" fill="#0A50A1" d="M1282.517,1574.211l6.639,2.166l0.082,4.327l2.266,0.739
			l-0.537-16.81l-2.244-0.73l-11.351,12.932l2.266,0.739L1282.517,1574.211z M1283.71,1572.724l5.401-6.437l0.072,8.221
			L1283.71,1572.724z"/>
		<path fill-rule="evenodd" clip-rule="evenodd" fill="#0A50A1" d="M1306.347,1580.072c-0.791,2.123-3.099,3.226-5.652,2.531
			c-3.376-0.916-4.614-4.08-3.548-7.601c1-3.305,3.216-6.139,7.207-5.055c3.649,0.99,3.65,3.515,3.437,4.626l2.144,0.582
			c0.443-2.357,0.022-5.534-5.063-6.914c-1.346-0.366-7.598-1.807-10.03,6.228c-1.465,4.838,0.503,8.527,5.246,9.816
			c5.108,1.387,7.471-1.524,8.405-3.632L1306.347,1580.072z"/>
		<polygon fill-rule="evenodd" clip-rule="evenodd" fill="#0A50A1" points="1314.472,1578.585 1316.302,1571.631 1314.139,1571.121 
			1310.121,1586.381 1312.286,1586.891 1314.38,1578.935 1319.858,1588.679 1322.689,1589.348 1316.676,1579.222 1326.201,1573.969 
			1323.553,1573.344 		"/>
		<path fill-rule="evenodd" clip-rule="evenodd" fill="#0A50A1" d="M1325.485,1581.717c-1.656,8.072,5.027,9.417,6.099,9.614
			c1.001,0.184,7.8,1.32,9.458-6.751c1.29-6.286-2.466-8.945-6.099-9.614C1330.402,1574.131,1326.595,1576.313,1325.485,1581.717z
			 M1327.814,1582.146c0.348-1.698,1.788-6.355,6.771-5.438c3.75,0.69,4.875,3.805,4.127,7.443c-1.276,6.22-5.629,5.647-6.771,5.437
			C1327.285,1588.732,1327.303,1584.638,1327.814,1582.146z"/>
		<path fill-rule="evenodd" clip-rule="evenodd" fill="#0A50A1" d="M1361.336,1593.55l2.051-13.816l-10.054-1.338l-0.476,3.203
			c-0.86,5.807-2.908,8.621-4.699,10.197l-1.48-0.197l-0.595,5.298l1.926,0.257l0.522-3.515l12.779,1.7l-0.522,3.516l1.926,0.256
			l0.995-5.244L1361.336,1593.55z M1360.918,1581.197l-1.789,12.06l-8.339-1.109c2.557-2.7,3.596-5.67,4.204-9.765l0.287-1.936
			L1360.918,1581.197z"/>
		<path fill-rule="evenodd" clip-rule="evenodd" fill="#0A50A1" d="M1368.13,1591.971l6.983,0.694l1.109,4.2l2.382,0.237
			l-4.517-16.264l-2.358-0.234l-7.988,15.019l2.383,0.237L1368.13,1591.971z M1368.939,1590.267l3.733-7.422l2.023,7.995
			L1368.939,1590.267z"/>
		<polygon fill-rule="evenodd" clip-rule="evenodd" fill="#0A50A1" points="1389.399,1583.987 1397.73,1584.54 1397.861,1582.768 
			1387.306,1582.069 1386.147,1597.758 1388.372,1597.906 		"/>
		<path fill-rule="evenodd" clip-rule="evenodd" fill="#0A50A1" d="M1398.542,1594.464l7.012,0.348l1.339,4.138l2.393,0.119
			l-5.409-16.017l-2.369-0.118l-7.146,15.394l2.392,0.119L1398.542,1594.464z M1399.257,1592.722l3.318-7.598l2.462,7.884
			L1399.257,1592.722z"/>
		<polygon fill-rule="evenodd" clip-rule="evenodd" fill="#0A50A1" points="1419.002,1599.583 1420.804,1599.642 1426.672,1586.617 
			1426.743,1586.62 1426.673,1587.224 1426.209,1599.821 1428.438,1599.895 1429.018,1584.176 1425.675,1584.066 1420.005,1596.828 
			1415.291,1583.723 1411.948,1583.612 1411.369,1599.331 1413.596,1599.404 1414.062,1586.806 1414.036,1586.2 1414.083,1586.202 
					"/>
		<path fill-rule="evenodd" clip-rule="evenodd" fill="#0A50A1" d="M1434.557,1595.891l7.021,0.116l1.49,4.093l2.396,0.04
			l-5.996-15.83l-2.372-0.038l-6.576,15.62l2.396,0.04L1434.557,1595.891z M1435.206,1594.127l3.037-7.702l2.751,7.797
			L1435.206,1594.127z"/>
		<path fill-rule="evenodd" clip-rule="evenodd" fill="#0A50A1" d="M1453.885,1588.166l3.794-0.063l0.219,11.817l2.229-0.037
			l-0.29-15.726l-1.566,0.026c-0.205,1.711-1.917,2.84-3.909,2.873l-0.498,0.008L1453.885,1588.166z"/>
		<path fill-rule="evenodd" clip-rule="evenodd" fill="#0A50A1" d="M1473.107,1595.962l0.134,3.638l2.229-0.073l-0.134-3.639
			l2.607-0.086l-0.065-1.773l-2.607,0.087l-0.381-10.307l-2.252,0.075l-7.419,10.563l0.065,1.774L1473.107,1595.962z
			 M1467.351,1594.377l5.412-7.732l0.279,7.543L1467.351,1594.377z"/>
		<path fill-rule="evenodd" clip-rule="evenodd" fill="#0A50A1" d="M1479.953,1595.945c0.921,3.778,4.434,3.717,5.358,3.67
			c2.583-0.127,6.196-1.364,5.781-8.836c-0.396-7.156-3.552-7.968-6.395-7.827c-3.601,0.179-5.559,2.57-5.378,5.825
			c0.185,3.342,2.589,5.158,5.622,5.008c1.516-0.076,3.055-0.603,3.958-1.861l0.047-0.002c0.161,2.466-0.247,5.839-3.705,6.01
			c-0.664,0.033-2.631,0.109-3.298-2.086L1479.953,1595.945z M1488.602,1588.27c0.119,2.154-1.125,3.701-3.447,3.816
			c-2.345,0.116-3.596-1.464-3.704-3.394c-0.11-1.975,0.804-3.932,3.245-4.054C1487.23,1584.513,1488.494,1586.318,1488.602,1588.27
			z"/>
		<path fill-rule="evenodd" clip-rule="evenodd" fill="#0A50A1" d="M1492.413,1584.917l9.916-0.657
			c-1.859,2.195-3.276,4.902-4.106,7.188c-0.949,2.607-1.328,4.885-1.468,7.169l2.367-0.157c0.122-2.846,0.428-4.825,1.289-7.338
			c0.941-2.72,2.041-4.888,4.071-7.341l-0.106-1.434l-12.092,0.8L1492.413,1584.917z"/>
	</g>
	<path fill="none" stroke="#0A50A1" stroke-width="4.5354" stroke-miterlimit="3.8637" d="M1845.959,1279.375
		c0,0,35.597,22.103,82.38,16.074c46.783-6.027,89.498-46.212,104.754-63.291c15.255-17.078,97.635-93.429,116.958-105.485
		c19.323-12.055,45.767-17.079,48.817-9.042c3.051,8.037-24.409,48.222-64.073,82.379"/>
	<polygon fill="#0A50A1" stroke="#0A50A1" stroke-width="4.5354" stroke-miterlimit="3.8637" points="2134.795,1200.01 
		2134.167,1197.254 2130.665,1203.56 2137.956,1200.958 	"/>
	<path fill="none" stroke="#0A50A1" stroke-width="4.5354" stroke-linejoin="round" stroke-miterlimit="3.8637" d="
		M1669.362,1692.807c0,0,62.646-28.64,100.99-102.796c13.807-26.702,25.922-50.12,27.002-58.303s-4.32-21.479-4.32-27.617
		c0-6.137,5.4-16.365,16.202-20.457c10.801-4.091,29.163-21.479,34.564-27.616c5.4-6.138,12.961-26.595,8.641-49.098
		c-4.32-22.502-22.683-76.714-9.722-114.559"/>
	<polygon fill="#0A50A1" stroke="#0A50A1" stroke-width="4.5354" stroke-miterlimit="3.8637" points="1841.876,1294.823 
		1843.914,1296.879 1843.493,1289.765 1838.651,1295.548 	"/>
	<path fill="none" stroke="#0A50A1" stroke-width="4.5354" stroke-linejoin="round" stroke-miterlimit="3.8637" d="
		M1195.735,1153.254c0,0-4.761,82.218-7.561,92.056c-41.84,147.049-69.127,164.68-63.726,207.639
		c4.779,38.017,32.403,86.942,157.668,134.505c23.669,8.986,110.576,24.165,177.772,19.332c11.874-0.854,97.383-5.134,110.576-5.639
		c10.328-0.396,25.218,33.743,27.07,50.235c5.401,48.074,41.391,49.389,66.427,42.96"/>
	<polygon fill="#0A50A1" stroke="#0A50A1" stroke-width="4.5354" stroke-miterlimit="3.8637" points="1661.325,1695.019 
		1660.621,1697.759 1666.68,1693.536 1658.92,1692.858 	"/>
	<g>
		<path fill-rule="evenodd" clip-rule="evenodd" fill="#0A50A1" d="M1949.783,1278.39l6.374-3.076
			c3.938-1.9,3.033-4.873,2.267-6.297c-0.961-1.785-3.134-2.453-5.021-1.796l-0.086-0.159c0.822-0.752,1.651-2.188,0.551-4.232
			c-1.662-3.088-5.031-1.664-6.979-0.725l-4.657,2.248L1949.783,1278.39z M1945.159,1265.037l3.008-1.451
			c2.223-1.072,3.194-0.455,3.82,0.707c0.853,1.584,0,2.627-2.097,3.639l-2.52,1.216L1945.159,1265.037z M1948.266,1270.811
			l2.711-1.308c0.932-0.449,3.906-1.961,5.244,0.526c0.819,1.523,0.438,2.946-2.188,4.213l-3.113,1.502L1948.266,1270.811z"/>
		<path fill-rule="evenodd" clip-rule="evenodd" fill="#0A50A1" d="M1963.532,1266.867l6.61-3.47l3.624,2.987l2.203-1.156
			l-14.114-10.604l-1.788,0.938l2.018,16.954l2.203-1.156L1963.532,1266.867z M1968.395,1262.178l-5.029,2.64l-1.011-7.343
			L1968.395,1262.178z"/>
		<path fill-rule="evenodd" clip-rule="evenodd" fill="#0A50A1" d="M1980.402,1245.75c-1.839-0.451-3.853,0.023-5.565,1.037
			c-2.822,1.67-5.072,5.734-1.872,10.582c2.567,3.894,6.979,5.822,11.313,3.258c2.056-1.217,3.042-3.206,3.198-5.05l-2.016-0.294
			c-0.271,1.46-0.816,2.925-2.087,3.676c-2.257,1.336-5.587,1.343-8.346-2.837c-1.952-2.958-1.946-6.093,0.633-7.62
			c1.452-0.858,2.673-1.131,4.699-0.949L1980.402,1245.75z"/>
		<path fill-rule="evenodd" clip-rule="evenodd" fill="#0A50A1" d="M1988.577,1248.481c0.116-0.077,0.215-0.143,0.33-0.22
			c1.285-0.852,2.137-1.389,6.414,0.748c3.524,1.784,4.418,1.658,5.703,0.807c0.234-0.155,0.42-0.334,0.627-0.525l-1.037-1.401
			c-0.117,0.078-0.213,0.143-0.329,0.22c-0.904,0.544-0.965,0.227-5.282-1.69c-1.547-0.678-2.824-1.149-4.461-0.421l-0.041-0.056
			c2.472-3.288-0.956-6.511,1.05-7.84c0.097-0.065,0.175-0.116,0.286-0.162l-1.036-1.401c-0.131,0.06-0.241,0.105-0.358,0.183
			c-1.635,1.084-1.727,2.491-1.453,4.783c0.382,3.263,0.454,4.067-1.232,5.24c-0.097,0.064-0.214,0.142-0.311,0.206l-3.871-5.235
			l-1.869,1.239l9.541,12.904l1.869-1.239L1988.577,1248.481z"/>
		<path fill-rule="evenodd" clip-rule="evenodd" fill="#0A50A1" d="M1997.891,1241.865c0.568,0.664,2.373,2.668,4.728,3.383
			c2.96,0.887,5.179-0.381,6.601-1.472c1.404-1.076,3.193-2.883,2.875-5.795c-0.1-0.938-0.475-2.735-2.494-5.096
			c-2.02-2.361-3.797-3.083-4.745-3.369c-2.942-0.901-5.18,0.38-6.583,1.457c-1.422,1.091-3.193,2.883-2.893,5.809
			C1995.628,1239.111,1997.323,1241.2,1997.891,1241.865z M1999.749,1240.353c-0.763-0.892-4.077-4.982-0.254-7.914
			c3.417-2.621,6.723,0.174,8.203,1.904c1.48,1.732,3.679,5.375,0.262,7.995C2005.411,1244.293,2002.411,1243.466,1999.749,1240.353
			z"/>
		<path fill-rule="evenodd" clip-rule="evenodd" fill="#0A50A1" d="M2019.125,1232.69l4.168,3.946l1.613-1.527l-2.772-2.625
			l7.511-7.114l2.773,2.626l1.613-1.528l-4.167-3.946l-1.445,1.368l-10.37-9.818l-6.184,5.856c1.832,1.734,3.411,3.262,5.042,5.315
			c1.261,1.575,3.009,4.312,3.597,6.143L2019.125,1232.69z M2017.832,1216.919l8.975,8.498l-4.638,4.392
			c-0.808-2.991-4.555-7.559-7.295-10.089L2017.832,1216.919z"/>
		<path fill-rule="evenodd" clip-rule="evenodd" fill="#0A50A1" d="M2031.761,1217.397l5.344-5.061l4.353,1.926l1.782-1.688
			l-16.654-6.509l-1.445,1.369l6.873,15.771l1.782-1.687L2031.761,1217.397z M2035.073,1211.62l-4.067,3.852l-3.108-6.795
			L2035.073,1211.62z"/>
		<polygon fill-rule="evenodd" clip-rule="evenodd" fill="#0A50A1" points="2049.27,1187.847 2047.899,1186.503 2041.198,1192.631 
			2052.754,1203.964 2054.395,1202.463 2044.209,1192.474 		"/>
		<path fill-rule="evenodd" clip-rule="evenodd" fill="#0A50A1" d="M2060,1191.309l5.437-4.971l4.315,1.997l1.813-1.657
			l-16.531-6.783l-1.47,1.344l6.581,15.882l1.812-1.658L2060,1191.309z M2063.417,1185.587l-4.138,3.784l-2.983-6.846
			L2063.417,1185.587z"/>
		<polygon fill-rule="evenodd" clip-rule="evenodd" fill="#0A50A1" points="2075.706,1178.659 2076.801,1177.659 2072.479,1167.719 
			2081.989,1177.044 2083.629,1175.543 2072.073,1164.21 2069.817,1166.274 2074.042,1175.958 2063.937,1171.652 2061.663,1173.731 
			2073.219,1185.064 2074.86,1183.563 2065.35,1174.238 		"/>
		<path fill-rule="evenodd" clip-rule="evenodd" fill="#0A50A1" d="M2085.164,1168.142l5.437-4.971l4.316,1.997l1.812-1.657
			l-16.532-6.784l-1.47,1.344l6.582,15.882l1.812-1.657L2085.164,1168.142z M2088.579,1162.42l-4.137,3.784l-2.982-6.846
			L2088.579,1162.42z"/>
		<path fill-rule="evenodd" clip-rule="evenodd" fill="#0A50A1" d="M2097.005,1146.464l8.866,8.693l1.589-1.454l-11.556-11.333
			l-1.215,1.11c0.614,1.347,0.246,3.999-0.129,5.218l1.807,0.444C2096.754,1148.227,2096.799,1147.591,2097.005,1146.464z"/>
		<path fill-rule="evenodd" clip-rule="evenodd" fill="#0A50A1" d="M2113.217,1143.835l2.459,2.412l1.59-1.454l-2.46-2.412
			l1.043-0.954l-1.321-1.295l-1.042,0.954l-7.776-7.625l-1.453,1.329l2.801,12.175l1.321,1.295L2113.217,1143.835z
			 M2111.895,1142.54l-3.487,3.189l-2.075-8.646L2111.895,1142.54z"/>
		<path fill-rule="evenodd" clip-rule="evenodd" fill="#0A50A1" d="M2120.084,1132.835c0.146,0.148,0.291,0.296,0.438,0.444
			c0.971,1.051,3.182,3.991,1.496,5.48c-0.869,0.767-1.504,0.651-2.76,0.498l-0.431,1.642c2.311,0.729,3.708-0.228,4.508-0.934
			c2.434-2.148,0.928-6.02-2.459-9.46c-5.382-5.465-8.346-3.524-9.317-2.665c-2.19,1.934-1.803,4.638,0.612,7.09
			c2.317,2.354,5.016,2.587,6.841,0.975C2119.413,1135.552,2120.235,1134.672,2120.084,1132.835z M2117.945,1134.293
			c-0.729,0.645-2.161,1.139-4.364-1.1c-0.957-0.971-2.35-2.881-0.854-4.2c1.339-1.182,3.034-0.218,4.348,1.115
			C2119.003,1132.067,2118.954,1133.403,2117.945,1134.293z"/>
		<path fill-rule="evenodd" clip-rule="evenodd" fill="#0A50A1" d="M2124.67,1126.487c-0.817,1.696-0.549,3.224,0.979,4.829
			c0.731,0.77,3.584,3.365,6.903,0.534c2.401-2.048,2.085-4.534,0.161-6.558c-0.922-0.97-2.552-2.247-4.969-1.426
			c0.416-0.84,0.821-2.397-0.562-3.853c-1.511-1.589-3.939-2.395-6.271-0.407c-2.314,1.973-1.722,4.346-0.211,5.934
			C2121.704,1126.595,2123.214,1126.973,2124.67,1126.487z M2126.94,1125.946c0.635-0.542,2.106-1.282,4.094,0.809
			c2.02,2.124,0.869,3.469,0.374,3.891c-0.743,0.633-2.266,1.114-4.048-0.758C2125.372,1127.797,2126.374,1126.429,2126.94,1125.946
			z M2122.12,1120.879c0.425-0.362,1.615-1.195,3.238,0.511c0.938,0.987,1.506,2.258,0.342,3.252
			c-1.131,0.964-2.442,0.325-3.38-0.661C2121.46,1123.077,2121.007,1121.827,2122.12,1120.879z"/>
	</g>
	<path fill="none" stroke="#0A50A1" stroke-width="4.5354" stroke-linejoin="round" stroke-miterlimit="3.8637" d="
		M1359.765,730.368c0,0-8.012,56.097-17.135,70.002c-12.905,19.671-34.563,41.937-45.365,54.211c-6.208,7.055-20,21.618-20,21.618"
		/>
	<polygon fill="#0A50A1" stroke="#0A50A1" stroke-width="4.5354" stroke-miterlimit="3.8637" points="1279.09,874.273 
		1278.108,871.611 1275.448,878.275 1282.349,874.848 	"/>
	<g>
		<path fill-rule="evenodd" clip-rule="evenodd" fill="#0A50A1" d="M1928.626,1338.164v12.11h2.215v-15.787h-1.69
			c-0.548,1.376-2.763,3.045-3.93,3.677l0.977,1.511C1927.149,1339.268,1927.651,1338.839,1928.626,1338.164z"/>
		<path fill-rule="evenodd" clip-rule="evenodd" fill="#0A50A1" d="M1942.323,1346.914v3.36h2.215v-3.36h1.453v-1.805h-1.453
			v-10.622h-2.024l-6.93,10.622v1.805H1942.323z M1942.323,1345.109h-4.858l4.858-7.6V1345.109z"/>
		<path fill-rule="evenodd" clip-rule="evenodd" fill="#0A50A1" d="M1955.423,1343.305c0,0.203,0,0.405,0,0.608
			c-0.048,1.398-0.548,4.984-2.857,4.984c-1.19,0-1.571-0.495-2.382-1.42l-1.5,0.925c1.167,2.029,2.882,2.232,3.977,2.232
			c3.334,0,5.025-3.813,5.025-8.525c0-7.487-3.573-7.983-4.906-7.983c-3.001,0-4.668,2.232-4.668,5.593
			c0,3.226,1.811,5.143,4.311,5.143C1952.971,1344.862,1954.209,1344.749,1955.423,1343.305z M1952.804,1342.99
			c-1.001,0-2.405-0.564-2.405-3.631c0-1.331,0.356-3.632,2.405-3.632c1.833,0,2.381,1.805,2.381,3.632
			C1955.185,1342.042,1954.185,1342.99,1952.804,1342.99z"/>
		<path fill-rule="evenodd" clip-rule="evenodd" fill="#0A50A1" d="M1963.329,1341.636c-1.81,0.744-2.69,2.052-2.69,4.217
			c0,1.038,0.286,4.782,4.763,4.782c3.239,0,4.764-2.053,4.764-4.782c0-1.309-0.31-3.292-2.691-4.217
			c0.905-0.36,2.311-1.263,2.311-3.226c0-2.143-1.239-4.284-4.383-4.284c-3.119,0-4.357,2.142-4.357,4.284
			C1961.043,1339.833,1961.901,1341.073,1963.329,1341.636z M1965.401,1342.673c0.858,0,2.478,0.383,2.478,3.203
			c0,2.863-1.811,3.135-2.478,3.135c-1,0-2.477-0.608-2.477-3.135C1962.924,1343.056,1964.639,1342.673,1965.401,1342.673z
			 M1965.401,1335.84c0.571,0,2.048,0.135,2.048,2.436c0,1.331-0.476,2.639-2.048,2.639c-1.523,0-2.048-1.308-2.048-2.639
			C1963.353,1337.057,1963.901,1335.84,1965.401,1335.84z"/>
	</g>
</g>
</svg>
