<?xml version="1.0" encoding="utf-8"?>
<!-- Generator: Adobe Illustrator 16.0.3, SVG Export Plug-In . SVG Version: 6.00 Build 0)  -->
<!DOCTYPE svg PUBLIC "-//W3C//DTD SVG 1.1//EN" "http://www.w3.org/Graphics/SVG/1.1/DTD/svg11.dtd">
<svg version="1.1" id="Grid" xmlns="http://www.w3.org/2000/svg" xmlns:xlink="http://www.w3.org/1999/xlink" x="0px" y="0px"
	 width="3662.169px" height="2311.303px" viewBox="0 0 3662.169 2311.303" enable-background="new 0 0 3662.169 2311.303"
	 xml:space="preserve">
<g id="Сетка">
	<path fill="none" stroke="#000000" stroke-width="1.2964" stroke-linejoin="round" stroke-miterlimit="3.8637" d="M-0.655,185.274
		c4.047-1.512,8.698-1.848,12.864-0.761c10.478,2.727,12.105-13.827,25.787-9.233"/>
	<path fill="none" stroke="#000000" stroke-width="1.0372" stroke-linejoin="round" stroke-miterlimit="3.8637" d="M-2.675,1273.65"
		/>
	<path fill="none" stroke="#000000" stroke-width="1.0372" stroke-linejoin="round" stroke-miterlimit="3.8637" d="M-0.892,2053.711
		c57.272,44.732,173.416,136.361,183.461,145.289c13.018,11.572,89.183,64.48,116.834,82.951
		c14.112,9.428,33.035,21.674,50.436,32.83"/>
	<path fill="none" stroke="#000000" stroke-width="1.0372" stroke-linejoin="round" stroke-miterlimit="3.8637" d="M-1.015,1353.379
		c33.292,38.867,80.789,92.529,88.976,102.025c38.423,44.572,342.102,336.316,491.184,420.848
		c56.421,31.992,208.974,153.672,414.922,227.443c41.983,15.039,155.306,61.668,179.896,70.713
		c10.734,3.949,106.418,33.932,119.895,38.473s125.282,33.986,144.374,38.359c33.882,7.762,186.017,43.063,207.547,46.123
		c19.449,2.764,130.398,13.109,169.795,17.34"/>
	<path fill="none" stroke="#000000" stroke-width="1.0372" stroke-linejoin="round" stroke-miterlimit="3.8637" d="
		M3702.317,1065.156c-1.463,1.857-19.861,25.609-21.436,27.578c-59.262,74.131-198.646,226.082-492.094,424.203
		c-44.695,30.176-362.299,228.84-819.021,300.342c-73.404,11.492-262.018,24.59-314.783,23.277s-121.641-2.625-146.232-3.938
		l-26.383-1.955c-189.042-15.369-402.947-68.309-456.466-86.068c-338.124-112.195-511.012-237.955-570.2-273.572
		c-173.673-104.512-414.06-364.666-467.226-428.803C313.677,955.986,192.74,770.71,144.194,676.68
		c0,0-78.383-171.367-81.457-180.589l-5.379-12.295c-16.173-40.91-38.688-105.471-58.087-173.741"/>
	
		<line fill="none" stroke="#000000" stroke-width="1.0372" stroke-linejoin="round" stroke-miterlimit="3.8637" x1="3664.702" y1="99.113" x2="3246.235" y2="-0.556"/>
	
		<line fill="none" stroke="#000000" stroke-width="1.0372" stroke-linejoin="round" stroke-miterlimit="3.8637" x1="3664.813" y1="657.488" x2="2539.114" y2="-0.81"/>
	<polyline fill="none" stroke="#000000" stroke-width="1.0372" stroke-linejoin="round" stroke-miterlimit="3.8637" points="
		3701.547,1039.793 3677.278,1019.178 2406.293,-0.607 	"/>
	<polyline fill="none" stroke="#000000" stroke-width="1.0372" stroke-linejoin="round" stroke-miterlimit="3.8637" points="
		3702.317,1500.922 3678.653,1474.639 2310.454,-0.76 	"/>
	
		<line fill="none" stroke="#000000" stroke-width="1.0372" stroke-linejoin="round" stroke-miterlimit="3.8637" x1="3664.805" y1="2085.672" x2="2244.604" y2="-0.612"/>
	
		<line fill="none" stroke="#000000" stroke-width="1.0372" stroke-linejoin="round" stroke-miterlimit="3.8637" x1="3303.434" y1="2314.814" x2="2188.028" y2="-0.506"/>
	
		<line fill="none" stroke="#000000" stroke-width="1.0372" stroke-linejoin="round" stroke-miterlimit="3.8637" x1="2857.809" y1="2314.773" x2="2139.43" y2="-0.706"/>
	
		<line fill="none" stroke="#000000" stroke-width="1.0372" stroke-linejoin="round" stroke-miterlimit="3.8637" x1="2449.458" y1="2314.846" x2="2092.745" y2="-0.821"/>
	
		<line fill="none" stroke="#000000" stroke-width="1.0372" stroke-linejoin="round" stroke-miterlimit="3.8637" x1="2056.211" y1="2314.145" x2="2050.729" y2="-0.657"/>
	<polyline fill="none" stroke="#000000" stroke-width="1.0372" stroke-linejoin="round" stroke-miterlimit="3.8637" points="
		1653.196,2314.922 1957.831,359.717 2010.657,-0.655 	"/>
	
		<line fill="none" stroke="#000000" stroke-width="1.0372" stroke-linejoin="round" stroke-miterlimit="3.8637" x1="1245.966" y1="2314.764" x2="1968.959" y2="-0.823"/>
	
		<line fill="none" stroke="#000000" stroke-width="1.0372" stroke-linejoin="round" stroke-miterlimit="3.8637" x1="797.163" y1="2314.906" x2="1920.461" y2="-0.725"/>
	
		<line fill="none" stroke="#000000" stroke-width="1.0372" stroke-linejoin="round" stroke-miterlimit="3.8637" x1="277.791" y1="2314.861" x2="1860.95" y2="-0.902"/>
	
		<line fill="none" stroke="#000000" stroke-width="1.0372" stroke-linejoin="round" stroke-miterlimit="3.8637" x1="-1.09" y1="1924.33" x2="1792.65" y2="-0.76"/>
	
		<line fill="none" stroke="#000000" stroke-width="1.0372" stroke-linejoin="round" stroke-miterlimit="3.8637" x1="-1.053" y1="1355.875" x2="1703.063" y2="-1.075"/>
	
		<line fill="none" stroke="#000000" stroke-width="1.0372" stroke-linejoin="round" stroke-miterlimit="3.8637" x1="-0.546" y1="905.555" x2="1569.175" y2="-1.115"/>
	<path fill="none" stroke="#000000" stroke-width="1.0372" stroke-linejoin="round" stroke-miterlimit="3.8637" d="M1459.902-0.668
		c26.974,60.99,158.766,276.349,410.657,344.164c66.041,17.78,201.752,33.092,279.004,17.78
		c50.213-9.954,160.539-33.869,271.658-101.843c18.004-11.013,124.35-78.412,198.123-212.963
		c8.604-15.692,17.428-33.952,23.549-47.029"/>
	
		<line fill="none" stroke="#000000" stroke-width="1.0372" stroke-linejoin="round" stroke-miterlimit="3.8637" x1="-0.873" y1="524.379" x2="1335.931" y2="-1.449"/>
	
		<line fill="none" stroke="#000000" stroke-width="1.0372" stroke-linejoin="round" stroke-miterlimit="3.8637" x1="-0.516" y1="193.153" x2="845.003" y2="-1.458"/>
	
		<path fill="none" stroke="#000000" stroke-width="1.0375" stroke-linejoin="round" stroke-miterlimit="3.8637" stroke-dasharray="14.1732,7.0866" d="
		M769.31-1.409c5.827,32.582,15.319,71.932,28.179,111.79c19.477,60.37,45.936,122.596,70.455,174.902
		c17.789,37.948,38.134,67.544,49.37,89.566c48.215,94.499,151.409,222.283,239.145,302.819
		c23.629,21.689,191.896,161.508,326.444,221.318c43.56,19.363,188.031,85.803,388.622,116.191
		c21.785,3.301,261.803,44.154,568.49-42.611c19.992-5.656,309.242-97.203,505.969-289.291
		c23.709-23.149,214.359-193.011,325.48-475.344c9.482-24.09,44.699-103.031,65.006-208.184"/>
	<path fill="none" stroke="#000000" stroke-width="1.0372" stroke-linejoin="round" stroke-miterlimit="3.8637" d="M439.013-1.611
		c5.446,48.693,29.613,183.223,87.53,319.283c36.737,86.304,123.177,266.485,245.909,419.581
		c60.133,75.01,197.355,222.591,358.104,330.44c93.278,62.582,274.463,147.771,439.561,202.873
		c76.077,25.391,277.226,66.316,487.207,70.699c73.551,1.535,269.113,3.109,479.521-69.162
		c280.244-96.26,597.43-295.33,790.518-526.806c8.564-10.265,176.076-191.475,285.9-539.686
		c14.137-44.823,27.787-99.415,31.553-111.655c3.768-12.24,16.117-83.079,18.941-94.487"/>
	<path fill="none" stroke="#000000" stroke-width="1.0372" stroke-linejoin="round" stroke-miterlimit="3.8637" d="M3160.983-0.272
		c-12.615,57.996-45.277,178.75-117.795,293.81c-19.271,30.577-141.746,234.075-347.752,370.022
		c-25.141,16.591-243.588,188.373-645.396,194.407l-84.221-2.368l-91.396-9.659c-93.532-12.56-213.587-49.182-317.748-99.329
		c-104.16-50.148-295.713-179.635-400.217-317.749c-20.924-27.654-43.837-55.794-65.477-88.445
		c-25.903-39.085-48.308-84.116-70.855-131.238c-30.355-63.44-58.193-132.524-73.687-210.325"/>
	<path fill="none" stroke="#000000" stroke-width="1.0372" stroke-linejoin="round" stroke-miterlimit="3.8637" d="
		M3664.803,1761.396c0,0-133.568,105.498-144.326,113.184c-5.688,4.063-105.059,70.305-199.033,124.49
		c-83.775,48.307-163.035,85.158-171.367,89.143"/>
	
		<line fill="none" stroke="#000000" stroke-width="1.7387" stroke-linejoin="round" stroke-miterlimit="3.8637" x1="3663.485" y1="361.684" x2="2757.704" y2="-0.431"/>
</g>
<g id="Градусы">
	<g>
		<g>
			<path fill-rule="evenodd" clip-rule="evenodd" fill="#FFFFFF" stroke="#000000" d="M3137.579,45.398
				c-0.764,3.308,1.299,6.609,4.607,7.373l13.49,3.114c3.309,0.764,6.609-1.299,7.373-4.607l7.033-30.468
				c0.764-3.312-1.299-6.609-4.607-7.373l-13.49-3.114c-3.307-0.764-6.607,1.297-7.373,4.607L3137.579,45.398z"/>
			<g>
				<path fill-rule="evenodd" clip-rule="evenodd" fill="#C7B2D6" d="M3151.715,52.248c1.689,0.334,4.34,0.233,5.18-3.404
					c0.572-2.478-0.418-4.619-2.857-5.182c-1.891-0.436-3.242,0.454-3.711,1.677l-0.035-0.008c-0.064-1.273-0.916-2.371-2.291-2.688
					c-0.98-0.227-3.533-0.309-4.336,3.167c-0.881,3.814,2.152,4.758,3.24,4.99l0.359-1.55c-2.748-0.616-2.408-2.489-2.273-3.078
					c0.453-1.96,1.744-2.188,2.725-1.961c2.137,0.493,1.65,2.688,1.525,3.224l-0.115,0.5l1.354,0.313l0.297-1.284
					c0.322-1.391,1.402-2.079,2.773-1.763c0.801,0.185,2.58,0.857,1.984,3.443c-0.506,2.192-2.418,2.089-3.025,2.042
					c-0.145-0.015-0.275-0.024-0.422-0.041L3151.715,52.248z"/>
				<path fill-rule="evenodd" clip-rule="evenodd" fill="#C7B2D6" d="M3151.743,38.627c0.045,1.512,1.262,2.676,2.707,3.009
					c2.137,0.493,4.205-0.418,4.873-3.305c0.666-2.888-0.793-4.615-2.932-5.108c-1.445-0.334-3.049,0.181-3.752,1.519
					c-0.146-1.235-1.135-2.157-2.328-2.433c-1.301-0.3-3.52-0.044-4.215,2.969c-0.695,3.011,1.186,4.216,2.488,4.517
					C3149.778,40.069,3151.071,39.673,3151.743,38.627z M3151.604,36.549c-0.371,1.604-1.49,1.983-2.613,1.724
					c-0.641-0.148-2.004-0.744-1.555-2.686c0.447-1.943,1.934-1.881,2.574-1.733C3151.133,34.113,3151.973,34.944,3151.604,36.549z
					 M3157.985,38.021c-0.279,1.213-1.385,2.421-3.256,1.989c-1.033-0.238-2.318-1.099-1.842-3.166
					c0.477-2.068,2.01-2.276,3.043-2.038C3157.801,35.239,3158.266,36.81,3157.985,38.021z"/>
				<path fill-rule="evenodd" clip-rule="evenodd" fill="#C7B2D6" d="M3158.655,30.649l1.943,0.448l0.205-0.891l0.553,0.127
					c0.553,0.127,0.959,0.636,0.9,1.146l0.979,0.226c0-0.732-0.236-1.913-1.678-2.246l-2.494-0.575L3158.655,30.649z"/>
				<path fill-rule="evenodd" clip-rule="evenodd" fill="#C7B2D6" d="M3162.229,17.608l-1.521,6.595
					c-0.857-0.441-1.445-1.31-2.125-3.25c-1.184-3.333-1.678-4.611-4.012-5.15c-2.387-0.551-4.152,0.75-4.74,3.298
					c-0.877,3.797,1.863,4.936,2.986,5.195l0.375,0.086l0.379-1.639l-0.463-0.107c-1.48-0.341-2.246-1.571-1.881-3.158
					c0.346-1.495,1.416-2.319,2.967-1.961c1.906,0.44,2.361,2.141,2.781,3.327c0.973,2.777,1.693,4.859,4.711,5.538l1.951-8.45
					L3162.229,17.608z"/>
			</g>
		</g>
		<g>
			<path fill-rule="evenodd" clip-rule="evenodd" fill="#FFFFFF" stroke="#000000" d="M3621.145,134.831
				c-0.764,3.308,1.299,6.608,4.607,7.371l13.492,3.112c3.309,0.763,6.609-1.3,7.371-4.607l7.031-30.464
				c0.764-3.311-1.301-6.608-4.609-7.371l-13.49-3.112c-3.309-0.763-6.609,1.297-7.373,4.607L3621.145,134.831z"/>
			<g>
				<path fill-rule="evenodd" clip-rule="evenodd" fill="#C7B2D6" d="M3635.913,141.712c1.443,0.182,3.793-0.158,4.537-3.384
					c0.715-3.102-0.91-4.921-3.406-5.497c-2.656-0.612-4.631,0.621-5.162,2.92c-0.264,1.141-0.199,2.093,0.295,3.034l-3.574-1.35
					l1.271-5.507l-1.41-0.325l-1.555,6.735l6.377,2.392l0.363-1.569c-0.615-0.593-0.715-1.872-0.525-2.691
					c0.313-1.355,1.365-2.577,3.576-2.067c2.922,0.674,2.605,2.779,2.412,3.617c-0.443,1.926-1.975,2.135-2.82,2.052
					L3635.913,141.712z"/>
				<path fill-rule="evenodd" clip-rule="evenodd" fill="#C7B2D6" d="M3638.319,131.286c1.443,0.184,3.791-0.157,4.535-3.383
					c0.717-3.1-0.91-4.921-3.404-5.496c-2.656-0.613-4.633,0.621-5.162,2.92c-0.264,1.14-0.201,2.094,0.295,3.034l-3.574-1.35
					l1.271-5.506l-1.41-0.326l-1.555,6.737l6.377,2.39l0.361-1.569c-0.615-0.592-0.713-1.873-0.523-2.691
					c0.313-1.355,1.363-2.576,3.576-2.066c2.922,0.675,2.605,2.779,2.412,3.616c-0.443,1.924-1.975,2.135-2.822,2.053
					L3638.319,131.286z"/>
				<path fill-rule="evenodd" clip-rule="evenodd" fill="#C7B2D6" d="M3642.219,120.082l1.943,0.448l0.205-0.891l0.553,0.128
					c0.553,0.127,0.959,0.636,0.9,1.146l0.98,0.226c-0.002-0.732-0.238-1.912-1.68-2.245l-2.494-0.575L3642.219,120.082z"/>
				<path fill-rule="evenodd" clip-rule="evenodd" fill="#C7B2D6" d="M3639.002,112.046c0.047,1.512,1.262,2.675,2.707,3.008
					c2.139,0.493,4.207-0.418,4.873-3.305s-0.793-4.612-2.932-5.105c-1.445-0.333-3.049,0.178-3.752,1.518
					c-0.146-1.235-1.135-2.158-2.328-2.434c-1.301-0.3-3.521-0.042-4.215,2.97c-0.695,3.012,1.186,4.215,2.488,4.515
					C3637.038,113.488,3638.331,113.092,3639.002,112.046z M3638.864,109.969c-0.371,1.602-1.49,1.983-2.613,1.724
					c-0.641-0.147-2.004-0.744-1.557-2.686c0.449-1.943,1.936-1.882,2.576-1.734
					C3638.393,107.531,3639.233,108.364,3638.864,109.969z M3645.247,111.44c-0.279,1.211-1.385,2.421-3.258,1.989
					c-1.031-0.238-2.318-1.097-1.842-3.165s2.012-2.277,3.043-2.039C3645.063,108.657,3645.526,110.229,3645.247,111.44z"/>
			</g>
		</g>
		<g>
			<path fill-rule="evenodd" clip-rule="evenodd" fill="#FFFFFF" stroke="#000000" d="M3531.083,1233.127
				c-2.484,2.316-2.619,6.207-0.305,8.689l9.443,10.125c2.314,2.482,6.205,2.619,8.689,0.303l22.867-21.324
				c2.486-2.318,2.619-6.207,0.303-8.689l-9.441-10.125c-2.314-2.482-6.203-2.621-8.689-0.303L3531.083,1233.127z"/>
			<g>
				<path fill-rule="evenodd" clip-rule="evenodd" fill="#C7B2D6" d="M3533.801,1241.33l5.605-5.229
					c0.01,2.289,0.547,4.691,1.219,6.539c0.77,2.109,1.709,3.734,2.795,5.25l1.34-1.25c-1.387-1.859-2.217-3.26-2.988-5.268
					c-0.83-2.176-1.281-4.082-1.322-6.621l-0.799-0.855l-6.836,6.375L3533.801,1241.33z"/>
				<path fill-rule="evenodd" clip-rule="evenodd" fill="#C7B2D6" d="M3544.096,1234.105l2.141-1.996l6.561,7.035l1.258-1.172
					l-8.732-9.365l-0.885,0.824c0.816,1.143,0.451,2.707-0.674,3.756l-0.281,0.262L3544.096,1234.105z"/>
				<path fill-rule="evenodd" clip-rule="evenodd" fill="#C7B2D6" d="M3556.803,1232.686l1.359,1.457l0.668-0.623l0.387,0.416
					c0.387,0.414,0.439,1.063,0.105,1.453l0.686,0.734c0.41-0.607,0.873-1.717-0.135-2.799l-1.746-1.873L3556.803,1232.686z"/>
				<path fill-rule="evenodd" clip-rule="evenodd" fill="#C7B2D6" d="M3553.647,1222.822l5.605-5.227
					c0.01,2.289,0.547,4.689,1.219,6.537c0.77,2.111,1.709,3.736,2.795,5.25l1.338-1.246c-1.385-1.861-2.215-3.264-2.986-5.27
					c-0.83-2.178-1.281-4.082-1.322-6.621l-0.799-0.855l-6.836,6.373L3553.647,1222.822z"/>
			</g>
		</g>
		<g>
			<path fill-rule="evenodd" clip-rule="evenodd" fill="#FFFFFF" stroke="#000000" d="M3612.653,1788.701
				c-2.639,2.137-3.047,6.008-0.91,8.646l8.713,10.758c2.137,2.639,6.008,3.047,8.646,0.91l24.301-19.678
				c2.641-2.139,3.045-6.008,0.908-8.646l-8.713-10.76c-2.135-2.639-6.004-3.047-8.646-0.908L3612.653,1788.701z"/>
			<g>
				<path fill-rule="evenodd" clip-rule="evenodd" fill="#C7B2D6" d="M3619.667,1798.818c-0.895,1.219-0.652,2.885,0.281,4.037
					c1.381,1.705,3.572,2.26,5.873,0.396c2.305-1.865,2.217-4.123,0.836-5.828c-0.934-1.152-2.512-1.738-3.891-1.115
					c0.645-1.063,0.434-2.398-0.336-3.352c-0.842-1.037-2.748-2.201-5.15-0.254c-2.402,1.943-1.662,4.051-0.82,5.09
					C3617.229,1798.744,3618.493,1799.229,3619.667,1798.818z M3620.836,1797.096c-1.279,1.035-2.396,0.645-3.121-0.25
					c-0.414-0.512-1.121-1.82,0.43-3.074c1.549-1.256,2.684-0.293,3.096,0.219
					C3621.967,1794.885,3622.116,1796.059,3620.836,1797.096z M3624.958,1802.186c-0.965,0.781-2.58,1.055-3.789-0.438
					c-0.668-0.824-1.152-2.293,0.496-3.629c1.65-1.336,2.988-0.557,3.654,0.268
					C3626.528,1799.879,3625.924,1801.402,3624.958,1802.186z"/>
				<path fill-rule="evenodd" clip-rule="evenodd" fill="#C7B2D6" d="M3628.366,1796.482c1.023,1.033,3.084,2.211,5.658,0.127
					c2.473-2.002,2.313-4.438,0.701-6.428c-1.715-2.119-4.031-2.363-5.865-0.879c-0.91,0.738-1.447,1.527-1.637,2.574l-1.984-3.264
					l4.393-3.559l-0.91-1.123l-5.373,4.352l3.553,5.809l1.252-1.012c-0.121-0.846,0.59-1.916,1.242-2.445
					c1.082-0.875,2.662-1.189,4.09,0.574c1.889,2.33,0.342,3.795-0.324,4.334c-1.535,1.244-2.871,0.467-3.488-0.119
					L3628.366,1796.482z"/>
				<path fill-rule="evenodd" clip-rule="evenodd" fill="#C7B2D6" d="M3638.34,1790.055l1.256,1.549l0.709-0.576l0.357,0.441
					c0.357,0.441,0.365,1.092,0.004,1.457l0.633,0.781c0.449-0.576,0.99-1.652,0.061-2.801l-1.613-1.99L3638.34,1790.055z"/>
				<path fill-rule="evenodd" clip-rule="evenodd" fill="#C7B2D6" d="M3645.7,1782.848l1.865,2.303l1.336-1.082l-1.865-2.303
					l1.564-1.266l-0.912-1.125l-1.563,1.266l-5.283-6.523l-1.352,1.094l0.607,10.313l0.91,1.123L3645.7,1782.848z
					 M3641.377,1784.486l-0.455-7.537l3.867,4.775L3641.377,1784.486z"/>
			</g>
		</g>
		<g>
			<path fill-rule="evenodd" clip-rule="evenodd" fill="#FFFFFF" stroke="#000000" d="M2587.475,72.331
				c-1.898,2.814-1.154,6.636,1.66,8.533l11.479,7.741c2.814,1.898,6.635,1.155,8.533-1.659l17.484-25.922
				c1.9-2.816,1.154-6.636-1.66-8.533l-11.479-7.741c-2.814-1.898-6.633-1.158-8.533,1.659L2587.475,72.331z"/>
			<g>
				<path fill-rule="evenodd" clip-rule="evenodd" fill="#C7B2D6" d="M2594.393,79.227l1.637-2.427l7.977,5.379l0.961-1.426
					l-10.617-7.16l-0.674,1c1.053,0.931,1.047,2.538,0.188,3.812l-0.215,0.319L2594.393,79.227z"/>
				<path fill-rule="evenodd" clip-rule="evenodd" fill="#C7B2D6" d="M2605.241,75.313c2.885,1.284,4.473-0.91,4.873-1.502
					c1.113-1.652,1.986-4.482-3.064-7.89c-4.838-3.263-6.83-1.716-8.059,0.104c-1.553,2.304-0.906,4.683,1.295,6.167
					c2.26,1.523,4.555,0.933,5.865-1.008c0.654-0.97,1.025-2.177,0.625-3.35l0.021-0.031c1.678,1.11,3.682,3.014,2.188,5.227
					c-0.285,0.426-1.15,1.674-2.887,1.011L2605.241,75.313z M2604.262,66.227c1.455,0.982,1.883,2.506,0.881,3.991
					c-1.012,1.501-2.619,1.499-3.922,0.619c-1.338-0.9-2.184-2.421-1.131-3.982C2601.184,65.232,2602.942,65.337,2604.262,66.227z"
					/>
				<path fill-rule="evenodd" clip-rule="evenodd" fill="#C7B2D6" d="M2612.438,66.114l1.652,1.114l0.51-0.758l0.471,0.317
					c0.471,0.317,0.668,0.938,0.43,1.393l0.834,0.563c0.262-0.684,0.465-1.87-0.762-2.698l-2.123-1.431L2612.438,66.114z"/>
				<path fill-rule="evenodd" clip-rule="evenodd" fill="#C7B2D6" d="M2617.366,57.072l2.457,1.657l0.963-1.426l-2.457-1.657
					l1.125-1.667l-1.201-0.809l-1.123,1.667l-6.961-4.694l-0.973,1.44l3.596,9.684l1.199,0.81L2617.366,57.072z M2613.711,59.902
					l-2.639-7.075l5.094,3.436L2613.711,59.902z"/>
			</g>
		</g>
		<g>
			<g>
				<path fill-rule="evenodd" clip-rule="evenodd" fill="#FFFFFF" stroke="#000000" d="M943.823,7.343
					c-8.488,0-15.369,5.848-15.369,13.064l0,0c0,7.217,6.881,13.063,15.369,13.063h13.063c8.487,0,15.369-5.847,15.369-13.063l0,0
					c0-7.216-6.882-13.064-15.369-13.064H943.823z"/>
			</g>
			<g>
				<path fill-rule="evenodd" clip-rule="evenodd" fill="#6D6F71" d="M939.812,19.294c0.313-2.581,1.162-2.526,1.733-2.526h4.737
					c-0.11,0.185-0.35,0.535-2.046,2.913c-0.849,1.162-2.655,4-2.655,5.899c0,1.475,1.106,1.714,1.696,1.714
					c0.793,0,1.604-0.553,1.604-1.861c0-0.424-0.056-0.848-0.056-1.271c0-2.121,0.388-3.43,0.995-4.684
					c1.844-3.853,2.655-4.553,2.655-5.106c0-0.313-0.203-0.406-0.369-0.406c-0.774,0-0.405,0.425-1.29,0.425h-5.604
					c-0.571,0-1.124-0.13-1.622-0.295l-0.608,5.199H939.812z"/>
				<path fill-rule="evenodd" clip-rule="evenodd" fill="#6D6F71" d="M954.438,27.294c3.281,0,4.903-3.539,4.903-6.636
					c0-4.627-2.784-6.636-4.959-6.636c-2.434,0-4.922,2.359-4.922,6.636C949.461,24.603,951.636,27.294,954.438,27.294z
					 M954.401,26.428c-1.309,0-1.623-1.217-1.733-1.973c-0.129-0.848-0.185-2.268-0.185-3.761c0-2.304,0.111-3.263,0.203-3.798
					c0.166-0.958,0.461-2.009,1.715-2.009c1.105,0,1.53,0.793,1.715,2.009c0.055,0.406,0.202,1.531,0.202,3.798
					c0,0.775-0.019,2.673-0.185,3.761C956.023,25.211,955.71,26.428,954.401,26.428z"/>
				<path fill-rule="evenodd" clip-rule="evenodd" fill="#6D6F71" d="M960.787,15.957c0,1.051,0.848,1.936,1.936,1.936
					c1.069,0,1.936-0.866,1.936-1.936c0-1.088-0.885-1.936-1.936-1.936C961.653,14.021,960.787,14.888,960.787,15.957z
					 M961.709,15.957c0-0.424,0.368-0.996,1.014-0.996c0.553,0,0.995,0.443,0.995,0.996c0,0.554-0.442,0.996-0.995,0.996
					C962.077,16.953,961.709,16.381,961.709,15.957z"/>
			</g>
		</g>
		<g>
			<g>
				<path fill-rule="evenodd" clip-rule="evenodd" fill="#FFFFFF" stroke="#000000" d="M1272.888,8.596
					c-8.488,0-15.369,5.847-15.369,13.063l0,0c0,7.217,6.881,13.064,15.369,13.064h13.063c8.487,0,15.369-5.847,15.369-13.064l0,0
					c0-7.216-6.882-13.063-15.369-13.063H1272.888z"/>
			</g>
			<g>
				<path fill-rule="evenodd" clip-rule="evenodd" fill="#6D6F71" d="M1268.25,28.178h8.978v-4.553h-0.939
					c-0.037,0.701-0.074,1.346-0.517,1.733c-0.203,0.185-0.571,0.351-1.124,0.351h-4.186v-0.092c1.493-1.623,3.023-2.415,4.24-3.134
					c1.051-0.627,2.563-1.732,2.563-3.613c0-1.714-1.566-3.595-4.646-3.595c-2.839,0-4.259,2.157-4.259,3.725
					c0,0.903,0.719,1.566,1.567,1.566c0.94,0,1.585-0.59,1.585-1.42c0-0.571-0.239-0.921-0.553-1.106
					c-0.369-0.203-0.903-0.221-0.903-0.608c0-0.35,0.683-1.29,2.064-1.29c1.401,0,2.212,1.143,2.212,2.709
					c0,3.355-3.244,3.521-6.083,8.204V28.178z"/>
				<path fill-rule="evenodd" clip-rule="evenodd" fill="#6D6F71" d="M1283.503,28.547c3.281,0,4.904-3.54,4.904-6.637
					c0-4.627-2.784-6.637-4.959-6.637c-2.434,0-4.923,2.36-4.923,6.637C1278.525,25.854,1280.701,28.547,1283.503,28.547z
					 M1283.466,27.68c-1.309,0-1.622-1.217-1.732-1.972c-0.129-0.848-0.185-2.268-0.185-3.761c0-2.304,0.11-3.263,0.203-3.797
					c0.165-0.958,0.46-2.009,1.714-2.009c1.106,0,1.53,0.792,1.715,2.009c0.055,0.405,0.203,1.53,0.203,3.797
					c0,0.774-0.02,2.673-0.185,3.761C1285.089,26.463,1284.774,27.68,1283.466,27.68z"/>
				<path fill-rule="evenodd" clip-rule="evenodd" fill="#6D6F71" d="M1289.852,17.209c0,1.051,0.849,1.936,1.937,1.936
					c1.068,0,1.936-0.866,1.936-1.936c0-1.087-0.885-1.936-1.936-1.936C1290.718,15.273,1289.852,16.141,1289.852,17.209z
					 M1290.773,17.209c0-0.424,0.369-0.995,1.015-0.995c0.553,0,0.995,0.442,0.995,0.995c0,0.553-0.442,0.996-0.995,0.996
					C1291.143,18.205,1290.773,17.633,1290.773,17.209z"/>
			</g>
		</g>
		<g>
			<g>
				<path fill-rule="evenodd" clip-rule="evenodd" fill="#FFFFFF" stroke="#000000" d="M1464.306,7.649
					c-8.487,0-15.369,5.847-15.369,13.063l0,0c0,7.216,6.882,13.064,15.369,13.064h13.064c8.487,0,15.369-5.848,15.369-13.064l0,0
					c0-7.216-6.882-13.063-15.369-13.063H1464.306z"/>
			</g>
			<g>
				<path fill-rule="evenodd" clip-rule="evenodd" fill="#6D6F71" d="M1466.213,20.005c1.549-0.608,1.954-1.751,1.954-2.618
					c0-1.714-1.807-3.06-4.056-3.06c-2.323,0-4.276,1.567-4.276,3.688c0,0.958,0.479,2.083,1.936,2.912v0.056
					c-2.268,0.903-2.525,2.414-2.525,3.226c0,1.457,1.234,3.392,4.866,3.392c3.318,0,4.996-2.121,4.996-4.092
					c0-1.954-1.272-2.747-2.895-3.447V20.005z M1465.125,19.507c-1.327-0.571-2.949-1.032-2.949-2.415
					c0-1.032,0.756-1.844,1.954-1.844c1.032,0,1.917,0.737,2.027,1.88c0.019,0.166,0.019,0.332,0,0.498
					C1466.121,18.033,1465.955,18.844,1465.125,19.507z M1462.784,21.498c2.563,0.867,4.056,1.659,4.056,2.857
					c0,1.106-0.885,2.341-2.471,2.341c-1.788,0-2.949-1.069-2.949-2.82C1461.42,22.808,1461.973,22.272,1462.784,21.498z"/>
				<path fill-rule="evenodd" clip-rule="evenodd" fill="#6D6F71" d="M1474.903,27.6c3.281,0,4.904-3.54,4.904-6.636
					c0-4.627-2.784-6.637-4.958-6.637c-2.434,0-4.923,2.359-4.923,6.637C1469.926,24.909,1472.102,27.6,1474.903,27.6z
					 M1474.866,26.734c-1.309,0-1.622-1.217-1.732-1.973c-0.129-0.848-0.185-2.268-0.185-3.761c0-2.304,0.111-3.263,0.204-3.797
					c0.166-0.959,0.461-2.01,1.714-2.01c1.106,0,1.53,0.793,1.715,2.01c0.056,0.405,0.203,1.53,0.203,3.797
					c0,0.774-0.019,2.673-0.185,3.761C1476.489,25.518,1476.176,26.734,1474.866,26.734z"/>
				<path fill-rule="evenodd" clip-rule="evenodd" fill="#6D6F71" d="M1481.253,16.263c0,1.051,0.848,1.936,1.936,1.936
					c1.068,0,1.936-0.866,1.936-1.936c0-1.087-0.885-1.936-1.936-1.936C1482.119,14.327,1481.253,15.193,1481.253,16.263z
					 M1482.174,16.263c0-0.424,0.369-0.995,1.015-0.995c0.552,0,0.995,0.442,0.995,0.995c0,0.554-0.443,0.996-0.995,0.996
					C1482.543,17.259,1482.174,16.687,1482.174,16.263z"/>
			</g>
		</g>
		<g>
			<g>
				<path fill-rule="evenodd" clip-rule="evenodd" fill="#FFFFFF" stroke="#000000" d="M1531.349,7.03
					c-8.487,0-15.369,5.847-15.369,13.064l0,0c0,7.217,6.882,13.063,15.369,13.063h13.064c8.488,0,15.369-5.847,15.369-13.063l0,0
					c0-7.217-6.881-13.064-15.369-13.064H1531.349z"/>
			</g>
			<g>
				<path fill-rule="evenodd" clip-rule="evenodd" fill="#6D6F71" d="M1529.164,20.437h0.608c1.715,0,3.263,0.332,3.263,2.766
					c0,2.765-1.807,2.912-2.415,2.912c-1.271,0-2.083-0.645-2.083-1.087c0-0.719,0.664-0.148,1.069-1.107
					c0.092-0.184,0.129-0.404,0.129-0.607c0-0.646-0.461-1.42-1.456-1.42c-1.051,0-1.77,0.774-1.77,1.77
					c0,1.585,1.751,3.319,4.405,3.319c3.447,0,5.052-2.121,5.052-3.706c0-1.18-0.774-2.986-3.558-3.337v-0.092
					c1.861-0.351,3.004-1.696,3.004-2.95c0-1.622-1.658-3.188-4.129-3.188c-2.654,0-4.222,1.401-4.222,2.82
					c0,0.903,0.646,1.549,1.493,1.549c0.718,0,1.346-0.479,1.346-0.996c0-0.295,0.019-0.608-0.11-0.866
					c-0.369-0.719-0.793-0.037-0.793-0.83c0-0.387,0.517-0.903,1.696-0.903c0.442,0,2.027,0.11,2.027,2.359
					c0,1.217,0.093,2.691-3.558,2.765V20.437z"/>
				<path fill-rule="evenodd" clip-rule="evenodd" fill="#6D6F71" d="M1541.983,26.981c3.281,0,4.903-3.54,4.903-6.637
					c0-4.627-2.783-6.637-4.959-6.637c-2.433,0-4.922,2.359-4.922,6.637C1537.006,24.29,1539.181,26.981,1541.983,26.981z
					 M1541.946,26.114c-1.309,0-1.622-1.217-1.732-1.972c-0.129-0.848-0.185-2.268-0.185-3.761c0-2.304,0.11-3.263,0.202-3.797
					c0.166-0.959,0.461-2.01,1.715-2.01c1.106,0,1.53,0.793,1.715,2.01c0.055,0.405,0.202,1.53,0.202,3.797
					c0,0.774-0.019,2.673-0.185,3.761C1543.568,24.897,1543.255,26.114,1541.946,26.114z"/>
				<path fill-rule="evenodd" clip-rule="evenodd" fill="#6D6F71" d="M1548.332,15.644c0,1.051,0.849,1.936,1.936,1.936
					c1.069,0,1.936-0.867,1.936-1.936c0-1.088-0.885-1.936-1.936-1.936C1549.198,13.708,1548.332,14.574,1548.332,15.644z
					 M1549.254,15.644c0-0.424,0.368-0.996,1.014-0.996c0.554,0,0.995,0.443,0.995,0.996s-0.441,0.995-0.995,0.995
					C1549.622,16.639,1549.254,16.067,1549.254,15.644z"/>
			</g>
		</g>
		<g>
			<g>
				<path fill-rule="evenodd" clip-rule="evenodd" fill="#FFFFFF" stroke="#000000" d="M1661.421,9.113
					c-8.487,0-15.369,5.848-15.369,13.064l0,0c0,7.216,6.882,13.064,15.369,13.064h13.064c8.487,0,15.369-5.848,15.369-13.064l0,0
					c0-7.216-6.882-13.064-15.369-13.064H1661.421z"/>
			</g>
			<g>
				<path fill-rule="evenodd" clip-rule="evenodd" fill="#6D6F71" d="M1666.167,24.843h-1.861v-9.051h-0.922l-7.023,9.051v1.106
					h5.105v1.143c0,0.756-0.553,0.737-0.958,0.737h-0.903v0.867h6.563v-0.867h-0.903c-0.405,0-0.958,0.019-0.958-0.737v-1.143h1.861
					V24.843z M1661.466,19.792v5.051h-3.963L1661.466,19.792z"/>
				<path fill-rule="evenodd" clip-rule="evenodd" fill="#6D6F71" d="M1672.019,29.064c3.281,0,4.904-3.54,4.904-6.637
					c0-4.627-2.784-6.636-4.959-6.636c-2.434,0-4.923,2.359-4.923,6.636C1667.041,26.373,1669.217,29.064,1672.019,29.064z
					 M1671.981,28.198c-1.309,0-1.622-1.217-1.732-1.973c-0.129-0.849-0.185-2.268-0.185-3.761c0-2.305,0.11-3.263,0.203-3.798
					c0.166-0.958,0.461-2.009,1.714-2.009c1.106,0,1.53,0.793,1.715,2.009c0.056,0.406,0.203,1.53,0.203,3.798
					c0,0.774-0.019,2.673-0.185,3.761C1673.604,26.981,1673.291,28.198,1671.981,28.198z"/>
				<path fill-rule="evenodd" clip-rule="evenodd" fill="#6D6F71" d="M1678.368,17.728c0,1.05,0.848,1.935,1.936,1.935
					c1.068,0,1.936-0.866,1.936-1.935c0-1.088-0.885-1.936-1.936-1.936C1679.234,15.792,1678.368,16.658,1678.368,17.728z
					 M1679.289,17.728c0-0.425,0.369-0.996,1.015-0.996c0.553,0,0.995,0.442,0.995,0.996c0,0.552-0.442,0.995-0.995,0.995
					C1679.658,18.723,1679.289,18.151,1679.289,17.728z"/>
			</g>
		</g>
		<g>
			<g>
				<path fill-rule="evenodd" clip-rule="evenodd" fill="#FFFFFF" stroke="#000000" d="M1837.118,7.211
					c-8.487,0-15.369,5.848-15.369,13.064l0,0c0,7.216,6.882,13.064,15.369,13.064h13.064c8.488,0,15.369-5.848,15.369-13.064l0,0
					c0-7.216-6.881-13.064-15.369-13.064H1837.118z"/>
			</g>
			<g>
				<path fill-rule="evenodd" clip-rule="evenodd" fill="#6D6F71" d="M1835.209,20.157c-0.037-2.489,0.276-5.365,2.544-5.365
					c0.848,0,1.106,0.46,1.106,0.719c0,0.166-0.185,0.221-0.388,0.571c-0.092,0.148-0.166,0.313-0.166,0.498
					c0,0.553,0.295,1.382,1.401,1.382c0.812,0,1.327-0.645,1.327-1.529c0-1.549-1.751-2.544-3.373-2.544
					c-2.139,0-5.328,1.732-5.494,7.244c0,0.258-0.018,0.498,0,0.756c0.093,1.973,1.162,5.272,4.978,5.272
					c2.212,0,4.608-1.567,4.608-4.111c0-2.36-1.548-4.148-3.797-4.148c-0.978,0-2.028,0.387-2.691,1.254H1835.209z M1835.19,23.162
					c0.037-0.995,0.185-3.226,1.844-3.226c1.474,0,1.75,1.438,1.75,3.318c0,1.715-0.386,3.116-1.75,3.116
					c-1.604,0-1.807-2.138-1.844-2.618C1835.172,23.549,1835.19,23.365,1835.19,23.162z"/>
				<path fill-rule="evenodd" clip-rule="evenodd" fill="#6D6F71" d="M1847.715,27.162c3.281,0,4.904-3.539,4.904-6.637
					c0-4.627-2.783-6.636-4.959-6.636c-2.434,0-4.922,2.359-4.922,6.636C1842.738,24.471,1844.913,27.162,1847.715,27.162z
					 M1847.678,26.296c-1.309,0-1.621-1.217-1.732-1.973c-0.129-0.848-0.184-2.268-0.184-3.761c0-2.304,0.109-3.263,0.201-3.798
					c0.166-0.958,0.461-2.009,1.715-2.009c1.107,0,1.531,0.793,1.715,2.009c0.055,0.405,0.203,1.53,0.203,3.798
					c0,0.774-0.02,2.673-0.186,3.761C1849.301,25.079,1848.987,26.296,1847.678,26.296z"/>
				<path fill-rule="evenodd" clip-rule="evenodd" fill="#6D6F71" d="M1854.065,15.825c0,1.051,0.848,1.936,1.936,1.936
					c1.068,0,1.936-0.867,1.936-1.936c0-1.088-0.885-1.936-1.936-1.936C1854.93,13.89,1854.065,14.755,1854.065,15.825z
					 M1854.987,15.825c0-0.424,0.367-0.996,1.014-0.996c0.553,0,0.996,0.442,0.996,0.996c0,0.553-0.443,0.995-0.996,0.995
					C1855.354,16.82,1854.987,16.249,1854.987,15.825z"/>
			</g>
		</g>
		<g>
			<g>
				<path fill-rule="evenodd" clip-rule="evenodd" fill="#FFFFFF" stroke="#000000" d="M1955.311,7.211
					c-8.486,0-15.369,5.848-15.369,13.064l0,0c0,7.216,6.883,13.064,15.369,13.064h13.064c8.488,0,15.369-5.848,15.369-13.064l0,0
					c0-7.216-6.881-13.064-15.369-13.064H1955.311z"/>
			</g>
			<g>
				<path fill-rule="evenodd" clip-rule="evenodd" fill="#6D6F71" d="M1957.219,19.567c1.549-0.608,1.953-1.751,1.953-2.618
					c0-1.714-1.807-3.06-4.055-3.06c-2.324,0-4.277,1.566-4.277,3.687c0,0.959,0.479,2.083,1.936,2.913v0.055
					c-2.268,0.903-2.525,2.415-2.525,3.226c0,1.457,1.234,3.393,4.867,3.393c3.318,0,4.996-2.12,4.996-4.092
					c0-1.954-1.273-2.747-2.895-3.448V19.567z M1956.131,19.069c-1.328-0.571-2.949-1.033-2.949-2.415
					c0-1.032,0.756-1.844,1.953-1.844c1.033,0,1.918,0.738,2.027,1.88c0.02,0.166,0.02,0.332,0,0.498
					C1957.125,17.595,1956.961,18.406,1956.131,19.069z M1953.79,21.061c2.563,0.866,4.057,1.659,4.057,2.857
					c0,1.106-0.885,2.341-2.471,2.341c-1.789,0-2.949-1.069-2.949-2.82C1952.426,22.369,1952.979,21.834,1953.79,21.061z"/>
				<path fill-rule="evenodd" clip-rule="evenodd" fill="#6D6F71" d="M1965.909,27.162c3.281,0,4.904-3.539,4.904-6.637
					c0-4.627-2.783-6.636-4.959-6.636c-2.434,0-4.922,2.359-4.922,6.636C1960.932,24.471,1963.108,27.162,1965.909,27.162z
					 M1965.872,26.296c-1.309,0-1.621-1.217-1.732-1.973c-0.129-0.848-0.184-2.268-0.184-3.761c0-2.304,0.109-3.263,0.203-3.798
					c0.166-0.958,0.461-2.009,1.713-2.009c1.107,0,1.531,0.793,1.715,2.009c0.055,0.405,0.203,1.53,0.203,3.798
					c0,0.774-0.018,2.673-0.184,3.761C1967.495,25.079,1967.182,26.296,1965.872,26.296z"/>
				<path fill-rule="evenodd" clip-rule="evenodd" fill="#6D6F71" d="M1972.258,15.825c0,1.051,0.848,1.936,1.936,1.936
					c1.068,0,1.936-0.867,1.936-1.936c0-1.088-0.885-1.936-1.936-1.936C1973.125,13.89,1972.258,14.755,1972.258,15.825z
					 M1973.18,15.825c0-0.424,0.369-0.996,1.014-0.996c0.553,0,0.996,0.442,0.996,0.996c0,0.553-0.443,0.995-0.996,0.995
					C1973.549,16.82,1973.18,16.249,1973.18,15.825z"/>
			</g>
		</g>
		<g>
			<g>
				<path fill-rule="evenodd" clip-rule="evenodd" fill="#FFFFFF" stroke="#000000" d="M2045.401,5.678
					c-8.486,0-15.369,5.847-15.369,13.063l0,0c0,7.216,6.883,13.064,15.369,13.064h13.064c8.488,0,15.369-5.848,15.369-13.064l0,0
					c0-7.216-6.881-13.063-15.369-13.063H2045.401z"/>
			</g>
			<g>
				<path fill-rule="evenodd" clip-rule="evenodd" fill="#6D6F71" d="M2034.829,15.029h1.66c0.461,0,0.793-0.037,0.793,0.7v7.89
					c0,0.646-0.369,0.774-0.941,0.774h-1.475v0.867h7.67v-0.867h-1.475c-0.572,0-0.941-0.128-0.941-0.774V12.356h-0.682
					c-0.793,1.364-2.508,1.604-4.609,1.843V15.029z"/>
				<path fill-rule="evenodd" clip-rule="evenodd" fill="#6D6F71" d="M2049.325,25.629c3.281,0,4.904-3.539,4.904-6.636
					c0-4.628-2.783-6.637-4.959-6.637c-2.434,0-4.922,2.359-4.922,6.637C2044.348,22.938,2046.524,25.629,2049.325,25.629z
					 M2049.288,24.763c-1.309,0-1.621-1.217-1.732-1.973c-0.129-0.848-0.184-2.268-0.184-3.761c0-2.304,0.109-3.263,0.203-3.797
					c0.164-0.959,0.461-2.01,1.713-2.01c1.107,0,1.531,0.793,1.715,2.01c0.055,0.405,0.203,1.529,0.203,3.797
					c0,0.774-0.018,2.674-0.184,3.761C2050.911,23.546,2050.596,24.763,2049.288,24.763z"/>
				<path fill-rule="evenodd" clip-rule="evenodd" fill="#6D6F71" d="M2060.024,25.629c3.281,0,4.904-3.539,4.904-6.636
					c0-4.628-2.783-6.637-4.959-6.637c-2.434,0-4.922,2.359-4.922,6.637C2055.047,22.938,2057.223,25.629,2060.024,25.629z
					 M2059.989,24.763c-1.311,0-1.623-1.217-1.734-1.973c-0.129-0.848-0.184-2.268-0.184-3.761c0-2.304,0.111-3.263,0.203-3.797
					c0.166-0.959,0.461-2.01,1.715-2.01c1.105,0,1.529,0.793,1.713,2.01c0.057,0.405,0.203,1.529,0.203,3.797
					c0,0.774-0.018,2.674-0.184,3.761C2061.61,23.546,2061.297,24.763,2059.989,24.763z"/>
				<path fill-rule="evenodd" clip-rule="evenodd" fill="#6D6F71" d="M2066.374,14.292c0,1.051,0.848,1.936,1.936,1.936
					c1.07,0,1.936-0.867,1.936-1.936c0-1.088-0.885-1.936-1.936-1.936C2067.241,12.356,2066.374,13.223,2066.374,14.292z
					 M2067.295,14.292c0-0.424,0.369-0.996,1.014-0.996c0.553,0,0.996,0.442,0.996,0.996c0,0.553-0.443,0.995-0.996,0.995
					C2067.665,15.287,2067.295,14.716,2067.295,14.292z"/>
			</g>
		</g>
		<g>
			<g>
				<path fill-rule="evenodd" clip-rule="evenodd" fill="#FFFFFF" stroke="#000000" d="M2141.743,6.292
					c-8.486,0-15.367,5.848-15.367,13.063l0,0c0,7.216,6.881,13.063,15.367,13.063h13.064c8.488,0,15.369-5.847,15.369-13.063l0,0
					c0-7.216-6.881-13.063-15.369-13.063H2141.743z"/>
			</g>
			<g>
				<path fill-rule="evenodd" clip-rule="evenodd" fill="#6D6F71" d="M2131.108,15.643h1.66c0.461,0,0.793-0.036,0.793,0.701v7.89
					c0,0.645-0.369,0.774-0.941,0.774h-1.475v0.866h7.67v-0.866h-1.477c-0.57,0-0.939-0.13-0.939-0.774V12.97h-0.682
					c-0.793,1.364-2.508,1.604-4.609,1.843V15.643z"/>
				<path fill-rule="evenodd" clip-rule="evenodd" fill="#6D6F71" d="M2141.051,25.874h8.977v-4.553h-0.939
					c-0.037,0.7-0.074,1.346-0.516,1.733c-0.203,0.184-0.572,0.35-1.125,0.35h-4.186v-0.092c1.494-1.622,3.023-2.415,4.24-3.134
					c1.051-0.627,2.563-1.733,2.563-3.613c0-1.714-1.566-3.595-4.645-3.595c-2.84,0-4.26,2.157-4.26,3.724
					c0,0.903,0.719,1.567,1.568,1.567c0.939,0,1.584-0.591,1.584-1.42c0-0.571-0.238-0.922-0.553-1.106
					c-0.369-0.203-0.902-0.221-0.902-0.608c0-0.35,0.682-1.291,2.064-1.291c1.4,0,2.211,1.143,2.211,2.71
					c0,3.355-3.244,3.521-6.082,8.204V25.874z"/>
				<path fill-rule="evenodd" clip-rule="evenodd" fill="#6D6F71" d="M2156.303,26.243c3.281,0,4.904-3.54,4.904-6.637
					c0-4.628-2.783-6.637-4.959-6.637c-2.434,0-4.922,2.359-4.922,6.637C2151.327,23.551,2153.502,26.243,2156.303,26.243z
					 M2156.266,25.376c-1.309,0-1.621-1.217-1.732-1.973c-0.129-0.848-0.184-2.268-0.184-3.76c0-2.305,0.109-3.264,0.203-3.798
					c0.164-0.959,0.459-2.01,1.713-2.01c1.107,0,1.531,0.793,1.715,2.01c0.055,0.405,0.203,1.53,0.203,3.798
					c0,0.774-0.018,2.673-0.184,3.76C2157.889,24.16,2157.575,25.376,2156.266,25.376z"/>
				<path fill-rule="evenodd" clip-rule="evenodd" fill="#6D6F71" d="M2162.653,14.905c0,1.051,0.848,1.936,1.936,1.936
					c1.068,0,1.936-0.866,1.936-1.936c0-1.088-0.885-1.936-1.936-1.936C2163.518,12.97,2162.653,13.836,2162.653,14.905z
					 M2163.575,14.905c0-0.424,0.369-0.996,1.014-0.996c0.553,0,0.996,0.442,0.996,0.996s-0.443,0.996-0.996,0.996
					C2163.944,15.901,2163.575,15.329,2163.575,14.905z"/>
			</g>
		</g>
		<g>
			<g>
				<path fill-rule="evenodd" clip-rule="evenodd" fill="#FFFFFF" stroke="#000000" d="M2253.366,6.292
					c-8.488,0-15.369,5.848-15.369,13.063l0,0c0,7.216,6.881,13.063,15.369,13.063h13.064c8.486,0,15.369-5.847,15.369-13.063l0,0
					c0-7.216-6.883-13.063-15.369-13.063H2253.366z"/>
			</g>
			<g>
				<path fill-rule="evenodd" clip-rule="evenodd" fill="#6D6F71" d="M2242.731,15.643h1.658c0.461,0,0.793-0.036,0.793,0.701v7.89
					c0,0.645-0.369,0.774-0.939,0.774h-1.477v0.866h7.67v-0.866h-1.475c-0.572,0-0.939-0.13-0.939-0.774V12.97h-0.684
					c-0.793,1.364-2.506,1.604-4.607,1.843V15.643z"/>
				<path fill-rule="evenodd" clip-rule="evenodd" fill="#6D6F71" d="M2262.055,22.021h-1.861V12.97h-0.922l-7.023,9.051v1.106
					h5.107v1.143c0,0.757-0.555,0.738-0.959,0.738h-0.904v0.866h6.563v-0.866h-0.902c-0.406,0-0.959,0.019-0.959-0.738v-1.143h1.861
					V22.021z M2257.356,16.97v5.051h-3.965L2257.356,16.97z"/>
				<path fill-rule="evenodd" clip-rule="evenodd" fill="#6D6F71" d="M2267.907,26.243c3.283,0,4.904-3.54,4.904-6.637
					c0-4.628-2.783-6.637-4.959-6.637c-2.434,0-4.922,2.359-4.922,6.637C2262.93,23.551,2265.106,26.243,2267.907,26.243z
					 M2267.872,25.376c-1.311,0-1.623-1.217-1.734-1.973c-0.129-0.848-0.184-2.268-0.184-3.76c0-2.305,0.111-3.264,0.203-3.798
					c0.166-0.959,0.461-2.01,1.715-2.01c1.105,0,1.529,0.793,1.713,2.01c0.057,0.405,0.203,1.53,0.203,3.798
					c0,0.774-0.018,2.673-0.184,3.76C2269.493,24.16,2269.18,25.376,2267.872,25.376z"/>
				<path fill-rule="evenodd" clip-rule="evenodd" fill="#6D6F71" d="M2274.256,14.905c0,1.051,0.848,1.936,1.936,1.936
					c1.07,0,1.936-0.866,1.936-1.936c0-1.088-0.885-1.936-1.936-1.936C2275.124,12.97,2274.256,13.836,2274.256,14.905z
					 M2275.178,14.905c0-0.424,0.369-0.996,1.014-0.996c0.553,0,0.996,0.442,0.996,0.996s-0.443,0.996-0.996,0.996
					C2275.547,15.901,2275.178,15.329,2275.178,14.905z"/>
			</g>
		</g>
		<g>
			<g>
				<path fill-rule="evenodd" clip-rule="evenodd" fill="#FFFFFF" stroke="#000000" d="M2428.28,6.292
					c-8.488,0-15.369,5.848-15.369,13.063l0,0c0,7.216,6.881,13.063,15.369,13.063h13.063c8.488,0,15.369-5.847,15.369-13.063l0,0
					c0-7.216-6.881-13.063-15.369-13.063H2428.28z"/>
			</g>
			<g>
				<path fill-rule="evenodd" clip-rule="evenodd" fill="#6D6F71" d="M2417.645,15.643h1.658c0.461,0,0.793-0.036,0.793,0.701v7.89
					c0,0.645-0.369,0.774-0.941,0.774h-1.475v0.866h7.67v-0.866h-1.475c-0.572,0-0.941-0.13-0.941-0.774V12.97h-0.682
					c-0.793,1.364-2.506,1.604-4.607,1.843V15.643z"/>
				<path fill-rule="evenodd" clip-rule="evenodd" fill="#6D6F71" d="M2430.315,19.237c-0.037-2.488,0.277-5.364,2.545-5.364
					c0.848,0,1.105,0.461,1.105,0.719c0,0.166-0.186,0.221-0.387,0.571c-0.094,0.148-0.166,0.313-0.166,0.498
					c0,0.553,0.295,1.383,1.4,1.383c0.811,0,1.328-0.646,1.328-1.53c0-1.549-1.752-2.544-3.375-2.544
					c-2.139,0-5.326,1.733-5.492,7.245c0,0.258-0.02,0.498,0,0.756c0.092,1.973,1.16,5.273,4.977,5.273
					c2.213,0,4.609-1.567,4.609-4.111c0-2.36-1.549-4.147-3.799-4.147c-0.977,0-2.027,0.387-2.691,1.253H2430.315z M2430.297,22.242
					c0.035-0.995,0.184-3.226,1.842-3.226c1.477,0,1.752,1.438,1.752,3.318c0,1.714-0.387,3.116-1.752,3.116
					c-1.604,0-1.807-2.139-1.842-2.618C2430.278,22.629,2430.297,22.445,2430.297,22.242z"/>
				<path fill-rule="evenodd" clip-rule="evenodd" fill="#6D6F71" d="M2442.821,26.243c3.281,0,4.904-3.54,4.904-6.637
					c0-4.628-2.783-6.637-4.959-6.637c-2.434,0-4.922,2.359-4.922,6.637C2437.844,23.551,2440.02,26.243,2442.821,26.243z
					 M2442.784,25.376c-1.309,0-1.621-1.217-1.732-1.973c-0.129-0.848-0.184-2.268-0.184-3.76c0-2.305,0.109-3.264,0.203-3.798
					c0.166-0.959,0.461-2.01,1.713-2.01c1.107,0,1.531,0.793,1.715,2.01c0.057,0.405,0.203,1.53,0.203,3.798
					c0,0.774-0.018,2.673-0.184,3.76C2444.407,24.16,2444.094,25.376,2442.784,25.376z"/>
				<path fill-rule="evenodd" clip-rule="evenodd" fill="#6D6F71" d="M2449.17,14.905c0,1.051,0.848,1.936,1.936,1.936
					c1.068,0,1.936-0.866,1.936-1.936c0-1.088-0.885-1.936-1.936-1.936C2450.038,12.97,2449.17,13.836,2449.17,14.905z
					 M2450.092,14.905c0-0.424,0.369-0.996,1.014-0.996c0.553,0,0.996,0.442,0.996,0.996s-0.443,0.996-0.996,0.996
					C2450.461,15.901,2450.092,15.329,2450.092,14.905z"/>
			</g>
		</g>
		<g>
			<g>
				<path fill-rule="evenodd" clip-rule="evenodd" fill="#FFFFFF" stroke="#000000" d="M2802.944,6.292
					c-8.486,0-15.369,5.848-15.369,13.063l0,0c0,7.216,6.883,13.063,15.369,13.063h13.064c8.486,0,15.369-5.847,15.369-13.063l0,0
					c0-7.216-6.883-13.063-15.369-13.063H2802.944z"/>
			</g>
			<g>
				<path fill-rule="evenodd" clip-rule="evenodd" fill="#6D6F71" d="M2792.309,15.643h1.658c0.461,0,0.793-0.036,0.793,0.701v7.89
					c0,0.645-0.369,0.774-0.939,0.774h-1.475v0.866h7.668v-0.866h-1.475c-0.57,0-0.939-0.13-0.939-0.774V12.97h-0.682
					c-0.793,1.364-2.508,1.604-4.609,1.843V15.643z"/>
				<path fill-rule="evenodd" clip-rule="evenodd" fill="#6D6F71" d="M2808.795,18.647c1.549-0.608,1.955-1.752,1.955-2.618
					c0-1.714-1.807-3.06-4.057-3.06c-2.322,0-4.277,1.567-4.277,3.688c0,0.958,0.48,2.083,1.936,2.912v0.055
					c-2.268,0.903-2.525,2.415-2.525,3.226c0,1.457,1.236,3.393,4.867,3.393c3.318,0,4.996-2.12,4.996-4.093
					c0-1.954-1.271-2.747-2.895-3.447V18.647z M2807.708,18.15c-1.326-0.572-2.949-1.033-2.949-2.416
					c0-1.032,0.756-1.843,1.955-1.843c1.031,0,1.916,0.737,2.027,1.88c0.018,0.166,0.018,0.332,0,0.498
					C2808.704,16.675,2808.538,17.486,2807.708,18.15z M2805.368,20.141c2.563,0.867,4.055,1.659,4.055,2.857
					c0,1.106-0.885,2.341-2.471,2.341c-1.787,0-2.949-1.07-2.949-2.82C2804.002,21.45,2804.555,20.915,2805.368,20.141z"/>
				<path fill-rule="evenodd" clip-rule="evenodd" fill="#6D6F71" d="M2817.487,26.243c3.281,0,4.902-3.54,4.902-6.637
					c0-4.628-2.783-6.637-4.959-6.637c-2.432,0-4.922,2.359-4.922,6.637C2812.508,23.551,2814.684,26.243,2817.487,26.243z
					 M2817.45,25.376c-1.309,0-1.623-1.217-1.732-1.973c-0.129-0.848-0.186-2.268-0.186-3.76c0-2.305,0.111-3.264,0.203-3.798
					c0.166-0.959,0.461-2.01,1.715-2.01c1.105,0,1.529,0.793,1.715,2.01c0.055,0.405,0.201,1.53,0.201,3.798
					c0,0.774-0.018,2.673-0.184,3.76C2819.071,24.16,2818.758,25.376,2817.45,25.376z"/>
				<path fill-rule="evenodd" clip-rule="evenodd" fill="#6D6F71" d="M2823.834,14.905c0,1.051,0.85,1.936,1.936,1.936
					c1.07,0,1.936-0.866,1.936-1.936c0-1.088-0.885-1.936-1.936-1.936C2824.702,12.97,2823.834,13.836,2823.834,14.905z
					 M2824.756,14.905c0-0.424,0.369-0.996,1.014-0.996c0.555,0,0.996,0.442,0.996,0.996s-0.441,0.996-0.996,0.996
					C2825.125,15.901,2824.756,15.329,2824.756,14.905z"/>
			</g>
		</g>
		<g>
			<path fill-rule="evenodd" clip-rule="evenodd" fill="#6D6F71" d="M2580.852,17.468v0.849h0.404c0.443,0,0.627,0.147,0.627,0.553
				v5.604c0,0.405-0.184,0.553-0.627,0.553h-0.404v0.848h4.553v-0.848h-0.406c-0.441,0-0.627-0.148-0.627-0.553v-2.636h1.033
				c0.939,0,1.197,0.276,1.363,1.346c0.186,1.18,0.406,3.005,2.084,3.005c1.125,0,1.918-1.18,1.936-2.691h-0.664
				c-0.074,0.553-0.221,1.327-0.627,1.327c-0.533,0-0.607-0.977-0.664-1.401c-0.221-1.548-1.418-1.936-2.34-2.01v-0.129
				c0.756-0.257,0.699-1.087,0.959-1.972c0.367-1.291,0.885-1.31,1.014-1.31c0.203,0,0.258,0.148,0.258,0.24
				s-0.092,0.166-0.148,0.239c-0.146,0.185-0.201,0.442-0.201,0.646c0,0.517,0.441,0.903,0.977,0.903
				c0.848,0,1.105-0.774,1.105-1.235c0-0.94-0.627-1.641-1.604-1.641c-0.406,0-1.66-0.019-2.176,1.844
				c-0.479,1.732-0.258,2.064-1.291,2.064h-1.014v-2.193c0-0.406,0.186-0.553,0.627-0.553h0.406v-0.849H2580.852z"/>
			<path fill-rule="evenodd" clip-rule="evenodd" fill="#6D6F71" d="M2596.01,17.468v0.849h0.664c0.441,0,0.627,0.147,0.627,0.553
				v5.604c0,0.405-0.186,0.553-0.627,0.553h-0.664v0.848h5.936c2.342,0,2.949-1.401,2.949-2.212c0-0.94-0.607-1.936-2.691-2.231
				v-0.092c1.236-0.258,2.23-0.774,2.23-1.88c0-0.516-0.146-1.991-2.93-1.991H2596.01z M2599.79,21.081v-2.378
				c0-0.332,0.313-0.387,0.479-0.387h0.424c0.406,0,1.273,0.11,1.273,1.382c0,0.646-0.277,1.383-1.549,1.383H2599.79z
				 M2599.79,21.818h0.828c1.217,0,1.586,0.534,1.586,1.696c0,1.309-0.959,1.512-1.326,1.512h-0.555
				c-0.258,0-0.533-0.056-0.533-0.461V21.818z"/>
			<path fill-rule="evenodd" clip-rule="evenodd" fill="#6D6F71" d="M2606.301,21.671c0,2.857,2.268,4.517,4.369,4.517
				c2.34,0,4.369-1.844,4.369-4.517s-2.029-4.517-4.369-4.517C2608.569,17.154,2606.301,18.813,2606.301,21.671z M2608.993,21.671
				c0-1.53,0.092-3.65,1.678-3.65c1.658,0,1.678,2.434,1.678,3.65c0,1.622-0.129,3.65-1.678,3.65
				C2609.084,25.321,2608.993,23.256,2608.993,21.671z"/>
			<path fill-rule="evenodd" clip-rule="evenodd" fill="#6D6F71" d="M2623.506,22.979c-0.406,1.144-1.088,2.23-2.359,2.23
				c-1.77,0-2.158-1.751-2.158-3.594c0-1.77,0.314-3.779,1.992-3.779c0.773,0,1.105,0.369,1.105,0.553
				c0,0.184-0.129,0.239-0.295,0.35c-0.387,0.258-0.59,0.682-0.59,1.125c0,0.535,0.443,1.069,1.234,1.069
				c0.941,0,1.328-0.719,1.328-1.346c0-1.401-1.383-2.434-3.098-2.434c-2.6,0-4.369,1.973-4.369,4.461
				c0,2.821,1.863,4.572,4.369,4.572c1.309,0,2.711-0.517,3.541-2.95L2623.506,22.979z"/>
			<path fill-rule="evenodd" clip-rule="evenodd" fill="#6D6F71" d="M2625.133,17.468v3.337h0.738
				c0.018-1.125,0.959-2.452,1.879-2.507c0.037,0,0.074,0,0.111,0c0.111,0,0.148,0.037,0.148,0.203v5.973
				c0,0.405-0.186,0.553-0.627,0.553h-0.664v0.848h5.07v-0.848h-0.664c-0.443,0-0.627-0.148-0.627-0.553V18.5
				c0-0.203,0.018-0.203,0.166-0.203c0.037,0,0.055,0,0.092,0c0.664,0.019,1.861,1.106,1.881,2.507h0.736v-3.337H2625.133z"/>
			<path fill-rule="evenodd" clip-rule="evenodd" fill="#6D6F71" d="M2634.52,21.671c0,2.857,2.268,4.517,4.369,4.517
				c2.342,0,4.369-1.844,4.369-4.517s-2.027-4.517-4.369-4.517C2636.788,17.154,2634.52,18.813,2634.52,21.671z M2637.213,21.671
				c0-1.53,0.092-3.65,1.676-3.65c1.66,0,1.678,2.434,1.678,3.65c0,1.622-0.129,3.65-1.678,3.65
				C2637.305,25.321,2637.213,23.256,2637.213,21.671z"/>
			<path fill-rule="evenodd" clip-rule="evenodd" fill="#6D6F71" d="M2644.352,17.468v0.849h0.406c0.441,0,0.627,0.147,0.627,0.553
				v5.604c0,0.405-0.186,0.553-0.627,0.553h-0.406v0.848h4.553v-0.848h-0.404c-0.443,0-0.627-0.148-0.627-0.553v-2.636h1.031
				c0.941,0,1.199,0.276,1.365,1.346c0.184,1.18,0.406,3.005,2.082,3.005c1.125,0,1.918-1.18,1.938-2.691h-0.664
				c-0.074,0.553-0.223,1.327-0.627,1.327c-0.535,0-0.609-0.977-0.664-1.401c-0.221-1.548-1.42-1.936-2.342-2.01v-0.129
				c0.756-0.257,0.701-1.087,0.959-1.972c0.369-1.291,0.885-1.31,1.014-1.31c0.203,0,0.258,0.148,0.258,0.24
				s-0.092,0.166-0.146,0.239c-0.148,0.185-0.203,0.442-0.203,0.646c0,0.517,0.443,0.903,0.977,0.903
				c0.85,0,1.107-0.774,1.107-1.235c0-0.94-0.627-1.641-1.605-1.641c-0.404,0-1.658-0.019-2.174,1.844
				c-0.48,1.732-0.258,2.064-1.291,2.064h-1.014v-2.193c0-0.406,0.184-0.553,0.627-0.553h0.404v-0.849H2644.352z"/>
			<path fill-rule="evenodd" clip-rule="evenodd" fill="#6D6F71" d="M2654.958,17.468v0.849h0.109c0.555,0,0.813,0.405,0.996,0.773
				l3.336,6.747l-0.736,1.751c-0.111,0.258-0.35,0.996-0.867,0.996c-0.332,0-0.367-0.203-0.367-0.258
				c0-0.091,0.055-0.184,0.146-0.387c0.055-0.129,0.111-0.221,0.111-0.424c0-0.939-0.719-1.124-1.145-1.124
				c-0.404,0-1.068,0.258-1.068,1.529c0,0.793,0.664,1.567,1.861,1.567c1.549,0,1.992-1.014,2.361-1.899l3.41-8.24
				c0.201-0.479,0.404-0.996,1.252-1.032v-0.849h-3.299v0.849h0.535c0.221,0,0.57,0.091,0.57,0.516c0,0.147-0.018,0.369-0.092,0.535
				l-1.492,3.705h-0.094l-1.787-3.982c-0.055-0.11-0.092-0.221-0.092-0.387c0-0.24,0.201-0.387,0.479-0.387h0.443v-0.849H2654.958z"
				/>
			<path fill-rule="evenodd" clip-rule="evenodd" fill="#6D6F71" d="M2669.397,21.671c0,2.857,2.268,4.517,4.369,4.517
				c2.34,0,4.369-1.844,4.369-4.517s-2.029-4.517-4.369-4.517C2671.665,17.154,2669.397,18.813,2669.397,21.671z M2672.088,21.671
				c0-1.53,0.092-3.65,1.678-3.65c1.658,0,1.678,2.434,1.678,3.65c0,1.622-0.129,3.65-1.678,3.65
				C2672.18,25.321,2672.088,23.256,2672.088,21.671z"/>
			<path fill-rule="evenodd" clip-rule="evenodd" fill="#6D6F71" d="M2679.284,17.468v3.337h0.736
				c0.02-1.125,0.959-2.452,1.881-2.507c0.037,0,0.074,0,0.111,0c0.109,0,0.146,0.037,0.146,0.203v5.973
				c0,0.405-0.184,0.553-0.627,0.553h-0.664v0.848h5.07v-0.848h-0.664c-0.441,0-0.627-0.148-0.627-0.553V18.5
				c0-0.203,0.02-0.203,0.166-0.203c0.037,0,0.057,0,0.092,0c0.664,0.019,1.863,1.106,1.881,2.507h0.738v-3.337H2679.284z"/>
			<path fill-rule="evenodd" clip-rule="evenodd" fill="#6D6F71" d="M2692.965,13.338v0.866h0.867c0.572,0,0.939,0.129,0.939,0.774
				v9.255c0,0.645-0.367,0.774-0.939,0.774h-0.867v0.866h6.453v-0.866h-0.867c-0.57,0-0.939-0.13-0.939-0.774v-9.513
				c0-0.479,0.258-0.626,0.736-0.626h0.535c0.848,0,1.697,0.184,2.305,0.829c0.701,0.737,0.977,1.714,1.105,2.673h0.922v-4.258
				H2692.965z"/>
			<path fill-rule="evenodd" clip-rule="evenodd" fill="#6D6F71" d="M2704.252,17.468v0.849h0.756c0.424,0,0.533,0.313,0.533,0.607
				v9.033c0,0.406-0.184,0.554-0.627,0.554h-0.662v0.848h5.068v-0.848h-0.664c-0.441,0-0.627-0.148-0.627-0.554V26.15l-0.109-1.124
				h0.109c0.518,0.792,1.512,1.161,2.379,1.161c1.678,0,3.502-1.235,3.502-4.351c0-4.185-2.563-4.683-3.539-4.683
				c-1.217,0-1.916,0.516-2.342,1.162h-0.109v-1.162c-0.922,0.111-1.271,0.166-1.697,0.203
				C2705.487,17.431,2705.487,17.394,2704.252,17.468z M2709.635,18.334c1.326,0,1.584,1.642,1.584,3.374s-0.258,3.392-1.584,3.392
				c-1.531,0-1.66-2.193-1.66-3.392C2707.975,21.191,2707.938,18.334,2709.635,18.334z"/>
			<path fill-rule="evenodd" clip-rule="evenodd" fill="#6D6F71" d="M2715.114,17.468v0.849h0.664c0.443,0,0.627,0.147,0.627,0.553
				v5.604c0,0.405-0.184,0.553-0.627,0.553h-0.664v0.848h4.592v-0.848h-0.186c-0.441,0-0.627-0.148-0.627-0.553v-0.055l2.637-4.038
				h0.037v4.093c0,0.405-0.184,0.553-0.627,0.553h-0.184v0.848h4.59v-0.848h-0.664c-0.441,0-0.627-0.148-0.627-0.553v-5.604
				c0-0.406,0.186-0.553,0.627-0.553h0.664v-0.849h-4.59v0.849h0.184c0.479,0,0.627,0.165,0.627,0.387v0.056l-2.617,4.313h-0.057
				v-4.203c0-0.406,0.186-0.553,0.627-0.553h0.186v-0.849H2715.114z"/>
			<path fill-rule="evenodd" clip-rule="evenodd" fill="#6D6F71" d="M2726.497,17.468v0.849h0.664c0.443,0,0.627,0.147,0.627,0.553
				v5.604c0,0.405-0.184,0.553-0.627,0.553h-0.664v0.848h4.793v-0.848h-0.387c-0.441,0-0.627-0.148-0.627-0.553v-2.618h2.637v2.618
				c0,0.405-0.184,0.553-0.627,0.553h-0.406v0.848h4.813v-0.848h-0.664c-0.441,0-0.627-0.148-0.627-0.553v-5.604
				c0-0.406,0.186-0.553,0.627-0.553h0.664v-0.849h-4.813v0.849h0.406c0.443,0,0.627,0.147,0.627,0.553v2.138h-2.637v-2.138
				c0-0.406,0.186-0.553,0.627-0.553h0.387v-0.849H2726.497z"/>
			<path fill-rule="evenodd" clip-rule="evenodd" fill="#6D6F71" d="M2737.729,17.468v0.849h0.662c0.443,0,0.627,0.147,0.627,0.553
				v5.604c0,0.405-0.184,0.553-0.627,0.553h-0.662v0.848h5.936c2.34,0,2.949-1.401,2.949-2.212c0-0.94-0.609-1.936-2.691-2.231
				v-0.092c1.234-0.258,2.23-0.774,2.23-1.88c0-0.516-0.148-1.991-2.932-1.991H2737.729z M2741.506,21.081v-2.378
				c0-0.332,0.314-0.387,0.48-0.387h0.424c0.406,0,1.271,0.11,1.271,1.382c0,0.646-0.275,1.383-1.549,1.383H2741.506z
				 M2741.506,21.818h0.83c1.217,0,1.586,0.534,1.586,1.696c0,1.309-0.959,1.512-1.328,1.512h-0.553
				c-0.258,0-0.535-0.056-0.535-0.461V21.818z"/>
			<path fill-rule="evenodd" clip-rule="evenodd" fill="#6D6F71" d="M2747.963,17.468v0.849h0.664c0.441,0,0.627,0.147,0.627,0.553
				v5.604c0,0.405-0.186,0.553-0.627,0.553h-0.664v0.848h4.59v-0.848h-0.184c-0.443,0-0.627-0.148-0.627-0.553v-0.055l2.637-4.038
				h0.037v4.093c0,0.405-0.186,0.553-0.627,0.553h-0.186v0.848h4.592v-0.848h-0.664c-0.443,0-0.627-0.148-0.627-0.553v-5.604
				c0-0.406,0.184-0.553,0.627-0.553h0.664v-0.849h-4.592v0.849h0.186c0.479,0,0.627,0.165,0.627,0.387v0.056l-2.619,4.313h-0.055
				v-4.203c0-0.406,0.184-0.553,0.627-0.553h0.184v-0.849H2747.963z"/>
			<path fill-rule="evenodd" clip-rule="evenodd" fill="#6D6F71" d="M2758.959,17.468v0.849h0.664c0.441,0,0.627,0.147,0.627,0.553
				v2.046c0,1.18,0.607,2.139,2.746,2.139c0.424,0,1.105-0.093,2.193-0.479v1.899c0,0.405-0.146,0.553-0.627,0.553h-0.645v0.848
				h5.051v-0.848h-0.664c-0.441,0-0.627-0.148-0.627-0.553v-5.604c0-0.406,0.186-0.553,0.627-0.553h0.664v-0.849h-4.664v0.849h0.258
				c0.443,0,0.627,0.147,0.627,0.553v2.875c-0.369,0.167-0.885,0.295-1.326,0.295c-0.85,0-1.125-0.424-1.125-1.364v-1.806
				c0-0.406,0.184-0.553,0.627-0.553h0.221v-0.849H2758.959z"/>
			<path fill-rule="evenodd" clip-rule="evenodd" fill="#6D6F71" d="M2779.055,24.123c-0.369,0.664-0.719,0.645-0.865,0.645
				c-0.369,0-0.352-0.499-0.352-0.903v-3.613c0-1.217-0.387-3.098-3.428-3.098c-2.453,0-3.613,1.18-3.613,2.23
				c0,0.461,0.295,1.125,1.123,1.125c0.701,0,1.162-0.479,1.162-1.106c0-0.24-0.092-0.461-0.166-0.608
				c-0.055-0.11-0.111-0.202-0.111-0.332c0-0.332,0.701-0.535,1.088-0.535c1.328,0,1.457,1.069,1.457,1.438v1.382
				c-3.945,0.295-5.236,2.083-5.236,3.484c0,0.848,0.738,1.954,2.471,1.954c1.18,0,1.863-0.351,2.986-1.069
				c0.332,0.683,0.813,1.069,1.586,1.069c1.014,0,1.732-0.701,2.342-1.751L2779.055,24.123z M2775.35,23.44
				c0,0.829-0.773,1.641-1.604,1.641c-0.904,0-0.941-0.885-0.941-1.364c0-1.328,1.254-1.788,2.545-2.175V23.44z"/>
		</g>
		<g>
			<path fill-rule="evenodd" clip-rule="evenodd" fill="#6D6F71" d="M2840.62,17.468v0.849h0.406c0.441,0,0.627,0.147,0.627,0.553
				v5.604c0,0.405-0.186,0.553-0.627,0.553h-0.406v0.848h4.553v-0.848h-0.404c-0.443,0-0.627-0.148-0.627-0.553v-2.636h1.031
				c0.941,0,1.199,0.276,1.365,1.346c0.184,1.18,0.404,3.005,2.082,3.005c1.125,0,1.918-1.18,1.936-2.691h-0.662
				c-0.074,0.553-0.223,1.327-0.627,1.327c-0.535,0-0.609-0.977-0.664-1.401c-0.221-1.548-1.42-1.936-2.342-2.01v-0.129
				c0.756-0.257,0.701-1.087,0.959-1.972c0.369-1.291,0.885-1.31,1.014-1.31c0.203,0,0.258,0.148,0.258,0.24
				s-0.092,0.166-0.146,0.239c-0.148,0.185-0.203,0.442-0.203,0.646c0,0.517,0.441,0.903,0.977,0.903
				c0.848,0,1.107-0.774,1.107-1.235c0-0.94-0.627-1.641-1.605-1.641c-0.404,0-1.658-0.019-2.174,1.844
				c-0.48,1.732-0.26,2.064-1.291,2.064h-1.014v-2.193c0-0.406,0.184-0.553,0.627-0.553h0.404v-0.849H2840.62z"/>
			<path fill-rule="evenodd" clip-rule="evenodd" fill="#6D6F71" d="M2856.35,20.252h0.701c0.201-1.07,0.865-2.25,2.266-2.25
				c0.941,0,1.477,0.553,1.477,1.401c0,1.604-1.328,1.604-1.494,1.604h-0.902v0.775h0.699c0.682,0,1.715,0.238,1.715,1.714
				c0,1.677-0.902,1.954-1.752,1.954c-1.123,0-1.566-0.627-1.566-0.866c0-0.203,0.369-0.461,0.479-0.683
				c0.057-0.11,0.094-0.221,0.094-0.332c0-0.443-0.223-1.162-1.051-1.162c-0.904,0-1.236,0.701-1.236,1.309
				c0,0.885,0.959,2.47,3.891,2.47c3.041,0,3.834-1.604,3.834-2.581c0-0.756-0.479-1.917-2.82-2.194v-0.11
				c1.18-0.093,2.451-0.793,2.451-1.991c0-0.885-0.811-2.157-3.17-2.157c-0.572,0-1.623,0.037-2.563,0.756l-0.387-0.627h-0.572
				L2856.35,20.252z"/>
			<path fill-rule="evenodd" clip-rule="evenodd" fill="#6D6F71" d="M2873.592,24.123c-0.367,0.664-0.719,0.645-0.865,0.645
				c-0.369,0-0.352-0.499-0.352-0.903v-3.613c0-1.217-0.387-3.098-3.428-3.098c-2.453,0-3.613,1.18-3.613,2.23
				c0,0.461,0.295,1.125,1.125,1.125c0.699,0,1.16-0.479,1.16-1.106c0-0.24-0.092-0.461-0.166-0.608
				c-0.055-0.11-0.109-0.202-0.109-0.332c0-0.332,0.699-0.535,1.088-0.535c1.326,0,1.455,1.069,1.455,1.438v1.382
				c-3.945,0.295-5.234,2.083-5.234,3.484c0,0.848,0.736,1.954,2.469,1.954c1.18,0,1.863-0.351,2.986-1.069
				c0.332,0.683,0.813,1.069,1.586,1.069c1.014,0,1.732-0.701,2.342-1.751L2873.592,24.123z M2869.887,23.44
				c0,0.829-0.773,1.641-1.604,1.641c-0.902,0-0.939-0.885-0.939-1.364c0-1.328,1.252-1.788,2.543-2.175V23.44z"/>
			<path fill-rule="evenodd" clip-rule="evenodd" fill="#6D6F71" d="M2874.944,17.468v0.849h0.664c0.441,0,0.627,0.147,0.627,0.553
				v5.604c0,0.405-0.186,0.553-0.627,0.553h-0.664v0.848h4.682v-0.848h-0.275c-0.443,0-0.627-0.148-0.627-0.553v-5.604
				c0-0.406,0.184-0.553,0.627-0.553h1.529c0.443,0,0.627,0.147,0.627,0.553v5.604c0,0.405-0.184,0.553-0.627,0.553h-0.275v0.848
				h4.682v-0.848h-0.664c-0.441,0-0.627-0.148-0.627-0.553v-5.604c0-0.406,0.186-0.553,0.627-0.553h0.664v-0.849H2874.944z"/>
			<path fill-rule="evenodd" clip-rule="evenodd" fill="#6D6F71" d="M2895.374,24.123c-0.369,0.664-0.719,0.645-0.867,0.645
				c-0.367,0-0.35-0.499-0.35-0.903v-3.613c0-1.217-0.387-3.098-3.43-3.098c-2.451,0-3.613,1.18-3.613,2.23
				c0,0.461,0.295,1.125,1.125,1.125c0.701,0,1.162-0.479,1.162-1.106c0-0.24-0.092-0.461-0.166-0.608
				c-0.055-0.11-0.111-0.202-0.111-0.332c0-0.332,0.701-0.535,1.088-0.535c1.328,0,1.457,1.069,1.457,1.438v1.382
				c-3.945,0.295-5.236,2.083-5.236,3.484c0,0.848,0.738,1.954,2.471,1.954c1.18,0,1.861-0.351,2.986-1.069
				c0.332,0.683,0.811,1.069,1.586,1.069c1.014,0,1.732-0.701,2.34-1.751L2895.374,24.123z M2891.668,23.44
				c0,0.829-0.775,1.641-1.604,1.641c-0.904,0-0.941-0.885-0.941-1.364c0-1.328,1.254-1.788,2.545-2.175V23.44z"/>
			<path fill-rule="evenodd" clip-rule="evenodd" fill="#6D6F71" d="M2897.461,18.316h0.424c0.922,0,0.996,0.516,0.996,0.995
				c0,0.773-0.24,2.359-0.535,3.558c-0.498,1.991-0.885,2.23-1.715,2.23h-0.424v3.355h0.646c0.018-1.18,0.645-2.581,2.359-2.581
				h2.986c0.922,0,2.803-0.092,2.857,2.581h0.645V25.1h-0.607c-0.535,0-0.664-0.295-0.664-0.516v-5.715
				c0-0.406,0.184-0.553,0.627-0.553h0.756v-0.849h-8.352V18.316z M2898.661,25.1c-0.057,0-0.094-0.037-0.111-0.092
				c0-0.037,0-0.056,0-0.092c0.258-1.604,0.664-1.457,1.014-4.591c0.186-1.678,0.092-2.009,0.904-2.009h0.645
				c0.793,0,0.83,0.257,0.83,0.479v5.715c0,0.517-0.406,0.59-0.609,0.59H2898.661z"/>
			<path fill-rule="evenodd" clip-rule="evenodd" fill="#6D6F71" d="M2906.592,17.468v0.849h0.111c0.553,0,0.811,0.405,0.994,0.773
				l3.338,6.747l-0.738,1.751c-0.109,0.258-0.35,0.996-0.865,0.996c-0.332,0-0.369-0.203-0.369-0.258
				c0-0.091,0.055-0.184,0.146-0.387c0.057-0.129,0.111-0.221,0.111-0.424c0-0.939-0.719-1.124-1.143-1.124
				c-0.406,0-1.07,0.258-1.07,1.529c0,0.793,0.664,1.567,1.863,1.567c1.549,0,1.99-1.014,2.359-1.899l3.41-8.24
				c0.203-0.479,0.406-0.996,1.254-1.032v-0.849h-3.301v0.849h0.535c0.221,0,0.572,0.091,0.572,0.516
				c0,0.147-0.02,0.369-0.094,0.535l-1.492,3.705h-0.092l-1.789-3.982c-0.055-0.11-0.092-0.221-0.092-0.387
				c0-0.24,0.203-0.387,0.479-0.387h0.443v-0.849H2906.592z"/>
			<path fill-rule="evenodd" clip-rule="evenodd" fill="#6D6F71" d="M2921.032,21.671c0,2.857,2.268,4.517,4.369,4.517
				c2.342,0,4.369-1.844,4.369-4.517s-2.027-4.517-4.369-4.517C2923.299,17.154,2921.032,18.813,2921.032,21.671z M2923.723,21.671
				c0-1.53,0.092-3.65,1.678-3.65c1.66,0,1.678,2.434,1.678,3.65c0,1.622-0.129,3.65-1.678,3.65
				C2923.815,25.321,2923.723,23.256,2923.723,21.671z"/>
			<path fill-rule="evenodd" clip-rule="evenodd" fill="#6D6F71" d="M2930.918,17.468v3.337h0.738
				c0.018-1.125,0.957-2.452,1.879-2.507c0.037,0,0.074,0,0.111,0c0.111,0,0.146,0.037,0.146,0.203v5.973
				c0,0.405-0.184,0.553-0.627,0.553h-0.662v0.848h5.068v-0.848h-0.662c-0.443,0-0.627-0.148-0.627-0.553V18.5
				c0-0.203,0.018-0.203,0.166-0.203c0.035,0,0.055,0,0.092,0c0.664,0.019,1.861,1.106,1.881,2.507h0.736v-3.337H2930.918z"/>
			<path fill-rule="evenodd" clip-rule="evenodd" fill="#6D6F71" d="M2944.602,13.338v0.866h0.865c0.572,0,0.941,0.129,0.941,0.774
				v9.255c0,0.645-0.369,0.774-0.941,0.774h-0.865v0.866h6.451v-0.866h-0.865c-0.572,0-0.941-0.13-0.941-0.774v-9.513
				c0-0.479,0.258-0.626,0.738-0.626h0.535c0.848,0,1.695,0.184,2.303,0.829c0.701,0.737,0.979,1.714,1.107,2.673h0.922v-4.258
				H2944.602z"/>
			<path fill-rule="evenodd" clip-rule="evenodd" fill="#6D6F71" d="M2955.887,17.468v0.849h0.756c0.424,0,0.535,0.313,0.535,0.607
				v9.033c0,0.406-0.186,0.554-0.627,0.554h-0.664v0.848h5.07v-0.848h-0.664c-0.443,0-0.627-0.148-0.627-0.554V26.15l-0.111-1.124
				h0.111c0.516,0.792,1.512,1.161,2.377,1.161c1.678,0,3.504-1.235,3.504-4.351c0-4.185-2.563-4.683-3.539-4.683
				c-1.217,0-1.918,0.516-2.342,1.162h-0.111v-1.162c-0.922,0.111-1.271,0.166-1.695,0.203
				C2957.122,17.431,2957.122,17.394,2955.887,17.468z M2961.27,18.334c1.328,0,1.586,1.642,1.586,3.374s-0.258,3.392-1.586,3.392
				c-1.529,0-1.658-2.193-1.658-3.392C2959.612,21.191,2959.575,18.334,2961.27,18.334z"/>
			<path fill-rule="evenodd" clip-rule="evenodd" fill="#6D6F71" d="M2966.75,17.468v0.849h0.664c0.441,0,0.625,0.147,0.625,0.553
				v5.604c0,0.405-0.184,0.553-0.625,0.553h-0.664v0.848h4.59v-0.848h-0.184c-0.443,0-0.627-0.148-0.627-0.553v-0.055l2.635-4.038
				h0.037v4.093c0,0.405-0.184,0.553-0.627,0.553h-0.184v0.848h4.59v-0.848h-0.664c-0.441,0-0.627-0.148-0.627-0.553v-5.604
				c0-0.406,0.186-0.553,0.627-0.553h0.664v-0.849h-4.59v0.849h0.184c0.48,0,0.627,0.165,0.627,0.387v0.056l-2.617,4.313h-0.055
				v-4.203c0-0.406,0.184-0.553,0.627-0.553h0.184v-0.849H2966.75z"/>
			<path fill-rule="evenodd" clip-rule="evenodd" fill="#6D6F71" d="M2978.133,17.468v0.849h0.662c0.443,0,0.627,0.147,0.627,0.553
				v5.604c0,0.405-0.184,0.553-0.627,0.553h-0.662v0.848h4.793v-0.848h-0.389c-0.441,0-0.625-0.148-0.625-0.553v-2.618h2.635v2.618
				c0,0.405-0.184,0.553-0.627,0.553h-0.404v0.848h4.811v-0.848h-0.664c-0.441,0-0.625-0.148-0.625-0.553v-5.604
				c0-0.406,0.184-0.553,0.625-0.553h0.664v-0.849h-4.811v0.849h0.404c0.443,0,0.627,0.147,0.627,0.553v2.138h-2.635v-2.138
				c0-0.406,0.184-0.553,0.625-0.553h0.389v-0.849H2978.133z"/>
			<path fill-rule="evenodd" clip-rule="evenodd" fill="#6D6F71" d="M2989.364,17.468v0.849h0.664c0.441,0,0.627,0.147,0.627,0.553
				v5.604c0,0.405-0.186,0.553-0.627,0.553h-0.664v0.848h5.936c2.342,0,2.949-1.401,2.949-2.212c0-0.94-0.607-1.936-2.691-2.231
				v-0.092c1.236-0.258,2.23-0.774,2.23-1.88c0-0.516-0.146-1.991-2.93-1.991H2989.364z M2993.143,21.081v-2.378
				c0-0.332,0.313-0.387,0.479-0.387h0.424c0.406,0,1.273,0.11,1.273,1.382c0,0.646-0.277,1.383-1.549,1.383H2993.143z
				 M2993.143,21.818h0.83c1.215,0,1.584,0.534,1.584,1.696c0,1.309-0.959,1.512-1.326,1.512h-0.553
				c-0.26,0-0.535-0.056-0.535-0.461V21.818z"/>
			<path fill-rule="evenodd" clip-rule="evenodd" fill="#6D6F71" d="M2999.6,17.468v0.849h0.662c0.443,0,0.627,0.147,0.627,0.553
				v5.604c0,0.405-0.184,0.553-0.627,0.553h-0.662v0.848h4.59v-0.848h-0.186c-0.441,0-0.627-0.148-0.627-0.553v-0.055l2.637-4.038
				h0.037v4.093c0,0.405-0.184,0.553-0.627,0.553h-0.184v0.848h4.59v-0.848h-0.664c-0.441,0-0.627-0.148-0.627-0.553v-5.604
				c0-0.406,0.186-0.553,0.627-0.553h0.664v-0.849h-4.59v0.849h0.184c0.48,0,0.627,0.165,0.627,0.387v0.056l-2.617,4.313h-0.057
				v-4.203c0-0.406,0.186-0.553,0.627-0.553h0.186v-0.849H2999.6z"/>
			<path fill-rule="evenodd" clip-rule="evenodd" fill="#6D6F71" d="M3010.594,17.468v0.849h0.664c0.443,0,0.627,0.147,0.627,0.553
				v2.046c0,1.18,0.607,2.139,2.746,2.139c0.424,0,1.107-0.093,2.195-0.479v1.899c0,0.405-0.148,0.553-0.627,0.553h-0.646v0.848
				h5.051v-0.848h-0.662c-0.443,0-0.627-0.148-0.627-0.553v-5.604c0-0.406,0.184-0.553,0.627-0.553h0.662v-0.849h-4.664v0.849h0.26
				c0.441,0,0.627,0.147,0.627,0.553v2.875c-0.369,0.167-0.887,0.295-1.328,0.295c-0.848,0-1.125-0.424-1.125-1.364v-1.806
				c0-0.406,0.186-0.553,0.627-0.553h0.221v-0.849H3010.594z"/>
			<path fill-rule="evenodd" clip-rule="evenodd" fill="#6D6F71" d="M3030.692,24.123c-0.369,0.664-0.721,0.645-0.867,0.645
				c-0.369,0-0.35-0.499-0.35-0.903v-3.613c0-1.217-0.389-3.098-3.43-3.098c-2.451,0-3.613,1.18-3.613,2.23
				c0,0.461,0.295,1.125,1.125,1.125c0.699,0,1.16-0.479,1.16-1.106c0-0.24-0.092-0.461-0.166-0.608
				c-0.055-0.11-0.109-0.202-0.109-0.332c0-0.332,0.699-0.535,1.088-0.535c1.326,0,1.455,1.069,1.455,1.438v1.382
				c-3.945,0.295-5.234,2.083-5.234,3.484c0,0.848,0.736,1.954,2.471,1.954c1.18,0,1.861-0.351,2.986-1.069
				c0.332,0.683,0.811,1.069,1.584,1.069c1.014,0,1.734-0.701,2.342-1.751L3030.692,24.123z M3026.985,23.44
				c0,0.829-0.773,1.641-1.604,1.641c-0.902,0-0.939-0.885-0.939-1.364c0-1.328,1.254-1.788,2.543-2.175V23.44z"/>
		</g>
		<g>
			<g>
				<path fill-rule="evenodd" clip-rule="evenodd" fill="#FFFFFF" stroke="#000000" d="M20.998,1368.854
					c-8.487,0-15.369,5.846-15.369,13.063l0,0c0,7.217,6.882,13.064,15.369,13.064h13.064c8.487,0,15.369-5.848,15.369-13.064l0,0
					c0-7.217-6.882-13.063-15.369-13.063H20.998z"/>
			</g>
			<g>
				<path fill-rule="evenodd" clip-rule="evenodd" fill="#6D6F71" d="M25.744,1384.582h-1.862v-9.051H22.96l-7.024,9.051v1.105
					h5.106v1.145c0,0.756-0.553,0.736-0.958,0.736h-0.903v0.867h6.563v-0.867h-0.903c-0.405,0-0.958,0.02-0.958-0.736v-1.145h1.862
					V1384.582z M21.043,1379.531v5.051H17.08L21.043,1379.531z"/>
				<path fill-rule="evenodd" clip-rule="evenodd" fill="#6D6F71" d="M31.596,1388.805c3.281,0,4.904-3.541,4.904-6.637
					c0-4.627-2.784-6.637-4.959-6.637c-2.434,0-4.922,2.359-4.922,6.637C26.618,1386.113,28.793,1388.805,31.596,1388.805z
					 M31.559,1387.938c-1.309,0-1.622-1.217-1.732-1.973c-0.129-0.848-0.185-2.268-0.185-3.76c0-2.305,0.11-3.264,0.203-3.799
					c0.166-0.959,0.461-2.01,1.714-2.01c1.106,0,1.53,0.793,1.715,2.01c0.055,0.406,0.203,1.531,0.203,3.799
					c0,0.773-0.019,2.672-0.184,3.76C33.181,1386.721,32.868,1387.938,31.559,1387.938z"/>
				<path fill-rule="evenodd" clip-rule="evenodd" fill="#6D6F71" d="M37.944,1377.467c0,1.051,0.848,1.936,1.936,1.936
					c1.069,0,1.936-0.867,1.936-1.936c0-1.088-0.885-1.936-1.936-1.936C38.811,1375.531,37.944,1376.396,37.944,1377.467z
					 M38.866,1377.467c0-0.424,0.369-0.996,1.014-0.996c0.553,0,0.996,0.443,0.996,0.996s-0.442,0.994-0.996,0.994
					C39.235,1378.461,38.866,1377.891,38.866,1377.467z"/>
			</g>
		</g>
		<g>
			<g>
				<path fill-rule="evenodd" clip-rule="evenodd" fill="#FFFFFF" stroke="#000000" d="M20.998,373.987
					c-8.487,0-15.369,5.847-15.369,13.063l0,0c0,7.217,6.882,13.064,15.369,13.064h13.064c8.487,0,15.369-5.847,15.369-13.064l0,0
					c0-7.216-6.882-13.063-15.369-13.063H20.998z"/>
			</g>
			<g>
				<path fill-rule="evenodd" clip-rule="evenodd" fill="#6D6F71" d="M18.48,383.32c0.498,0.074,1.088,0.129,1.641,0.129
					c2.12,0,3.834-0.461,4.609-2.838h-1.033c-0.756,0.848-1.659,1.068-2.433,1.068c-1.807,0-2.544-0.719-2.618-0.792h-0.682
					l-0.738,5.383c-0.074,0.571-0.295,0.626-0.295,0.958c0,0.351,0.203,0.535,0.535,0.535s0.479-0.35,0.553-0.516
					c0.258-0.626,1.216-1.106,2.046-1.106c1.106,0,2.378,0.627,2.378,3.558c0,2.784-1.493,3.3-2.396,3.3
					c-1.088,0-1.641-0.553-1.641-0.848c0-0.314,0.608-0.442,0.921-1.033c0.092-0.166,0.166-0.332,0.166-0.516
					c0-0.664-0.35-1.549-1.53-1.549c-0.701,0-1.604,0.498-1.604,1.733c0,0.977,0.626,1.714,0.996,2.065
					c0.885,0.811,2.268,1.087,3.263,1.087c2.895,0,4.775-2.175,4.775-4.147c0-2.138-1.033-4.793-4.369-4.793
					c-0.424,0-1.641,0.019-2.839,0.867H18.13L18.48,383.32z"/>
				<path fill-rule="evenodd" clip-rule="evenodd" fill="#6D6F71" d="M31.614,393.938c3.281,0,4.904-3.539,4.904-6.636
					c0-4.627-2.784-6.637-4.959-6.637c-2.434,0-4.922,2.359-4.922,6.637C26.636,391.247,28.812,393.938,31.614,393.938z
					 M31.577,393.072c-1.309,0-1.623-1.217-1.733-1.972c-0.129-0.849-0.184-2.268-0.184-3.761c0-2.304,0.111-3.263,0.203-3.797
					c0.166-0.959,0.461-2.01,1.715-2.01c1.106,0,1.53,0.793,1.714,2.01c0.056,0.405,0.203,1.53,0.203,3.797
					c0,0.774-0.019,2.673-0.185,3.761C33.199,391.854,32.886,393.072,31.577,393.072z"/>
				<path fill-rule="evenodd" clip-rule="evenodd" fill="#6D6F71" d="M37.963,382.601c0,1.051,0.848,1.936,1.936,1.936
					c1.069,0,1.936-0.866,1.936-1.936c0-1.087-0.885-1.936-1.936-1.936C38.829,380.665,37.963,381.531,37.963,382.601z
					 M38.884,382.601c0-0.424,0.369-0.996,1.014-0.996c0.553,0,0.995,0.443,0.995,0.996s-0.442,0.996-0.995,0.996
					C39.253,383.596,38.884,383.024,38.884,382.601z"/>
			</g>
		</g>
		<g>
			<path fill-rule="evenodd" clip-rule="evenodd" fill="#6D6F71" d="M848.01,222.627c-1.962,0.354-4.203-0.392-5.114-2.438
				c-1.06-2.381,0.815-4.416,4.571-6.088c4.368-1.946,6.518-1.3,7.322,0.51c0.596,1.338,0.393,3.478-2.756,5.776l0.413,0.925
				l4.965-2.4l-0.333-0.748l-1.109-0.213c0.293-1.568,0.225-2.832-0.423-4.288c-1.525-3.423-5.688-4.729-9.622-2.976
				c-3.521,1.567-6.256,5.425-4.356,9.694c1.559,3.5,4.807,3.704,6.917,3.307L848.01,222.627z"/>
			<path fill-rule="evenodd" clip-rule="evenodd" fill="#6D6F71" d="M851.446,232.948c-1.402-0.153-2.733-0.411-3.361-1.759
				c-0.465-0.994-0.423-2.486,2.315-3.692l2.621,5.62l0.489-0.228c2.711-1.264,3.814-3.892,2.75-6.175
				c-1.265-2.712-4.455-3.338-6.992-2.155c-2.342,1.091-3.927,3.708-2.579,6.596c0.8,1.717,1.915,2.479,4.653,2.747L851.446,232.948
				z M851.318,227.07l0.82-0.384c2.086-0.973,2.933-0.179,3.224,0.446c0.583,1.249-1.621,2.229-1.895,2.355
				c-0.585,0.273-0.832,0.412-0.984,0.082L851.318,227.07z"/>
			<path fill-rule="evenodd" clip-rule="evenodd" fill="#6D6F71" d="M858.361,232.006l-0.892,0.435l0.341,0.697
				c0.227,0.465,0.167,0.732-0.26,0.941l-5.884,2.869c-0.425,0.208-0.674,0.09-0.901-0.374l-0.339-0.698l-0.89,0.436l3.04,6.231
				c1.198,2.457,2.981,2.379,3.831,1.964c0.987-0.483,1.72-1.63,0.963-3.969l0.098-0.046c0.902,1.163,1.955,1.943,3.115,1.379
				c0.543-0.264,2.016-1.175,0.591-4.098L858.361,232.006z M856.503,237.824l2.496-1.217c0.349-0.17,0.566,0.13,0.652,0.305
				l0.217,0.444c0.208,0.426,0.535,1.393-0.801,2.045c-0.675,0.329-1.591,0.417-2.243-0.919L856.503,237.824z M855.729,238.202
				l0.425,0.87c0.623,1.276,0.251,1.937-0.968,2.532c-1.375,0.67-2.078-0.232-2.267-0.62l-0.284-0.58
				c-0.132-0.271-0.214-0.591,0.21-0.798L855.729,238.202z"/>
			<path fill-rule="evenodd" clip-rule="evenodd" fill="#6D6F71" d="M861.357,253.359c-1.405-0.129-2.741-0.363-3.393-1.699
				c-0.48-0.986-0.465-2.479,2.252-3.731l2.718,5.572l0.485-0.236c2.69-1.312,3.745-3.958,2.642-6.223
				c-1.312-2.69-4.514-3.261-7.029-2.034c-2.322,1.132-3.859,3.775-2.463,6.639c0.832,1.704,1.96,2.445,4.701,2.666L861.357,253.359
				z M861.126,247.484l0.813-0.396c2.07-1.01,2.928-0.231,3.23,0.388c0.605,1.24-1.582,2.257-1.852,2.39
				c-0.581,0.282-0.823,0.425-0.983,0.096L861.126,247.484z"/>
			<path fill-rule="evenodd" clip-rule="evenodd" fill="#6D6F71" d="M868.269,252.348l-0.891,0.436l0.388,0.792
				c0.217,0.444-0.056,0.722-0.365,0.874l-9.482,4.623c-0.426,0.209-0.675,0.09-0.902-0.373l-0.339-0.698l-0.89,0.435l2.595,5.321
				l0.89-0.434l-0.341-0.696c-0.225-0.465-0.165-0.732,0.261-0.941l1.896-0.926l1.124-0.69l0.057,0.115
				c-0.569,0.947-0.446,2.181-0.003,3.091c0.859,1.762,3.091,3.044,6.361,1.45c4.392-2.144,3.603-5.087,3.103-6.112
				c-0.623-1.279-1.524-1.749-2.418-1.864l-0.057-0.116l1.219-0.594c-0.587-0.911-0.825-1.25-1.081-1.677
				C868.939,253.627,868.979,253.607,868.269,252.348z M870.115,258.442c0.68,1.393-0.91,2.503-2.729,3.392
				c-1.819,0.885-3.692,1.465-4.373,0.072c-0.784-1.605,1.453-2.864,2.711-3.479C866.266,258.163,869.247,256.662,870.115,258.442z"
				/>
			<path fill-rule="evenodd" clip-rule="evenodd" fill="#6D6F71" d="M873.876,263.608l-0.882,0.451l0.353,0.69
				c0.234,0.46,0.179,0.73-0.243,0.945l-5.832,2.972c-0.423,0.215-0.674,0.103-0.91-0.36l-0.351-0.69l-0.883,0.45l2.543,4.988
				l0.883-0.449l-0.208-0.404c-0.234-0.461-0.177-0.731,0.243-0.945l2.726-1.389l1.396,2.744L869.988,274
				c-0.423,0.214-0.672,0.101-0.908-0.359l-0.214-0.423l-0.883,0.45l2.552,5.008l0.882-0.451l-0.353-0.69
				c-0.235-0.461-0.178-0.729,0.243-0.945l5.832-2.972c0.423-0.214,0.674-0.1,0.908,0.36l0.353,0.691l0.883-0.451l-2.552-5.008
				l-0.883,0.451l0.215,0.422c0.235,0.461,0.178,0.73-0.243,0.945l-2.227,1.133l-1.396-2.743l2.225-1.133
				c0.421-0.216,0.672-0.103,0.906,0.357l0.207,0.403l0.883-0.449L873.876,263.608z"/>
			<path fill-rule="evenodd" clip-rule="evenodd" fill="#6D6F71" d="M879.771,275.338l-0.881,0.45l0.352,0.69
				c0.234,0.461,0.178,0.731-0.243,0.946l-5.833,2.972c-0.42,0.215-0.672,0.102-0.907-0.36l-0.353-0.69l-0.881,0.45l2.745,5.392
				c1.603,3.146,3.556,2.755,4.36,2.345c2.15-1.096,1.417-3.574,0.899-4.59l-0.919-1.805l2.207-1.123
				c0.422-0.216,0.674-0.102,0.908,0.357l0.351,0.692l0.882-0.45L879.771,275.338z M877.208,281.597l0.499,0.979
				c0.177,0.345,0.435,1.423-0.907,2.105c-0.5,0.254-1.211,0.424-1.675,0.226c-0.405-0.181-0.657-0.535-0.735-0.689l-0.177-0.345
				c-0.156-0.307-0.225-0.634,0.12-0.81L877.208,281.597z M884.414,284.451l-0.883,0.45l0.353,0.691
				c0.234,0.461,0.179,0.73-0.243,0.945l-5.832,2.971c-0.423,0.216-0.674,0.103-0.908-0.357l-0.353-0.692l-0.882,0.449l2.69,5.278
				l0.881-0.451l-0.351-0.69c-0.236-0.461-0.179-0.73,0.243-0.945l5.832-2.972c0.422-0.214,0.672-0.102,0.908,0.36l0.353,0.691
				l0.881-0.451L884.414,284.451z"/>
			<path fill-rule="evenodd" clip-rule="evenodd" fill="#6D6F71" d="M887.668,290.877l-0.883,0.45l0.352,0.69
				c0.235,0.461,0.18,0.731-0.243,0.945l-5.83,2.973c-0.424,0.215-0.674,0.1-0.91-0.36l-0.351-0.69l-0.882,0.45l2.435,4.776
				l0.883-0.449l-0.1-0.192c-0.234-0.461-0.177-0.731,0.243-0.946l0.059-0.028l5.599,0.602l0.02,0.038l-4.258,2.17
				c-0.422,0.216-0.674,0.103-0.908-0.358l-0.098-0.192l-0.883,0.45l2.434,4.776l0.882-0.448l-0.351-0.69
				c-0.234-0.463-0.18-0.731,0.243-0.946l5.832-2.972c0.422-0.216,0.674-0.103,0.908,0.358l0.351,0.69l0.883-0.448l-2.434-4.776
				l-0.882,0.448l0.098,0.191c0.255,0.5,0.159,0.742-0.071,0.859l-0.059,0.03l-5.875-0.438l-0.03-0.058l4.375-2.228
				c0.421-0.216,0.672-0.102,0.907,0.357l0.099,0.192l0.883-0.449L887.668,290.877z M891.776,295.479
				c0.752,1.478,2.205,2.621,3.452,1.984c0.998-0.507,0.914-1.479,0.254-2.11c-0.357-0.228-0.695-0.273-1.099-0.069
				c-0.192,0.099-0.363,0.234-0.449,0.4c-0.095,0.191-0.13,0.453-0.342,0.561c-0.154,0.078-0.596,0.111-1.202-1.079
				c-0.597-1.169-0.32-1.529-0.167-1.607c0.172-0.087,0.453,0.036,0.656,0.054c0.201,0.019,0.404-0.013,0.596-0.111
				c0.536-0.273,0.744-0.862,0.452-1.438c-0.342-0.672-0.96-0.937-1.729-0.546C890.817,292.222,891.141,294.229,891.776,295.479z"/>
			<path fill-rule="evenodd" clip-rule="evenodd" fill="#6D6F71" d="M896.056,307.1l-0.874,0.466l0.363,0.685
				c0.243,0.456,0.192,0.728-0.227,0.95l-5.779,3.072c-0.418,0.222-0.671,0.114-0.914-0.342l-0.363-0.685l-0.875,0.465l2.568,4.828
				l0.874-0.465l-0.152-0.285c-0.242-0.456-0.19-0.727,0.227-0.949l5.779-3.073c0.419-0.224,0.672-0.112,0.914,0.344l0.839,1.576
				c0.243,0.456,0.192,0.728-0.227,0.95l-5.779,3.073c-0.419,0.222-0.671,0.113-0.914-0.343l-0.152-0.285l-0.875,0.465l2.568,4.827
				l0.875-0.465l-0.365-0.685c-0.242-0.456-0.19-0.727,0.227-0.948l5.779-3.073c0.419-0.222,0.672-0.113,0.914,0.344l0.365,0.684
				l0.874-0.465L896.056,307.1z"/>
			<path fill-rule="evenodd" clip-rule="evenodd" fill="#6D6F71" d="M897.956,321.271c-2.947,1.567-3.414,4.813-2.262,6.981
				c1.284,2.415,4.297,3.494,7.053,2.029s3.546-4.568,2.262-6.981C903.858,321.133,900.902,319.704,897.956,321.271z
				 M899.433,324.047c1.576-0.839,3.813-1.906,4.683-0.271c0.91,1.711-1.59,3.063-2.845,3.731c-1.673,0.89-3.835,1.869-4.685,0.271
				C895.719,326.143,897.797,324.916,899.433,324.047z"/>
			<path fill-rule="evenodd" clip-rule="evenodd" fill="#6D6F71" d="M908.67,330.686l-0.868,0.479l0.356,0.641
				c0.617,1.112-0.299,1.593-0.958,1.959c-0.716,0.396-3.194,1.696-4.52,2.063c-0.189,0.056-1.229,0.312-1.564-0.291
				c-0.051-0.094-0.096-0.265-0.021-0.307c0.15-0.084,0.48-0.021,0.759-0.053c0.132-0.025,0.268-0.05,0.399-0.123
				c0.696-0.386,0.77-1.141,0.457-1.707c-0.365-0.658-1.248-1.005-2.207-0.474c-0.829,0.459-1.41,1.545-0.596,3.014
				c1.035,1.864,3.157,1.031,6.027-0.363c2.759-1.331,3.284-1.893,4.005-0.594c0.365,0.66,0.474,0.992-0.58,1.576l-5.216,2.891
				c-0.414,0.231-0.669,0.126-0.92-0.326l-0.375-0.678l-0.866,0.48l2.87,5.179l0.866-0.48l-0.375-0.677
				c-0.25-0.453-0.204-0.724,0.21-0.954l5.725-3.173c0.414-0.228,0.669-0.125,0.918,0.327l0.375,0.678l0.868-0.479L908.67,330.686z"
				/>
			<path fill-rule="evenodd" clip-rule="evenodd" fill="#6D6F71" d="M907.701,343.846c-2.136,1.381-1.684,2.81-1.382,3.332
				c0.98,1.698,2.872,0.754,3.997,0.378c0.813-0.27,1.459-0.27,1.836,0.381l0.689,1.193l-2.312,1.334
				c-0.412,0.237-0.667,0.139-0.925-0.311l-0.389-0.671l-0.857,0.495l2.96,5.128l0.858-0.495l-0.389-0.671
				c-0.258-0.447-0.216-0.721,0.193-0.956l5.668-3.274c0.412-0.235,0.668-0.137,0.926,0.311l0.387,0.673l0.857-0.495l-3.218-5.575
				c-1.927-3.338-3.537-2.683-4.152-2.327c-0.43,0.247-1.156,0.667-1.24,1.858c-0.084,1.144,0.572,2.282,0.616,2.355l-0.113,0.064
				c-2.094-2.419-3.919,0.273-4.501-0.732c-0.15-0.261-0.063-0.758,0.844-1.381L907.701,343.846z M913.531,348.733l-0.689-1.193
				c-0.162-0.281-0.548-1.424,0.647-2.238c0.075-0.044,0.168-0.098,0.243-0.142c1.675-0.843,2.388,0.436,2.594,0.79l0.225,0.393
				c0.279,0.484-0.111,0.71-0.316,0.829L913.531,348.733z"/>
			<path fill-rule="evenodd" clip-rule="evenodd" fill="#6D6F71" d="M920.315,351.063l-0.857,0.495l0.441,0.766
				c0.248,0.428-0.004,0.724-0.303,0.895l-9.137,5.275c-0.41,0.236-0.667,0.138-0.925-0.31l-0.387-0.673l-0.859,0.496l2.96,5.127
				l0.859-0.495l-0.387-0.671c-0.258-0.447-0.218-0.721,0.192-0.956l1.829-1.057l1.071-0.769l0.066,0.112
				c-0.501,0.986-0.293,2.208,0.213,3.085c0.979,1.696,3.295,2.82,6.445,1.001c4.233-2.444,3.239-5.327,2.669-6.315
				c-0.71-1.231-1.641-1.636-2.541-1.69l-0.064-0.111l1.174-0.679c-0.648-0.867-0.91-1.188-1.195-1.597
				C921.075,352.291,921.111,352.27,920.315,351.063z M922.582,357.013c0.776,1.344-0.732,2.563-2.485,3.574
				c-1.753,1.013-3.582,1.72-4.356,0.377c-0.895-1.546,1.249-2.959,2.462-3.658C918.725,357.004,921.593,355.299,922.582,357.013z"
				/>
			<path fill-rule="evenodd" clip-rule="evenodd" fill="#6D6F71" d="M926.695,361.873l-0.849,0.511l0.399,0.663
				c0.266,0.444,0.228,0.718-0.177,0.961l-5.611,3.371c-0.405,0.243-0.664,0.147-0.931-0.294l-0.399-0.665l-0.848,0.51l2.883,4.798
				l0.85-0.51l-0.234-0.388c-0.266-0.444-0.228-0.717,0.177-0.96l2.621-1.576l1.585,2.641l-2.621,1.574
				c-0.405,0.243-0.664,0.147-0.931-0.294l-0.243-0.407l-0.85,0.51l2.894,4.817l0.85-0.51l-0.399-0.664
				c-0.267-0.444-0.23-0.718,0.177-0.961l5.611-3.371c0.405-0.243,0.664-0.148,0.931,0.294l0.399,0.665l0.848-0.51l-2.896-4.817
				l-0.848,0.511l0.245,0.405c0.266,0.444,0.228,0.717-0.177,0.96l-2.141,1.287l-1.585-2.639l2.14-1.287
				c0.405-0.243,0.664-0.148,0.931,0.295l0.231,0.387l0.85-0.511L926.695,361.873z"/>
			<path fill-rule="evenodd" clip-rule="evenodd" fill="#6D6F71" d="M933.45,373.095l-0.848,0.509l0.399,0.665
				c0.266,0.443,0.229,0.716-0.176,0.961l-5.611,3.371c-0.407,0.243-0.665,0.147-0.931-0.295l-0.399-0.665l-0.85,0.51l3.116,5.187
				c1.819,3.027,3.738,2.5,4.514,2.035c2.067-1.241,1.164-3.664,0.577-4.643l-1.043-1.734l2.123-1.274
				c0.407-0.245,0.667-0.15,0.931,0.294l0.399,0.663l0.85-0.51L933.45,373.095z M931.332,379.517l0.565,0.941
				c0.198,0.331,0.531,1.388-0.759,2.164c-0.48,0.288-1.177,0.506-1.654,0.341c-0.417-0.15-0.695-0.486-0.784-0.635l-0.199-0.332
				c-0.177-0.296-0.269-0.617,0.062-0.816L931.332,379.517z M938.718,381.861l-0.85,0.51l0.399,0.664
				c0.267,0.442,0.229,0.716-0.177,0.96l-5.609,3.372c-0.407,0.243-0.665,0.146-0.932-0.296l-0.398-0.665l-0.85,0.51l3.05,5.077
				l0.848-0.511l-0.399-0.664c-0.266-0.443-0.228-0.717,0.177-0.961l5.611-3.37c0.405-0.244,0.664-0.15,0.931,0.294l0.399,0.664
				l0.85-0.511L938.718,381.861z"/>
			<path fill-rule="evenodd" clip-rule="evenodd" fill="#6D6F71" d="M942.501,387.958l-0.85,0.509l0.399,0.665
				c0.266,0.443,0.228,0.716-0.177,0.961l-5.611,3.371c-0.405,0.243-0.664,0.147-0.931-0.295l-0.399-0.666l-0.848,0.511l2.761,4.597
				l0.85-0.511l-0.111-0.185c-0.266-0.443-0.228-0.716,0.177-0.961l0.056-0.033l5.627,0.21l0.021,0.037l-4.097,2.462
				c-0.407,0.243-0.665,0.147-0.931-0.294l-0.111-0.187l-0.848,0.511l2.76,4.596l0.85-0.51l-0.399-0.664
				c-0.266-0.444-0.23-0.717,0.175-0.96l5.611-3.372c0.405-0.243,0.665-0.148,0.931,0.294l0.399,0.665l0.85-0.51l-2.762-4.595
				l-0.85,0.51l0.111,0.183c0.289,0.48,0.212,0.728-0.009,0.861l-0.057,0.033l-5.893-0.027l-0.033-0.054l4.209-2.529
				c0.405-0.245,0.664-0.148,0.931,0.296l0.111,0.183l0.849-0.509L942.501,387.958z M946.92,392.261
				c0.853,1.42,2.382,2.461,3.582,1.739c0.961-0.576,0.808-1.54,0.107-2.123c-0.374-0.202-0.713-0.225-1.101,0.008
				c-0.185,0.111-0.348,0.259-0.42,0.43c-0.081,0.198-0.101,0.461-0.304,0.582c-0.147,0.09-0.587,0.153-1.274-0.99
				c-0.677-1.126-0.425-1.504-0.277-1.593c0.165-0.101,0.453,0.005,0.657,0.008c0.203,0.003,0.402-0.042,0.585-0.153
				c0.518-0.31,0.685-0.911,0.351-1.465c-0.389-0.646-1.023-0.868-1.762-0.424C945.736,389.078,946.198,391.06,946.92,392.261z"/>
			<path fill-rule="evenodd" clip-rule="evenodd" fill="#6D6F71" d="M951.648,403.536l-0.866,0.48l0.229,0.414
				c0.251,0.453,0.204,0.724-0.21,0.955l-5.725,3.173c-0.414,0.229-0.669,0.125-0.918-0.327l-0.231-0.414l-0.864,0.48l2.577,4.65
				l0.866-0.48l-0.229-0.414c-0.251-0.451-0.204-0.724,0.21-0.952l2.693-1.493l0.584,1.055c0.533,0.959,0.396,1.38-0.602,2.155
				c-1.1,0.856-2.84,2.115-1.89,3.828c0.636,1.149,2.291,1.291,3.846,0.453l-0.375-0.677c-0.606,0.238-1.481,0.525-1.711,0.111
				c-0.303-0.546,0.653-1.175,1.056-1.471c1.456-1.103,1.172-2.546,0.727-3.529l0.132-0.074c0.692,0.626,1.509,0.101,2.558-0.137
				c1.527-0.354,1.839,0.162,1.911,0.295c0.114,0.207-0.004,0.347-0.099,0.399c-0.093,0.051-0.222,0-0.327-0.016
				c-0.273-0.046-0.567,0.042-0.775,0.158c-0.526,0.292-0.672,0.963-0.369,1.508c0.48,0.868,1.417,0.694,1.889,0.433
				c0.96-0.533,1.321-1.57,0.767-2.568c-0.229-0.414-0.92-1.705-3.114-1.178c-2.042,0.492-2.255,0.907-2.84-0.149l-0.573-1.035
				l2.24-1.242c0.414-0.231,0.669-0.125,0.921,0.326l0.228,0.414l0.868-0.479L951.648,403.536z"/>
			<path fill-rule="evenodd" clip-rule="evenodd" fill="#6D6F71" d="M957.691,414.386l-0.858,0.495l0.441,0.764
				c0.248,0.429-0.005,0.725-0.303,0.896l-9.135,5.275c-0.412,0.236-0.668,0.136-0.926-0.312l-0.389-0.671l-0.856,0.496l2.96,5.127
				l0.857-0.495l-0.387-0.673c-0.26-0.447-0.218-0.719,0.193-0.956l1.827-1.055l1.073-0.769l0.063,0.111
				c-0.499,0.986-0.292,2.208,0.216,3.085c0.979,1.698,3.293,2.82,6.446,1.001c4.233-2.443,3.239-5.325,2.668-6.313
				c-0.711-1.23-1.642-1.637-2.542-1.689l-0.063-0.111l1.174-0.679c-0.65-0.867-0.911-1.19-1.195-1.597
				C958.45,415.613,958.487,415.593,957.691,414.386z M959.958,420.336c0.774,1.342-0.734,2.561-2.485,3.574
				c-1.753,1.012-3.582,1.719-4.358,0.376c-0.893-1.547,1.25-2.959,2.462-3.66C956.099,420.327,958.968,418.62,959.958,420.336z"/>
			<path fill-rule="evenodd" clip-rule="evenodd" fill="#6D6F71" d="M963.858,424.971l-0.85,0.51l0.066,0.111
				c0.333,0.552,0.083,1.055-0.176,1.462l-4.748,7.398l-2.198,0.315c-0.324,0.043-1.207,0.248-1.516-0.269
				c-0.201-0.332-0.02-0.491,0.036-0.524c0.093-0.056,0.217-0.056,0.476-0.085c0.164-0.022,0.288-0.022,0.491-0.145
				c0.941-0.565,0.694-1.396,0.438-1.82c-0.243-0.407-0.901-0.915-2.175-0.15c-0.794,0.476-1.169,1.607-0.449,2.807
				c0.932,1.551,2.212,1.383,3.32,1.221l10.302-1.543c0.602-0.086,1.242-0.192,1.788,0.634l0.85-0.511l-1.986-3.303l-0.848,0.511
				l0.321,0.534c0.132,0.222,0.251,0.627-0.174,0.883c-0.147,0.088-0.38,0.204-0.59,0.229l-4.608,0.735l-0.056-0.094l2.912-4.185
				c0.077-0.123,0.165-0.225,0.33-0.324c0.24-0.144,0.511-0.03,0.677,0.246l0.266,0.443l0.85-0.51L963.858,424.971z"/>
			<path fill-rule="evenodd" clip-rule="evenodd" fill="#6D6F71" d="M969.844,435.025l-0.85,0.51l0.399,0.664
				c0.266,0.442,0.229,0.716-0.177,0.96l-5.611,3.372c-0.405,0.243-0.663,0.146-0.931-0.296l-0.399-0.665l-0.848,0.51l3.049,5.077
				l0.85-0.511l-0.399-0.665c-0.266-0.443-0.229-0.716,0.177-0.959l5.482-3.295c0.201-0.121,0.643-0.437,0.992,0.107
				c0.045,0.075,0.101,0.167,0.144,0.241c0.155,0.258,0.574,0.912,0.315,2.07c-0.18,0.913-0.641,1.189-1.387,1.913l0.399,0.666
				l3.397-2.041L969.844,435.025z"/>
		</g>
		<g>
			<g>
				<path fill-rule="evenodd" clip-rule="evenodd" fill="#FFFFFF" stroke="#000000" d="M3645.44,1112.982
					c-8.486,0-15.369,5.848-15.369,13.064l0,0c0,7.217,6.883,13.064,15.369,13.064h13.064c8.488,0,15.369-5.848,15.369-13.064l0,0
					c0-7.217-6.881-13.064-15.369-13.064H3645.44z"/>
			</g>
			<g>
				<path fill-rule="evenodd" clip-rule="evenodd" fill="#6D6F71" d="M3642.924,1122.316c0.496,0.072,1.086,0.129,1.641,0.129
					c2.119,0,3.834-0.461,4.607-2.84h-1.031c-0.756,0.848-1.66,1.07-2.434,1.07c-1.807,0-2.545-0.719-2.619-0.793h-0.682
					l-0.736,5.383c-0.074,0.57-0.295,0.627-0.295,0.959c0,0.35,0.201,0.533,0.533,0.533s0.48-0.35,0.555-0.516
					c0.258-0.627,1.215-1.105,2.045-1.105c1.107,0,2.379,0.627,2.379,3.557c0,2.785-1.494,3.301-2.396,3.301
					c-1.088,0-1.641-0.553-1.641-0.848c0-0.314,0.607-0.443,0.922-1.033c0.092-0.166,0.166-0.332,0.166-0.516
					c0-0.664-0.352-1.549-1.531-1.549c-0.699,0-1.604,0.498-1.604,1.732c0,0.979,0.627,1.715,0.996,2.066
					c0.885,0.811,2.268,1.086,3.262,1.086c2.895,0,4.775-2.174,4.775-4.146c0-2.139-1.033-4.793-4.369-4.793
					c-0.424,0-1.641,0.018-2.84,0.865h-0.055L3642.924,1122.316z"/>
				<path fill-rule="evenodd" clip-rule="evenodd" fill="#6D6F71" d="M3656.057,1132.934c3.281,0,4.902-3.539,4.902-6.637
					c0-4.627-2.783-6.635-4.959-6.635c-2.434,0-4.922,2.359-4.922,6.635C3651.079,1130.242,3653.254,1132.934,3656.057,1132.934z
					 M3656.02,1132.068c-1.309,0-1.623-1.217-1.734-1.973c-0.129-0.848-0.184-2.268-0.184-3.762c0-2.303,0.111-3.262,0.203-3.797
					c0.166-0.959,0.461-2.01,1.715-2.01c1.105,0,1.529,0.793,1.713,2.01c0.057,0.406,0.203,1.529,0.203,3.797
					c0,0.775-0.018,2.674-0.184,3.762C3657.641,1130.852,3657.329,1132.068,3656.02,1132.068z"/>
				<path fill-rule="evenodd" clip-rule="evenodd" fill="#6D6F71" d="M3662.405,1121.598c0,1.051,0.848,1.936,1.936,1.936
					c1.07,0,1.936-0.867,1.936-1.936c0-1.088-0.885-1.936-1.936-1.936C3663.272,1119.662,3662.405,1120.527,3662.405,1121.598z
					 M3663.327,1121.598c0-0.424,0.369-0.996,1.014-0.996c0.553,0,0.996,0.441,0.996,0.996c0,0.553-0.443,0.994-0.996,0.994
					C3663.696,1122.592,3663.327,1122.021,3663.327,1121.598z"/>
			</g>
		</g>
	</g>
</g>
</svg>
